"V1","V2","V3","V4","V5","V6","V7","V8","V9","V10","V11","V12"
-0.74,1.19,0.95,-0.5,0.42,0.53,0.76,0.73,0.74,0.4,-1.41,-1.45
-2.22,-0.02,1.1,-0.17,1.34,0.14,0.44,-0.04,0.6,1.28,-0.16,-0.02
-1.48,0.45,1.34,0.11,0.65,0.4,-0.22,-0.46,-0.03,-0.01,0.11,0.62
-2.47,0.64,0.82,-0.94,0.24,-1.01,-1.09,-0.72,1.73,2.15,1.2,-0.95
-0.91,0.88,1.3,-0.42,-0.43,0.99,1.06,0.73,1.17,-0.31,0.86,-0.22
-0.57,1.67,1.36,-0.31,-0.03,-0.64,-1.98,-2.1,-0.48,-0.09,0.13,0.6
-0.37,1.3,0.53,-1.37,-0.18,0.61,0.9,-0.99,-1.04,-2.04,-0.67,0.97
-0.13,0.8,1.28,0.7,1.07,1.11,0.79,0.06,-0.27,-0.93,0.21,1.9
-0.73,0.64,0.85,-0.44,0.07,-0.94,-0.42,0.21,1.35,0.99,0.04,0.11
-0.33,0.48,0.62,1.09,0.39,-0.21,-0.32,-0.68,0.94,1.03,0.91,0.51
-0.53,0.19,0.4,3.33,1.49,-0.47,0.06,0.98,0.52,-0.09,0.58,0.47
1.1,0.33,-1.43,0.34,-0.52,-2.42,0.02,0.04,-0.21,-0.03,0.43,-1.05
0.79,0.88,-1.65,0.36,0.68,-3.54,-2.48,-1.55,-1.45,0.43,1.1,-1.5
-0.34,-0.68,-2.3,0.06,1.62,0.31,0.51,-0.32,-0.63,1.17,1.15,-1.03
0.04,0.21,-1.16,1.2,1.8,-0.58,-0.44,-1.47,-0.01,1.91,0.39,-1.2
-0.61,-1.07,-2.47,-0.55,0.98,-0.54,0.75,-0.76,0,1.28,1.46,-1.15
-0.3,0.23,-1.54,-0.3,1.33,-0.48,0.8,-0.66,-0.7,1.34,0.93,0.64
-0.13,-0.18,-1.7,-0.45,1.63,-0.66,-0.34,-1.27,-1.68,0.33,-2.24,-2.52
-0.42,0.63,0.49,-0.07,0.12,-1.2,-0.12,-0.7,-1.24,0.48,-0.25,-0.55
-0.34,0.81,0.35,-0.15,0.67,0.02,1.24,0.36,-0.83,0.63,-1,-0.41
-1.45,0.67,0.05,-0.89,0.86,0.59,1.45,0.27,0.64,0.74,0.84,0.99
-0.25,0.5,0.49,-0.31,-0.32,-0.32,0.25,0.59,1.38,0.99,-0.23,-0.86
-1.54,0.93,1.58,-0.42,-0.05,-1.14,0.17,0.35,0.98,1.87,0.66,0.58
-1.77,0.55,1.63,0.5,1.06,0.82,0.36,0.19,0.36,0.34,0.03,0.42
-0.37,0.15,0.11,-0.03,-0.51,-0.7,1.53,-0.06,0.73,1.64,-0.58,0.22
-0.77,0.3,-0.11,0.42,-0.14,-1.78,0.18,-0.5,1.24,2.1,-0.4,-0.59
-1.45,0.8,0.95,0.58,-0.23,-1.32,1.44,0.88,1.12,-0.52,-1.53,0.05
-1.78,-0.54,-0.68,-1.73,0.06,-0.9,0.35,-0.41,-0.47,-0.16,-0.47,0.14
-1.01,0.76,0.3,-2.27,-0.63,0.55,0.86,0.72,1.96,0.92,-1.04,-0.78
-1.22,0.86,1.07,0.28,0.3,-1.54,-1.07,-0.11,2.12,1.85,-0.41,-0.36
-1.28,0.54,1.02,-0.36,0.27,-0.46,0.87,1.36,0.74,0.92,0.13,-0.67
0.08,1.3,0.76,-1.47,-0.28,-0.22,0.25,-0.65,-0.15,-0.09,-0.94,-0.96
0.29,1.79,1.09,-1.05,0.31,0.34,0.08,-1.54,-1.23,-0.75,-1.74,-2.36
0.99,0.62,0.64,0.07,0.1,-0.99,-2.15,-2.27,-0.79,-0.56,-1.32,-1.47
1.19,2.07,1.33,0.63,0.58,-0.88,-1.1,-1.03,-0.45,-0.9,-0.8,-0.89
0.15,1.71,0.44,0.48,-0.07,-2.26,-1.73,-1.25,-1.17,-0.14,-1.19,-1.1
0.18,1.02,0.02,-0.25,0.47,-0.86,-1.12,-1.13,0.29,0.51,-0.24,-0.65
1.51,1.94,0.14,0.26,0.45,-0.21,-1.4,-1.91,-0.97,-1.37,-0.58,0.08
0.7,0.86,-0.14,1.23,2.03,0.71,-0.92,-2.79,-0.9,-0.64,-0.79,-0.22
-0.56,-0.46,-1.01,-0.67,0.61,0.09,-1.75,-1.61,0.02,1.3,0.54,0.03
1.07,-0.59,-1.2,0.5,-0.42,-1.47,-0.71,-0.73,-0.25,1.87,-0.06,-1.1
1.67,0.06,-1.87,-0.01,0.23,-0.39,-0.38,-0.79,-0.25,1.29,0.38,-0.14
-0.43,-0.46,-0.19,1.81,-0.03,-0.93,0.58,-0.42,0.06,1.55,1.95,-0.92
0.32,-0.72,-1.51,1.56,0.98,0.36,1.44,0.86,0.7,2.32,1.64,-1.29
0.53,0.12,-0.09,1.41,0.27,0.15,1.32,-0.5,-1.02,0.78,1.79,-0.46
-0.61,-0.93,-1.57,-0.98,-0.61,-0.64,0.95,0.19,-0.59,1.62,1.67,-0.29
0.45,-0.26,-1.05,-0.63,-0.37,0.97,0.92,-1.08,-1.79,-0.01,0.7,0.79
0.48,-0.84,-0.92,0.84,-0.58,-1.18,0.93,-0.6,-1.44,0.85,1.09,0.85
1.63,-1.18,-3.6,2.21,1.9,0.27,-0.39,-1.47,1.07,1.59,-0.76,0.67
-0.42,-1.2,-3.44,0.95,2.11,0.62,-0.19,-0.99,-0.2,1.13,1.59,0.32
0.42,-0.46,-2.32,0.23,0.74,-1.42,0.5,0.94,-0.32,-0.21,0.88,1.11
0.51,-0.52,-0.48,0.81,0.6,-0.48,-0.93,-1.27,-0.95,-0.44,0.83,0.63
0.74,0.49,-0.36,0.1,-0.22,0.82,0.57,-0.08,1.24,0.11,0.13,0.92
-0.92,0.37,0.54,0.54,0.61,-1.13,-0.53,0.66,-0.52,-0.81,0.53,1.46
-0.46,-0.04,0.09,-0.48,0.53,-0.67,-0.02,-0.02,0.91,-0.5,0.49,0.58
-0.53,-0.04,0.01,0.02,-0.04,-1.23,0.6,3.23,1.19,-0.79,-0.31,0.87
-1.06,-0.32,-0.09,-0.61,0.53,-0.59,-0.24,1.17,1.37,-0.44,-0.92,0.47
-0.78,-0.01,0.03,-0.43,0.06,-0.81,-0.28,-0.15,-0.22,-0.34,0.13,0.83
-0.69,0,0.22,-0.61,-0.74,-0.91,0,0.03,-0.96,-1.34,-1.11,-0.23
1.17,-0.15,0.55,0.87,-0.83,0.23,-0.24,-0.35,0.53,0.18,-0.68,-1.06
0.32,-0.48,0.98,0.15,-1.76,-0.22,-0.94,1.18,0.64,-0.15,0.82,-1
-0.56,-1.02,-0.26,0.06,0.75,0.04,-0.22,-0.23,-0.15,-0.07,0.79,1.39
-0.13,-1.4,0.38,-0.05,-0.16,0.94,-1.55,-1.46,-0.56,0.71,-0.2,-0.29
0.65,-0.8,1.46,0.99,-0.53,2.01,0.15,1.69,1.36,-0.26,-0.12,1
0.24,-1.47,1,0.19,-1.18,1.52,-0.76,0.02,0.73,0.97,-0.76,-1.16
0.78,-2.51,0.14,-0.71,-2.58,0,-2.48,-0.31,-1.87,-1.59,-1.39,-0.64
1.02,-2.5,-0.01,0.77,-2.11,1.55,-0.91,-0.47,0.47,-0.82,-0.15,0.41
0.53,-1.48,0.7,1.98,-2.23,0.63,-1.33,-0.28,2.31,-1.35,-0.16,0.12
-0.63,-1.1,0.13,0.95,-1.33,0.39,0.58,-0.38,1.22,0.18,0.2,1
-0.83,-0.8,-0.12,-0.21,-0.67,-0.33,-0.2,-1.39,1.34,0.51,0.22,0.64
-1.08,-0.07,0.02,-0.26,-1.47,-1.93,-0.7,0.38,1.09,0.33,-0.57,0.63
0.59,-1.55,0.84,0.2,-1.56,1.07,-1.46,-1.16,1.07,0.2,0.55,1.96
-0.12,-1,0.53,0.13,0.01,0.65,0,0.25,0.27,0.02,-0.39,-0.06
0.32,-0.26,-0.28,0.2,-0.29,-0.85,-0.76,1.28,1.85,0.95,0.57,-0.13
-0.22,-0.69,-0.47,-0.28,0.31,0.66,0.36,1.6,0.65,-0.03,-0.17,-0.76
0.11,0.29,0.63,1.22,0.24,-1.11,-0.62,0.63,0.69,-0.22,0.38,0.94
-0.6,-0.14,-0.13,-0.77,-0.6,-0.72,0.48,0.88,-0.58,-0.01,-0.21,-0.29
0.02,-1.53,0.09,1.22,-0.15,1.29,0.1,0.65,0.47,-0.34,0.64,0.51
0.75,-0.7,1.51,1.93,-0.45,1.47,0.43,0.37,0.68,-0.11,-1.07,0.84
-0.17,-0.93,0.37,0.28,-0.2,0.26,0.07,0.68,0.83,0.57,-0.9,-1.25
-0.96,-1.28,-0.21,-0.63,-0.54,-0.2,0.02,0.24,0.17,0.25,-0.18,0.08
-0.89,-0.11,0.05,-0.66,-0.03,0.13,1.14,1.19,0.6,0.82,-0.66,-1.67
-1,-0.22,-0.47,-1.11,0.15,-0.31,-1.13,-0.67,1.34,0.9,-0.98,-0.33
-0.51,0.09,0.79,0.59,-1,-1.21,-0.39,0.23,1.44,0.77,0.8,0.69
-1.06,-0.23,-0.03,-1.23,-0.15,1.06,-0.73,-0.7,1.57,-1.15,-1.29,-0.28
-0.99,0.12,1.04,-0.96,-0.46,0.42,-0.66,0.06,1.22,0.49,0.84,-0.28
-0.97,-0.66,0.21,-0.58,0.15,0.26,-0.71,0.89,0.4,0.38,-1.33,0.29
0.94,0.14,0.25,-1.86,-1.41,0.61,-1.45,-0.75,-0.58,-0.11,0.05,-0.24
2,2.16,0.7,-0.4,0.99,2.37,-0.3,-1.01,0.12,-2.27,-3.07,-1.62
0.42,2.05,0.19,-1.86,0.51,1.33,-0.42,0.07,0.03,-1.02,0.02,-0.73
0.94,1.73,-0.05,0.68,1.72,0.8,-0.11,-0.55,-0.75,-0.14,-1.43,-2.59
-1.01,1.13,-0.51,-1.38,1.25,1.24,1.9,0.2,-1.45,-1.77,-2.33,-2.33
-0.79,1.62,-0.19,-2.41,0.61,-0.19,0.1,-1.52,-1.06,0.01,1.48,0.29
-0.81,0.99,-0.17,-1.21,0.19,0.02,0.87,0,-0.62,-1.25,-0.95,0.44
-0.37,1.16,0.55,-1.39,0.22,-0.51,-0.37,0.37,-0.5,-0.81,-2.89,-0.95
0.76,0.63,0.21,0.06,-0.44,-0.85,-0.26,-0.07,-0.49,-1.77,-2.6,-2.38
-0.49,-0.07,0.49,1.29,0.04,1.29,0.53,0.23,0.47,-1.44,-0.35,-0.65
-0.27,0.56,1.56,1.47,1.32,-0.12,0.21,0.24,-0.76,-1.54,-1.98,-1.12
1.17,1.32,0.95,0.66,-0.68,0.63,0.22,-0.29,1.28,-0.53,0.41,0.11
-0.16,0.44,0.5,1.07,1.27,0.58,0.85,0.83,1.41,0.67,0.95,0.34
0.13,1.17,0.94,1.84,1.28,-0.55,0,-0.19,-0.29,-0.73,0.51,-0.44
0.83,0.1,-0.58,-0.42,0.32,1.08,0.36,1.81,-0.1,-0.55,1.56,0.96
0.78,1.15,-0.57,-0.3,1.38,1.22,1.71,1.23,-1.14,-1.33,0.41,1.76
-0.2,0.74,-1.82,-1.2,-0.13,-0.61,2.47,2.15,-1.76,-1.74,0.72,1.42
-0.22,0.16,-0.85,0.26,0.66,-0.52,0.98,0.32,-0.63,0.28,0.52,0.86
1.32,-0.73,-0.3,-1.73,-0.62,-0.3,-0.55,-0.77,-1.65,0.23,-0.11,1.21
-0.63,-1.3,-0.78,1.18,1.14,0.23,0.48,-0.24,-0.71,0.5,1.23,2.09
-0.03,0.24,-0.15,-0.3,-0.24,0,0.23,-0.23,0.1,0.32,0.87,1.23
-0.99,-0.39,-0.59,-0.85,-0.11,0.71,1.75,1.83,0.37,-0.76,-0.15,1.42
-0.07,-0.04,0.22,-1.06,-1.14,0.05,0.76,0.93,-0.42,-1.57,-0.26,1.07
-0.65,-0.07,0.02,0.38,1.27,1.02,1.36,1.62,-0.01,0.16,0.84,-0.57
-0.35,0.06,-0.67,-1.44,-0.16,0.97,1.56,1.13,-1.25,-1.62,0.27,0.69
0.12,-0.03,-0.94,-1.9,-1.35,0.62,1.83,0.88,-0.62,-1.01,0.19,0.64
0.49,-0.37,-0.75,0.45,0.24,1.24,1.73,1.79,-0.58,-1.19,1.38,1.52
0.18,1.19,0.02,-1.34,-0.47,-0.82,1.44,2.13,-0.53,-0.81,-0.08,0.93
0.71,0.62,-0.19,-0.06,1.08,0.74,0.54,1.22,-0.52,-0.84,0.88,0.23
1.03,0.81,-0.14,-0.48,-0.96,-0.54,1.25,0.31,-2.09,-1.52,0.6,0.79
2.47,-2.34,0.06,1.72,-3.4,0.92,-0.25,0.11,0.82,-0.71,0.36,1.25
2.06,-1.04,0.32,0.83,-0.99,1.95,-1.23,-0.78,-0.18,-0.32,0.41,1.34
0.24,-1.49,-0.02,1.43,-0.67,1.09,0.36,-0.21,-0.09,-0.25,1.22,1.31
0.36,-0.75,-1.58,-0.19,-0.42,-0.76,0.72,-0.24,-0.8,-0.13,0.89,1.02
0.2,-0.6,-0.49,-0.66,-0.5,-0.61,-0.01,0.23,-0.94,0.36,0.6,0.12
3.45,-2.46,1.7,0.85,-1.7,2.19,-1.32,0.26,-2.69,-1.83,-0.66,0.16
3.1,-1.59,1.34,0.4,-2.68,1.78,-0.8,1.16,-1.61,-0.64,1.78,0.74
1.31,-0.95,1.4,0.92,0.68,1.12,-1.85,0.97,-0.39,-0.2,0.13,-0.48
1.88,-1,-0.53,-1.11,-2.2,0.06,-1.79,-0.1,-0.48,-0.32,0.47,-0.47
1.55,-1.6,-0.01,0.11,-1.04,0.55,-1.67,0.65,-0.65,-0.12,-0.86,-1.09
