"V1","V2","V3","V4","V5","V6","V7","V8","V9","V10","V11","V12"
-0.14,1.11,0.39,-1.02,0.78,1.43,0.21,-0.3,-0.54,-1.16,0.24,2.65
-0.14,1.32,0.34,-1.79,-0.79,1.43,0.87,-0.17,-1.6,-2.32,-0.05,2.63
0.36,1.62,0.22,-1.94,-1.02,1.56,1.43,-0.42,-1.14,-1.53,0.19,1.85
0.82,1.31,-0.29,-2.46,-0.67,1.5,-0.91,-2.06,-1,-0.61,0.42,2.23
0.48,1.67,0.11,-2.48,-0.45,2.37,0.31,-1.08,-1.32,-0.7,0.61,2.56
-0.19,2.19,0.31,-2.45,-0.74,3.13,0.96,-1.51,-1.5,-0.16,0.83,1.88
1.08,1.46,-0.11,-2.35,-0.17,2.37,0.7,-0.76,-0.62,-0.3,0.58,2.48
-1.12,-0.19,0.3,-2.22,-0.4,1.93,1.03,-0.66,-0.95,-0.74,0.08,2.36
-0.68,1.34,1.42,-1.67,-1.12,1.3,-0.22,-0.71,0.05,-0.51,-0.24,1.14
-1.13,-0.28,1.23,-1.39,-1.01,1.81,0.2,-1.25,-0.02,0.78,0.09,1.1
0.03,1.11,0.59,-1.24,0.53,1.72,-1.14,-1.24,0.97,1.21,0.11,0.99
-0.28,2.16,0.68,-1.69,-0.76,1.91,-0.38,-2.69,-1,1.33,1.35,1.1
-0.1,1.4,0,-2.03,-0.84,2.4,-0.61,-1.85,-0.63,1.15,1.36,0.71
0.67,0.67,0.1,-0.64,-0.78,1.27,1.36,-1.69,-0.29,0.66,0.08,1.27
1,-0.78,-0.39,1.26,-0.26,-0.27,1.82,-1.4,-1.66,2.04,1.31,-0.33
1.2,-0.42,-0.2,0.64,-0.95,-0.74,2.4,0.46,-2.45,1.39,2.13,-1.16
-0.71,-0.19,0.51,-0.11,-0.78,-0.13,1.28,0.51,-0.75,-0.22,0.84,-0.42
0.15,-1.2,-0.06,0.08,-0.37,-0.36,0.3,1.13,0.08,0.19,-0.06,1.41
1.38,0,-1.52,0.8,1.38,-0.56,0.72,0.83,-2.42,-0.14,2.63,-0.79
1.21,0.66,-1.9,0.01,2.71,-0.06,-0.84,0.09,-2.52,-0.23,1.15,-0.68
1,0.68,-2.34,0.17,2.12,0.18,-1.78,-0.09,0.17,-0.56,2.24,-0.22
1.26,2.18,-1.77,-0.14,2.43,0.82,-2.03,-0.67,0.9,-0.55,0.14,0.09
1.36,1.55,-0.91,-0.9,2.05,0.9,-1.85,-0.7,0.44,0.01,-0.03,0.3
0.91,0.45,-1.03,-1.08,0.5,1.45,-0.93,-1.73,-0.49,0.97,0.56,0.33
0.33,2.27,-0.4,-1.24,0.31,1.71,-1.16,-2.07,-0.02,0.38,0.29,-0.01
0.69,1.03,-0.56,-1.51,1.69,1.94,-0.88,-1.86,-0.28,0.61,0.27,0.85
0.17,0.67,0.17,-0.9,1.18,0.88,-1.5,-0.57,1.03,0.48,-0.83,0.06
-0.78,0.46,-0.09,-1.16,0.36,1.61,-0.98,-2.22,-0.97,1.47,1.14,-0.54
0.46,1.08,-0.33,-1.1,0.68,1.58,0.11,-1.02,-1.07,1.4,1.47,0.48
0.85,2.1,-0.95,-0.6,0.45,1.21,0.64,-1.65,-0.85,1.59,1.99,-0.43
0.84,-0.35,-1.47,-0.06,0.2,0.25,0.96,-1.07,-1.69,0.75,1.86,0.22
0.95,0.81,-0.95,1.47,0.9,-0.42,1,-1.12,-1.79,-0.71,1.48,0.19
-0.22,-1.6,-1.76,1.31,1.31,-0.19,0.81,-0.99,-0.89,-0.01,1.42,-0.21
1.91,-0.1,-1.04,1.18,1.76,-0.21,-0.53,-0.06,-0.47,0.06,0.27,0.25
1.05,-1.01,-0.74,1.61,1.66,-0.79,-1.42,-1.75,0.8,2.55,-0.76,0.3
1.2,0.84,-1.83,2.09,1.39,-1.3,0.02,0.06,0.98,-0.25,0.44,-0.74
1.29,-0.59,-0.81,1.21,1.26,-1.05,0.1,0,0.08,0.45,-0.73,-1.05
-0.21,-0.53,0.02,-0.1,-0.52,-0.49,0.04,0.2,0.21,0.22,-0.11,-0.71
0.19,0.18,0.3,0.48,0.04,-0.89,-1.22,0.55,0.49,-0.21,-0.08,0.25
-0.12,-0.74,0.12,0.68,-0.33,-1.19,-0.33,1.23,-0.24,-1.58,0.13,0.42
-0.61,-0.48,0.32,-0.23,0.64,-0.46,-1.18,-0.31,0.59,0.28,-0.19,0.23
-1.39,-1.11,0.87,0.19,0.03,0.15,-0.73,0,0.73,-0.47,-0.78,0.31
-1.09,0.46,1.41,-0.81,-0.81,-0.07,-0.82,-0.13,1.1,0.47,-0.83,0.06
-1.92,-1.72,1.29,-0.41,-0.64,0.92,0.68,0.26,-0.11,-0.47,-0.71,-0.45
-1.51,-0.92,1.5,0.05,-1.45,-0.06,1.26,0.37,0.63,-0.04,-0.81,-0.44
-1.62,-0.88,0.63,-0.55,-0.49,-0.21,-0.26,0.92,0.99,0.18,-1.24,0.33
-1.44,0.03,1.24,-0.47,-0.78,0.03,0.12,0.79,0.58,-1.35,-1.68,0.25
-0.62,-0.14,0.45,-0.06,0.02,-0.23,-1.64,0.67,1.64,-0.45,-1.41,0.85
-0.28,0.81,0.52,-0.86,-0.26,0.87,-1.02,-0.02,1.84,0.65,-0.77,-1.02
-1.16,-1.29,0.58,-1.3,-0.48,0.98,-0.5,-0.41,1.14,0.88,-0.48,0
-1.3,-0.83,1.26,-1,-1.13,0.46,0.06,-0.42,0.86,0.91,-0.95,-0.8
-0.95,-0.54,1.19,-1.21,-1.52,0.61,0.38,-0.5,0.26,0.84,-0.86,0.16
-1.94,0.55,1.41,-0.56,-0.06,0.62,-0.72,-1.04,1.48,2,-0.5,-0.24
-0.76,0.39,1.45,-0.61,-1.08,0.44,0.05,-0.57,0.2,1.06,-0.78,-0.93
-0.91,-0.14,1.32,-0.12,-1.1,0.07,0.17,0.38,0.66,0.11,-0.88,-0.92
-0.9,-0.92,0.65,0.11,-1.02,-0.5,0.16,0.99,0.87,0.74,-0.03,-0.58
-0.07,0.27,0.98,-0.57,-0.87,-0.03,-0.12,0.49,0.85,0.51,-0.16,0
-0.38,0.33,0.57,-0.46,-1.21,-0.5,0.72,0.5,0.53,-0.2,-0.19,-0.49
-0.42,0.04,0.94,-0.19,-1.08,-0.07,0.38,0.62,1.21,0.58,-0.29,-0.08
-0.54,-0.48,0.58,0.31,-1.38,-0.61,0.41,0,0.21,0.72,-0.3,-0.33
-0.27,-1.16,0,1.2,-1.13,-1.71,0.67,1.61,-0.3,0.08,0.55,-0.63
0.71,-1.74,-0.56,1.36,0.66,-1.43,-0.15,2,0.19,-0.68,-0.17,0.85
0.45,-0.45,-0.95,1.05,0.81,-2.07,-0.59,3.16,1.03,-1.98,-0.25,1.21
0.87,-1,-1.18,0.82,1.46,-1.18,-2.09,0.89,1.41,-0.03,-1.43,-0.09
0.45,-0.52,-0.33,0.84,-0.24,-1.66,-0.48,0.63,0.57,-0.5,-1.74,-0.78
0.02,-0.52,0.73,0.92,-0.39,-1.01,-0.23,0.44,-0.25,0.59,-1.48,-0.27
-1.12,-0.88,0.85,0.36,-1.05,-0.69,-0.04,0.01,0.38,0.63,-0.25,0.15
-1.04,-1.09,1.11,0.22,-1.58,-0.7,1.06,1.27,0.06,-0.38,-0.41,0.36
-1.35,-0.35,1.43,-0.48,-1.09,-0.04,0.23,0.45,0.66,0.17,-0.43,-0.5
-1.78,-1.76,1.46,-0.38,-2.19,-0.63,0.36,0.49,0.6,-0.7,-1.22,-0.39
-2.08,-0.31,1.8,0.07,-0.81,-0.23,0.23,0.71,0.73,0.37,-0.75,0.2
-1.64,-1.43,1.91,0.91,-1.07,-0.2,1.03,0.33,0.33,1.16,-1.15,-0.58
-1.94,-1.82,1.71,0.05,-1.61,-0.2,1.81,-0.02,-0.78,0.29,-1.25,-1.28
-1.25,-0.49,1.32,0.17,-0.79,-0.46,-0.2,0.83,0.09,-0.04,-0.35,0.28
-0.53,-0.62,0.57,0.47,-0.57,-0.42,0.02,0.82,0.78,0,-0.64,-0.37
0.66,-0.46,-0.13,0.92,-0.24,-0.62,1.1,0.86,0.17,-0.01,-0.98,-0.6
-0.24,-0.27,0.5,0.63,0.31,-0.63,-0.41,0.69,-0.32,-1.16,-0.21,0.39
0.09,-0.83,-0.27,0.22,0.2,-0.81,-0.7,0.84,0.58,0.12,-0.96,0.12
0.27,-1.22,-0.15,0.73,1.11,-0.23,-1.56,0.6,0.33,-0.15,-1.09,-0.58
-1.08,-0.63,0.82,-0.4,0.44,0.29,-1.83,-0.72,0.18,-0.34,-0.45,-0.15
-0.02,-0.19,0.86,0.31,-0.03,-0.6,0.06,-0.22,-0.78,-0.52,-0.24,-0.26
-1.04,-0.75,0.29,0.15,0.24,-0.34,0.46,0.82,-0.06,-0.68,-0.17,-0.09
-0.97,-0.22,1.12,0.16,-0.67,0.32,-0.1,0.17,-0.26,-0.71,0.23,-0.25
-0.14,-0.31,0.59,-0.12,-0.19,0.26,0.34,0.1,-0.81,-0.15,0.74,0.47
-0.64,-1.13,-0.21,-0.17,0.04,-0.5,-0.1,1.13,-0.06,-0.62,0.45,1.07
-1.09,0.37,1.09,-0.48,-0.48,0.29,0.03,0.37,0.12,-1.34,-0.13,1.15
-1.12,-0.94,1.02,-0.12,-0.62,-0.4,0.41,0.54,-0.21,-1.29,-0.13,0.4
-0.72,-0.72,0.61,-0.12,-0.49,-1.1,-0.6,1.31,0.3,-1.11,-0.68,0.65
-2.21,-1.56,1.54,-0.44,-0.82,0.33,0.2,0.43,0.37,-1.13,-1.03,0.48
-1.93,-1.56,0.97,-0.42,-0.63,0.03,0.42,0.51,-0.04,-1.18,-0.64,-0.09
-0.23,-0.06,0.87,0.08,0.16,-0.38,-0.76,1.37,0.44,-1.05,-0.38,1.11
-1.13,-0.94,0.84,-0.49,-0.44,0.18,-0.92,1,1.67,0.31,-1.22,-0.43
-0.92,-0.34,0.95,0.12,-0.83,-0.15,0.06,0.97,-0.23,-1.17,-0.2,-0.04
-0.45,-0.85,0.4,0.56,0,-1,-0.51,1.54,1.04,-0.57,-0.28,0.22
0.99,-0.04,0.01,1.26,-0.45,-1.26,0.77,0.92,-0.62,-1.01,1.17,-0.84
1.3,-0.26,-0.89,1.16,1.43,-1.02,-1.32,1.51,1.16,-0.56,0.11,0.18
1.02,0.87,-1.03,1.29,1.01,-1.51,-1.17,1.99,0.72,-3.38,-1.21,1.32
0.39,-1.06,-0.6,0.22,1.92,-0.66,-2.33,1.18,2.46,-0.04,-1.95,1.11
0.14,0.39,0.34,-0.46,0.33,-0.3,-0.76,1.6,1.9,-0.81,-1.86,0.46
0.48,0.63,-0.49,0.38,-0.63,-0.34,-0.2,0.42,0.66,-1.45,-0.96,1.4
1,-0.77,-1.08,1.18,-1.41,-0.54,2.48,-0.14,-1.11,0.59,1.44,-1.46
1.49,-0.13,-0.78,1.15,-0.79,-1.11,0.84,-0.61,-1.73,2.87,1.88,-1.9
1.07,0.31,-0.96,0.68,-0.12,-0.89,0.11,-1.35,-1.07,1.72,0.39,-2.12
0.57,1.99,-1.9,1.84,0.59,-1.88,1.75,-1.04,0.98,0.48,1.14,-2.23
1.38,1.19,-1.41,1.66,0.18,-1.51,0.91,-0.09,-0.03,0.69,1.73,-2.6
0.55,-0.11,-1.81,0.9,1.77,-0.82,-0.3,0.78,0.31,0.3,0.84,-1.48
0.73,1.39,-1.46,0.7,0.51,-1.11,-0.41,-0.18,0.42,-0.25,1.57,-1.24
1.77,1.61,-1.11,-0.06,0.34,0.76,0.99,-0.74,-0.92,-0.17,2.06,-0.58
1.14,1.17,-0.32,-0.82,0.1,0.47,1.02,0.46,-0.58,-0.5,0.65,0.09
0.54,-0.05,-0.37,-0.41,0.08,0.14,0.15,-0.48,-0.49,1.07,0.24,-1.48
0.34,0.26,0.09,-0.2,-0.18,-0.06,1.57,-0.5,-1.69,0.97,0.92,-0.34
0.06,-0.2,-0.37,0.46,0.21,-0.32,0.56,0.39,-0.51,-0.93,0.46,-0.28
-0.35,-1.09,0.21,0.55,-0.28,-0.99,-0.82,1.17,0.2,-0.79,-0.97,0.19
1.16,0.87,0.24,0.42,0.64,-0.2,-0.43,0.62,-0.49,-0.51,-1.09,-0.9
0.12,0.39,0.21,0.33,0.19,0.43,0.62,0.16,0.95,0.23,-1.24,-0.71
-0.09,0.46,-0.45,0.62,-0.14,-0.06,0.38,0.15,1.23,-0.49,-0.97,-0.35
0.45,-1.7,-0.42,0.58,-0.21,0.11,1.41,-0.57,-0.06,0.5,-1.37,0.3
1.27,-0.34,-0.73,1.05,-0.77,-1.02,1.74,-0.65,-1.44,1.54,0.17,0.17
0.82,-0.25,-1.28,1.2,-0.49,-1.07,2.02,-0.37,-2.86,1.2,0.47,-2.38
0.02,-1.37,-0.4,0.21,-0.53,0.47,1.87,-0.32,-1.55,1.07,0.39,-1.37
0.96,-0.43,-1.57,1.89,1.17,-0.63,0.64,-0.01,0.12,0.01,0.73,-1.28
1.38,0.86,-2.05,1.54,1.39,-0.61,-0.3,0.18,-0.98,-1.18,2.82,-1.06
1.54,0.85,-2.02,1.25,1.63,-0.59,-1.1,0.63,0.91,-1.57,1.14,-0.06
2.22,1.63,-1.79,1.07,2.52,-0.12,-1.19,0.08,2.17,-1.8,0.03,0.61
1.02,1.12,-1.08,0.4,1.7,0.18,-1.76,-0.45,0.44,-1.06,-0.45,0.03
0.26,0.15,-0.2,-0.49,1.34,0.67,-1.48,-0.98,0.85,0.84,0.15,-0.41
0.41,0.64,-0.67,-0.26,0.44,0.63,0.56,-1.94,-0.6,2.02,-1.02,-1.27
