"V1","V2","V3","V4","V5","V6","V7","V8","V9","V10","V11","V12"
-1.42,-3.81,-0.3,-1.16,0.37,-0.36,0.01,-1.45,-0.74,-0.74,-0.73,-2.39
-2.04,-4.38,0.1,-1.36,0.01,-1.16,0.06,-0.2,0.41,-0.91,0.21,-0.54
1.02,-0.05,0.69,-0.85,0.51,-0.44,0.47,0.43,0.65,-0.55,0.48,-0.24
1.02,-0.05,0.69,-0.85,0.51,-0.44,0.47,0.43,0.65,-0.55,0.48,-0.24
1.02,-0.05,0.69,-0.85,0.51,-0.44,0.47,0.43,0.65,-0.55,0.48,-0.24
1.02,-0.05,0.69,-0.85,0.51,-0.44,0.47,0.43,0.65,-0.55,0.48,-0.24
1.02,-0.05,0.69,-0.85,0.51,-0.44,0.47,0.43,0.65,-0.55,0.48,-0.24
1.02,-0.05,0.69,-0.85,0.51,-0.44,0.47,0.43,0.65,-0.55,0.48,-0.24
1.02,-0.05,0.69,-0.85,0.51,-0.44,0.47,0.43,0.65,-0.55,0.48,-0.24
1.02,-0.05,0.69,-0.85,0.51,-0.44,0.47,0.43,0.65,-0.55,0.48,-0.24
1.02,-0.05,0.69,-0.85,0.51,-0.44,0.47,0.43,0.65,-0.55,0.48,-0.24
1.02,-0.05,0.69,-0.85,0.51,-0.44,0.47,0.43,0.65,-0.55,0.48,-0.24
1.02,-0.05,0.69,-0.85,0.51,-0.44,0.47,0.43,0.65,-0.55,0.48,-0.24
1.02,-0.05,0.69,-0.85,0.51,-0.44,0.47,0.43,0.65,-0.55,0.48,-0.24
1.02,-0.05,0.69,-0.85,0.51,-0.44,0.47,0.43,0.65,-0.55,0.48,-0.24
1.02,-0.05,0.69,-0.85,0.51,-0.44,0.47,0.43,0.65,-0.55,0.48,-0.24
1.02,-0.05,0.69,-0.85,0.51,-0.44,0.47,0.43,0.65,-0.55,0.48,-0.24
1.02,-0.05,0.69,-0.85,0.51,-0.44,0.47,0.43,0.65,-0.55,0.48,-0.24
1.02,-0.05,0.69,-0.85,0.51,-0.44,0.47,0.43,0.65,-0.55,0.48,-0.24
-2.58,-3.11,-0.37,-1.72,1,-2.4,0.45,0,-0.29,0.2,-0.97,0.16
1.02,-0.05,0.69,-0.85,0.51,-0.44,0.47,0.43,0.65,-0.55,0.48,-0.24
1.02,-0.05,0.69,-0.85,0.51,-0.44,0.47,0.43,0.65,-0.55,0.48,-0.24
-2.07,-1.64,-1.56,-1.33,0.74,-2.26,0.2,0.9,-1.04,1.33,-1.68,0.11
1.02,-0.05,0.69,-0.85,0.51,-0.44,0.47,0.43,0.65,-0.55,0.48,-0.24
1.02,-0.05,0.69,-0.85,0.51,-0.44,0.47,0.43,0.65,-0.55,0.48,-0.24
1.02,-0.05,0.69,-0.85,0.51,-0.44,0.47,0.43,0.65,-0.55,0.48,-0.24
1.02,-0.05,0.69,-0.85,0.51,-0.44,0.47,0.43,0.65,-0.55,0.48,-0.24
1.02,-0.05,0.69,-0.85,0.51,-0.44,0.47,0.43,0.65,-0.55,0.48,-0.24
1.02,-0.05,0.69,-0.85,0.51,-0.44,0.47,0.43,0.65,-0.55,0.48,-0.24
1.02,-0.05,0.69,-0.85,0.51,-0.44,0.47,0.43,0.65,-0.55,0.48,-0.24
1.02,-0.05,0.69,-0.85,0.51,-0.44,0.47,0.43,0.65,-0.55,0.48,-0.24
1.02,-0.05,0.69,-0.85,0.51,-0.44,0.47,0.43,0.65,-0.55,0.48,-0.24
1.02,-0.05,0.69,-0.85,0.51,-0.44,0.47,0.43,0.65,-0.55,0.48,-0.24
1.02,-0.05,0.69,-0.85,0.51,-0.44,0.47,0.43,0.65,-0.55,0.48,-0.24
1.02,-0.05,0.69,-0.85,0.51,-0.44,0.47,0.43,0.65,-0.55,0.48,-0.24
1.02,-0.05,0.69,-0.85,0.51,-0.44,0.47,0.43,0.65,-0.55,0.48,-0.24
1.02,-0.05,0.69,-0.85,0.51,-0.44,0.47,0.43,0.65,-0.55,0.48,-0.24
1.02,-0.05,0.69,-0.85,0.51,-0.44,0.47,0.43,0.65,-0.55,0.48,-0.24
1.02,-0.05,0.69,-0.85,0.51,-0.44,0.47,0.43,0.65,-0.55,0.48,-0.24
1.02,-0.05,0.69,-0.85,0.51,-0.44,0.47,0.43,0.65,-0.55,0.48,-0.24
1.02,-0.05,0.69,-0.85,0.51,-0.44,0.47,0.43,0.65,-0.55,0.48,-0.24
1.02,-0.05,0.69,-0.85,0.51,-0.44,0.47,0.43,0.65,-0.55,0.48,-0.24
1.02,-0.05,0.69,-0.85,0.51,-0.44,0.47,0.43,0.65,-0.55,0.48,-0.24
1.02,-0.05,0.69,-0.85,0.51,-0.44,0.47,0.43,0.65,-0.55,0.48,-0.24
1.02,-0.05,0.69,-0.85,0.51,-0.44,0.47,0.43,0.65,-0.55,0.48,-0.24
1.02,-0.05,0.69,-0.85,0.51,-0.44,0.47,0.43,0.65,-0.55,0.48,-0.24
1.02,-0.05,0.69,-0.85,0.51,-0.44,0.47,0.43,0.65,-0.55,0.48,-0.24
1.02,-0.05,0.69,-0.85,0.51,-0.44,0.47,0.43,0.65,-0.55,0.48,-0.24
1.02,-0.05,0.69,-0.85,0.51,-0.44,0.47,0.43,0.65,-0.55,0.48,-0.24
-1.52,0.86,1.69,-0.18,1.84,0.45,0.27,-0.68,-0.23,-2.78,-0.96,-0.57
-1.19,-0.91,0.44,-0.7,0.3,-0.24,0.75,-0.36,0.16,-0.7,0.08,-0.73
-0.89,-0.61,0.34,-0.03,0.99,-0.24,0.29,-1.67,-0.07,0.83,0.81,-0.54
-0.64,0.22,0.87,1.07,0.51,-0.25,0.5,1.11,0.18,1.31,1.64,-1.25
-0.59,-1.16,0.32,0.9,-0.11,-0.74,-0.69,-1.06,-0.78,-1.02,1.02,0.4
-0.79,-0.76,0.73,1.32,1.91,1.15,1.55,1.47,-0.56,-1.37,1.6,0.46
-0.82,-0.33,0.81,1.07,1.23,0.49,0.67,1.65,1.35,1.97,2.6,1.08
-0.88,-0.86,1.06,0.62,0.98,0.53,2.4,2.58,0.94,-0.9,-0.24,-0.9
-1,0.1,1.12,1.03,1.13,0.63,2.55,1.42,1.75,1.04,2.23,2.26
-1.08,-0.14,1.06,0.67,1.49,0.41,1.82,2.29,1.72,0.42,1.92,1.18
-1.08,-0.65,1.3,0.12,0.84,-1.37,1.05,-0.17,1.03,0.42,0.71,0.75
-1.17,-0.65,1.17,0.32,1.43,-0.94,1.03,0.24,0.95,0.25,1.43,2.41
-1.11,-1.28,1.04,0.05,1.25,-1.43,0.76,1.27,1.78,-0.19,0.77,-0.18
-1.33,-0.92,1.38,0.01,0.02,-1,1.01,-1.66,0.44,-1.04,0.91,0.48
-1.25,-0.32,0.44,-0.35,1.61,-0.64,1.95,1.38,1.42,0.47,-0.38,1.05
-1.41,-0.95,1.42,-0.48,0.98,-1.1,-2.13,-1.32,1.46,0.35,1.27,-0.67
1.02,-0.05,0.69,-0.85,0.51,-0.44,0.47,0.43,0.65,-0.55,0.48,-0.24
-2.3,-0.26,1.45,-0.61,1.76,-1.36,0.2,-1.14,0.95,-2.15,-0.53,0.13
-1.31,-0.09,1.07,-1.02,1.46,-0.43,0.45,0.27,1.54,0.29,0.86,-0.06
-1.36,-0.75,1.45,-0.92,2.02,0.2,2.07,0.16,1.64,-0.83,-0.42,1.23
-1.93,0.32,1.2,-0.65,0.87,-0.22,0.39,0.39,1.05,-0.13,1.69,0.75
-1.36,0.14,1.35,-0.84,1.34,-0.26,1.26,1.16,1.21,-0.25,0.82,-0.05
-1.43,-0.22,1.51,-0.66,1.27,0.32,1.19,0.89,0.86,-1.55,-1.92,-1.87
1.02,-0.05,0.69,-0.85,0.51,-0.44,0.47,0.43,0.65,-0.55,0.48,-0.24
-1.51,-1.06,0.29,-0.62,0.34,-1.68,0.21,-0.95,0.92,-0.43,0.4,-0.51
-1.56,-0.31,0.04,-1.74,-0.7,-0.09,0.94,-1.98,0,1.2,-0.03,-3.02
-1.45,-2.13,0.6,-0.16,-0.33,-1.63,0.23,-0.26,0.2,-0.33,0.06,0.84
-1.7,-1.67,-0.61,-1.43,0.04,-0.32,-0.55,0.2,0.75,-1.27,0.28,0.1
-2.89,-4.55,0.13,-1.4,-0.05,-1.21,-0.01,-0.26,0.36,-0.95,0.16,-0.57
1.02,-0.05,0.69,-0.85,0.51,-0.44,0.47,0.43,0.65,-0.55,0.48,-0.24
1.02,-0.05,0.69,-0.85,0.51,-0.44,0.47,0.43,0.65,-0.55,0.48,-0.24
-1.77,-0.7,-1.41,0.15,0.36,-1.28,1.75,-2.82,-0.8,2.63,0.79,-2.57
-0.68,-1.93,-2.16,-0.07,0.41,-1.37,2.05,-1.59,-1.39,-0.15,-2.59,-4.98
-0.43,-0.25,-2.33,0.33,-0.68,-2.63,0.15,-4.31,-0.58,0.09,-1.58,-2.1
-0.29,0.64,-1.32,1.03,-0.91,-0.16,-0.96,-1.56,-0.19,-0.91,-0.46,-0.62
-0.36,-0.08,-1.76,0.51,-0.93,-0.95,0.14,-2.19,-0.78,-1.63,-0.27,-0.98
-0.23,1.52,-0.42,0.62,-1.29,-1.18,-1.24,-0.65,0.56,-0.4,-0.36,-1.26
-0.01,0.77,-1.15,0.85,-1.71,1.76,-1.67,0.28,-1.39,1.49,-0.83,0.54
-0.16,-0.17,-1.05,0.8,-1.68,0.8,-1.47,-0.42,-0.79,0.09,0.32,0.35
-0.06,0.39,-1.03,1.38,-0.7,2.25,-1.11,-0.34,-1.98,0.47,-1.42,0.7
-0.11,0.08,-1.5,0.9,-1.31,1.95,-0.65,-0.1,-0.57,0.3,-1.17,0.33
-0.04,0.75,-1.76,1.16,-1.16,2.24,-0.29,-0.46,-1.32,1.82,-0.72,0.81
-0.08,0.66,-1.05,1.11,-1.75,0.58,-0.65,0.92,-0.81,-0.08,-0.49,1.02
0,0.51,-1.38,0.68,-1.58,0.93,-0.62,0.22,-1.59,1.81,-0.9,2.51
0.03,0.87,-1.09,0.65,-2.64,0.04,-1.92,0.61,-0.97,-0.13,-1.69,-0.08
0.02,1.21,-1.13,1.32,-1.42,1.99,-1.36,0.56,-1.41,1.95,-1.85,0.93
-0.01,1.09,-1.15,0.91,-2.04,1.08,-1.14,0.83,-0.79,2.29,0.29,1.65
-0.01,1.16,-1,1.17,-1.41,1.66,-1.36,-1.72,-2.35,1.23,-1.51,-0.39
-0.03,0.89,-1.42,1.18,-0.66,2.84,-2.02,-2.24,-1.98,2.03,1.37,1.95
-0.05,0.75,-1.13,1.09,-1.8,1.22,-2.21,-1.64,-2.18,0.62,-1.78,-0.89
0.03,1.37,-1.35,1.11,-1.55,1.23,-1.83,-1.36,-1.37,2.01,-0.35,-0.08
0,0.94,-1.26,0.72,-2.05,0.58,-1.4,-0.03,-1.59,0.99,-0.89,-0.62
0.01,0.75,-1.31,1.33,-1.52,1.69,-1.78,0.1,-2.04,-0.01,0.05,1.62
-0.03,0.77,-1.4,0.95,-1.19,0.88,-1.79,0.27,-1.08,2.01,0.22,1.57
-0.06,1.01,-0.7,1.13,-2.13,0,-2.21,-1.07,-1.54,1.56,-1.74,-0.04
-0.03,0.88,-1.4,1.14,-1.61,1.66,-1.2,-2.04,-1.75,0.39,0.51,1.03
-0.04,0.9,-1.55,0.92,-1.61,0.21,-1.67,0.45,-0.66,1.99,0.22,-0.63
-0.06,1.04,-0.51,1.47,-1.07,1.16,-1.15,-1.84,-2.02,-0.82,-1.96,0.14
-0.11,1.02,-1.35,1.36,-1.06,0.24,-1.12,-1.31,-1.52,-0.13,1.12,1.87
-0.06,1.13,-1.56,1.43,-1.02,1.14,-1.11,-0.29,-2,-0.43,0.53,0.71
-0.06,0.45,-0.85,1.37,-0.57,2.25,-1.06,-1.07,-1.28,0.53,-0.71,1.62
-0.1,0.61,-1.03,0.78,-1.16,0.19,-1.85,-0.06,-0.94,-0.81,-0.59,1.78
-0.1,0.93,-1.12,1.47,-0.24,0.77,-1.41,-0.84,-0.5,0.22,-1.8,0.1
-0.1,0.52,-1.51,1.24,-1.23,1.36,-0.52,-0.17,-1.13,-0.48,-0.73,1.22
-0.08,0.61,-0.97,1.43,-0.87,1.72,-0.2,0.36,-0.9,0.11,-0.18,-0.13
-0.08,0.51,-0.97,1.42,-0.55,1.66,-0.98,-1.85,-1.05,0.49,-0.48,1.25
-0.1,0.98,-0.95,1.21,-1.53,0.99,-0.49,0.16,-0.61,1.97,0.26,0.81
-0.1,1.23,-0.77,1.61,-0.3,1.55,-0.67,0.88,-0.82,1.98,-0.85,0.41
-0.08,0.82,-1.17,1.63,-0.68,1.45,-1.01,0.48,-1.48,0.77,-0.52,1.01
-0.17,0.97,-1.1,1.41,-0.54,0.71,-0.84,0.66,0.28,1.98,-0.72,1.03
-0.12,1.11,-0.68,1.22,-0.51,0.49,-0.62,0.37,-0.63,1.32,-0.29,0.28
-0.11,1.27,-0.87,1.41,-0.89,0.61,-0.92,-0.26,-0.71,1.04,-1.87,-0.69
-0.14,1.06,-1.2,1.48,-0.25,1.01,-0.46,-0.59,-0.86,1.54,-2.2,0.83
-0.11,0.99,-1.29,1.32,-0.54,1.12,-0.85,-0.4,-0.44,1.48,-2.38,-0.55
-0.13,1.07,-0.52,1.57,-1.36,0.27,-0.67,-0.3,-0.45,0.49,-2.15,0.19
-0.15,0.91,-0.84,1.57,-0.08,0.24,-1.19,0.04,-0.58,1.29,-0.89,0.79
-0.08,0.93,-0.82,1.15,-0.68,0.71,-0.3,1.42,-1.38,-0.69,-2.27,-0.36
-0.1,1.16,-0.9,1.17,-1.69,1.12,-0.08,-0.31,-0.76,0.09,-1.5,0.33
