"V1","V2","V3","V4","V5","V6","V7","V8","V9","V10","V11","V12"
-6.05,-2.8,4,-3.8,2.21,-0.93,0.75,0.11,-0.78,0.01,-0.21,0.44
-4.44,-1.34,3.54,-2.84,2.75,-0.24,1.37,-0.26,0.2,0.37,-0.49,-0.32
-3.67,-1.33,1.08,-2.83,3.05,-1.48,-0.19,-0.43,-0.98,0.25,-0.16,-0.31
-3.22,-0.58,2,-2.38,1.97,-2.18,-0.5,-0.62,-0.19,0.54,-0.11,0.26
-2.82,-0.04,0.96,-2.93,1.89,-2.42,-0.7,-0.88,0.19,-0.09,-0.29,-0.04
-2,0.23,0.67,-2.08,1.71,-0.92,0.16,-0.61,0.11,-0.13,0.09,0.18
-1.59,-0.86,0.66,-0.22,1.05,-1.2,-1.25,0.42,1.25,-0.64,0.24,0.11
-1.06,-0.59,0.22,-0.56,0.58,0.12,-0.79,0.56,1.72,0.34,0.9,-0.59
-0.86,-0.78,-0.54,-0.03,1.02,0.6,-0.73,0.3,1.78,-0.51,0.95,0.28
-0.96,-0.37,0.94,-0.15,-0.04,0.66,-0.84,-0.32,1.45,-0.93,0.09,-1.18
-0.85,-1.72,0.56,-0.17,-0.56,0.17,-1.63,-1.43,2.16,-0.09,-1.16,-0.19
-0.68,-1.69,0.49,-0.72,-0.89,0.64,-1.03,-1.58,1.19,0.32,-0.98,1.06
-0.62,-1.75,-0.64,0.15,0.46,0.05,-1.31,-1.27,1.31,0.33,-0.8,2.05
0.28,-1.41,-0.16,0.42,0.09,-0.14,-0.27,1.16,-0.33,-0.64,-1.34,1.52
0.03,-1.62,-0.42,0.96,0,-0.95,-0.84,0.05,-1.02,0.82,-0.36,0.34
-0.38,-0.98,0.19,0.48,0.14,-0.26,1.07,-0.62,-0.48,0.58,-0.34,0.69
-0.61,-0.02,0.99,0.4,1.11,-0.51,0.74,-0.37,-0.56,0.45,-0.34,0.94
-0.52,0.29,-0.13,-0.01,0.76,-1.33,0.8,0.31,0.53,0.82,-1.19,0.52
-0.46,0.23,0.08,-0.09,0.04,-1.82,1.02,-0.41,-0.63,0.61,-0.83,0.74
-0.4,0.54,-0.01,-0.52,0.49,-1.71,0.25,0.85,-2,0.64,-0.83,-0.23
-0.34,-0.08,-0.18,0.1,0.21,-1.48,0.6,-0.08,-1.76,0.07,-0.12,-0.59
-0.03,0.17,-0.99,-0.01,0.1,-1.85,0.41,1.48,-0.16,0.78,0.41,-0.14
-0.16,0.15,0.64,0.73,1.04,-1.05,0.82,0.86,-1.52,0.63,-0.86,-0.68
-0.12,1,0.04,0.56,1.35,-1.31,0.1,-0.44,-0.68,0.5,-0.41,-0.5
0.62,-0.45,-0.5,0.22,0.13,0,-1.07,-0.73,-1,0.51,0.29,0.08
0.53,-1.13,-1.26,0.59,-0.07,-0.02,-0.74,0.03,-0.9,-0.17,0.52,-0.46
0.58,0.39,-0.74,0.48,-0.36,-0.11,-0.29,-0.2,0.04,-0.5,0.14,-1.45
0.26,-0.16,-0.1,0.79,0,-0.19,0.58,0.73,0.82,-0.01,0.93,-1.01
0.32,0.49,0.2,0.2,-0.43,-0.02,-0.81,0.41,0.05,-0.7,1.13,-0.85
0.3,0.23,-0.49,0.25,-0.17,0.52,-0.17,0.77,0.16,-0.16,1.05,-0.78
-0.02,-0.13,-0.22,0.05,0.46,0.02,0.41,0.52,0.36,-0.61,0.59,-0.53
0.46,-0.22,-0.64,0.79,0.67,-0.25,-0.45,1,-0.09,-1.12,0.08,0.61
0.13,-0.44,-0.09,0.65,0.72,1.5,0.05,1.16,1.9,-0.86,0.19,-0.4
-0.09,-0.03,0.58,0.52,0.83,0.83,-0.4,-0.26,-0.47,-1.89,0.7,0.57
0.3,-0.77,1.16,1.24,0.05,0.8,-1.35,0.14,-0.67,-0.65,1.66,-0.28
0.66,-1.01,-0.16,1.27,-1.23,0.83,-0.08,1.81,0.37,-1.18,1.1,-0.7
0.71,-1.34,1.28,1.17,-1.41,0.86,-2.78,2.73,-0.75,-0.93,1.59,-1.8
1.06,-0.61,0.25,0.84,-1.02,0.58,-2.37,1.86,-0.47,-0.3,0.36,-1.35
0.89,-0.69,-0.45,1.64,-0.64,0.46,-0.54,-0.38,-0.26,-0.65,-0.87,-0.38
0.97,-1.49,0.33,1.72,-1.34,1.51,-0.3,0.7,0.65,-0.94,0.04,0.22
0.65,-0.98,1.03,1.53,-1.4,0.82,-1.17,0.13,0.48,0.04,1.08,-0.34
0.7,-1.27,-0.54,1.54,-0.99,1.11,-0.34,-1.14,0.05,0.45,0.88,-0.06
0.8,-1.71,-0.52,1.09,-0.7,0.26,-1.48,0.39,-0.43,-0.18,-0.22,-0.19
0.6,-0.89,-1.31,1.28,-0.41,1.16,-0.23,-0.71,1.85,0.43,-0.08,-0.37
0.69,-0.54,-0.6,1.14,-1.09,0.74,-1.17,-2.28,0.84,-0.33,0.46,-0.67
0.82,-0.47,-1.54,1.12,-0.62,1.66,0.52,-1.31,-0.06,-0.57,1.28,-1.78
0.76,-0.93,-2.57,1.19,0.24,1.37,-0.12,0.01,0.14,0,1.71,-1.77
1.93,-1.6,-1.94,1.07,-1.25,0.93,0.06,0.77,-0.54,0.42,0.71,0.6
1.01,-1.3,-2.48,1.41,-0.91,0.31,-0.56,-0.63,0.45,-0.19,0.3,-0.16
0.59,-0.39,-0.85,0.49,-1.4,-0.88,0.16,-1.46,-0.52,-0.02,-0.78,-0.76
0.58,-0.73,-0.74,0.93,-0.75,0.72,0.92,-0.63,0.61,0.59,-0.28,-0.2
0.92,-0.01,-0.68,0.04,-1.1,0.84,2.01,0.78,-0.01,0.87,-0.06,-0.5
0.5,0.25,0.47,0.58,-0.88,0.42,0.74,-1.77,-1.1,-0.16,-0.32,0.37
0.41,0.52,-0.02,0.24,-1.02,-0.24,0.29,0.08,0.62,-0.57,0.62,0.37
0.02,-0.07,-1.05,-0.34,-1.48,-1.25,0.78,-0.54,-0.08,-0.46,0.14,-0.14
0.03,0.77,0.3,-0.13,-1.04,-1.3,1.17,-0.07,-0.52,-0.43,0.34,0.15
-0.17,0.78,0.39,-0.05,-0.75,-0.24,0.37,-0.23,0.18,-0.39,1.24,0.38
-0.2,0.51,0.02,-0.37,0.21,0.61,0.04,0.13,-0.1,-0.81,0.72,-0.64
-0.17,1.14,0.39,-0.62,0.38,0.06,0.47,-0.4,0.41,0.34,0.61,0.32
0.07,1.96,1.19,-0.14,1.1,-0.44,-0.68,-0.91,0.11,-0.28,0.14,0.19
-0.33,1,-0.75,-0.92,0.05,-1.26,0.95,-1.33,-0.02,0.55,0.29,0.18
-0.46,1.05,0.12,-0.29,1.05,-0.14,0.95,0.4,1.16,0.84,0.56,0.34
-0.44,1.78,-0.91,-1.52,1.21,-0.67,0.67,0.11,0.45,0.59,-0.18,0.87
-0.21,2.16,-0.84,-0.89,1.74,-1.84,-0.8,0.1,0.28,-0.06,-0.68,0.75
-0.26,1.83,0.1,-1.26,0.71,-1.17,-0.25,-1.64,0.46,0.08,-0.22,1.56
-0.12,1.54,-0.03,-1.42,0.25,-0.49,0.6,-1.48,-0.55,0.54,-0.53,0.31
-0.06,1.74,0.38,-0.76,1.2,0.47,0.39,-1.16,0.61,0.47,-0.5,0.7
0.29,0.89,-0.9,-0.7,0.64,-0.19,-0.32,-1.42,-1.83,0.14,0.57,-0.31
0.47,1.31,0.2,-0.46,-0.03,0.15,0.41,-0.01,0.09,0.47,-0.69,0.54
0.28,0.72,-0.92,-0.2,0.54,0.24,0.25,0.6,0.54,-0.19,-0.04,-0.15
-0.14,1.5,0.27,-0.38,1.2,-0.01,0.91,0.31,1.31,-0.07,-0.63,0.25
0.27,1.7,0.18,-0.43,0.21,-1.45,0.83,0.94,0.18,-0.28,-1.04,0.13
0.47,1.28,-1.01,-0.32,0.94,0.34,0.74,0.66,-0.59,-0.57,-0.45,-0.43
0.18,0.28,-1.57,-0.7,0.66,0.78,0.16,0.02,-0.42,-1.06,-0.49,-0.63
0.43,1.91,-1.16,-0.62,0.91,0.97,-0.16,-2.04,0.35,-0.41,0.15,0.63
0.07,0.99,-0.82,-0.28,1.38,0.15,-1.22,-0.07,0.99,-2.06,-0.32,0.25
0.43,1.35,-1.27,-0.3,1.73,0.58,-1.61,0.82,0.94,-1.55,0.24,0.45
0.34,1.12,-0.6,-0.36,1.48,0.63,-1.27,-0.05,0.41,-2.41,-0.31,0.26
0.35,0.6,-0.92,-0.4,0.88,0.55,-0.74,-0.91,1.03,-1.69,-0.1,0.81
0.1,0.56,-1.18,-0.9,-0.3,0.36,-0.69,-0.66,1.12,-2.32,0.12,0.71
0.19,-0.22,-2.07,-1.42,-0.57,1.53,-0.16,1.1,2.1,-1.12,0.82,0.72
0.24,-0.18,-1.09,-0.71,-0.2,1.84,-0.36,-0.9,2,-1.44,-0.3,0.62
0.76,-0.42,-0.63,0.68,-0.48,1.67,0.8,-0.23,0.9,-1.01,0.37,0.49
0.55,-0.54,0.41,1.08,-1.19,1.27,1.18,-0.32,-0.36,-0.73,0.98,-0.39
0.43,-0.73,0.09,0.85,-1.32,1.28,0.12,0.62,0.68,-1.42,1.14,-0.76
0.42,-0.74,0.11,1.28,-1.03,2.01,-0.31,1.08,1.47,-2.1,1.51,-0.14
0.55,-0.55,-0.24,0.47,-1.96,0.17,-0.92,0.5,-0.01,-0.83,2.34,-0.89
0.37,-0.62,0,1,-0.26,1.26,-1.89,0.97,1.02,-0.84,2.3,-1.39
0.13,-0.27,-0.39,-0.27,-0.18,1.2,-1.12,0.88,-0.11,-1.63,1.57,-0.71
0.23,-0.09,0.15,0.19,-0.36,1.71,-0.86,1.65,0.43,-1.5,1.51,-1.92
0.11,-0.44,0.47,-1.11,-0.86,2.08,-3.08,2.41,0.79,-0.28,2.81,-1.74
0.29,0.24,1.39,-0.13,-0.59,0.83,-1.42,0.45,-1.73,-0.4,0.56,-2.33
0.16,0.33,-0.04,-0.77,-0.19,0.81,-0.29,1.12,-1.1,0.32,1.01,-1.8
0.22,0.25,0.46,-0.84,0.29,1.02,-0.47,2.08,-2.27,0.94,0.43,-1.64
0.53,0.38,1.38,-0.61,-1.1,0.65,-0.43,2.38,-1.3,2.69,0.79,-2.37
0.38,-0.04,0.38,-1.05,-0.78,-0.53,-0.33,0.84,-2.56,2.48,-0.77,-0.44
0.31,-0.25,1.86,-0.27,-1.45,0.43,0.56,0.58,-1.85,1.97,-1.85,0.06
0.55,-1.09,-1.66,0.7,-0.29,-0.68,-0.06,1.91,1.29,1.71,-1.9,1.89
0.87,-0.57,0.04,0.42,-0.55,-0.56,-0.98,0.8,0.33,0.82,-2,3.14
0.71,-0.24,-0.61,0.2,-0.56,-0.6,0.06,1.56,0.38,0.22,-1.93,2.39
0.45,-0.06,-1.07,0.82,0.29,-0.7,1.75,1.2,-0.09,0.24,-1.23,1.25
0.38,0.55,0.74,0.71,0.03,-1.34,0.93,0.66,0.7,0.24,-1.44,1.15
0.38,0.01,1.01,0.26,-1.05,0.79,-0.11,0.8,0.38,-1.41,-0.29,0.2
0.21,0.41,1.25,0.69,-0.82,-0.05,0.12,-1.31,0.52,-0.16,0.58,0.53
-0.26,-0.14,-0.3,-0.36,-0.35,-1.19,-0.07,-1.81,-1.34,-0.75,-0.77,-0.04
0.02,1.02,0.91,0.2,-0.46,-0.23,1.88,-0.21,0.34,-0.36,-0.75,0.04
0.32,0.48,1.59,0.67,-1.41,-0.71,2.1,0.56,-0.16,0.83,1.04,0.85
0.42,0,0.45,1.31,-0.02,0.11,1.94,0.31,-0.76,1.05,0.01,0.6
0.22,0.86,-0.59,0.45,0.49,-1.09,1.26,-0.06,-1.06,-0.03,0.22,0.36
-0.27,0.89,0.38,-0.32,-0.29,-0.02,2.65,-0.91,0.29,1.63,-0.32,0.26
-0.2,1.91,-0.14,-0.88,1.04,-0.9,1.65,-0.58,-0.66,0.6,-1,-0.01
-0.39,1.2,0.22,-0.51,0.51,-2.17,0.3,0,-0.52,0.64,0.39,0.76
-0.27,1.8,0.02,-0.85,1.55,0,0.49,-1.18,-1.7,-0.15,0.33,0.49
-0.09,1.78,-0.12,-1.18,1.32,-0.23,0.38,0.46,0.22,-0.02,-0.19,-0.21
-0.07,1,-0.07,-1.05,0.84,0.15,-1.39,0.03,-0.46,-0.83,0.48,-1.09
0.05,0.78,-0.54,-0.62,-0.1,-0.54,-1.37,-0.93,0.21,0.12,1.47,-0.99
-0.32,-0.03,0.27,-0.25,0.08,1.15,1.02,0.61,0.18,-0.53,0.52,-1.16
-0.53,1.18,0.09,-0.93,0.26,-2.1,-0.09,0.12,-0.85,0.36,0.6,-0.01
0.06,0.94,-1.1,-0.24,0.57,-1.29,0.76,-0.31,-1.04,1.57,-0.37,-1.59
0.1,-0.09,-0.54,0.08,0.19,-1.36,0.03,0.03,-1.72,2.25,-0.25,-1.36
0.12,0.06,0.85,0.54,-0.33,-0.06,0.36,-1.11,-2.28,2.27,-1.09,-1.12
0.27,-1.17,0.44,1.2,-0.95,-0.67,1.24,0.23,-1.86,2.01,-2,0.6
0.65,-0.2,2.12,1.52,-0.65,0.49,1.31,-0.75,-1,1.61,-2.54,1.05
0.71,-1.41,1.4,1.91,-1.58,-0.04,0.12,-1.04,1.05,1.51,-1.42,1.87
0.36,-1.24,1.2,0.92,-1.53,0.66,1.03,-2.12,1.77,0.97,-2.49,2.5
0.45,-0.95,1.03,0.4,-1.57,0.08,1.7,-1.33,0.96,1.26,-2.11,2.68
0.85,-1.46,0.04,0.01,-1.75,1.44,0.72,-1.32,-0.67,2.6,-2.42,1.78
