"V1","V2","V3","V4","V5","V6","V7","V8","V9","V10","V11","V12"
-2.35,-1.08,0.64,0.28,0.43,0.82,0.82,-0.74,0.76,1.26,0.43,0.35
-2.6,-0.55,0.46,-0.11,0.11,0.12,0.87,0.55,0.94,0.3,0.07,0.76
-1.94,-3.32,-0.42,0.49,0.4,1.44,1.52,-0.03,0.47,0.66,0.48,0.23
-2.31,-2.29,-0.29,0.34,-0.37,0.23,1.05,0.42,1.16,0.6,0.03,0.97
-1.57,-1.96,-0.18,-0.3,0.26,0.24,1.04,1.2,0.14,-1.51,-0.46,1.2
-1.34,-2.29,-0.55,0.76,0.48,-0.37,1.8,1.89,0.54,-1.58,-0.67,1.23
-1.51,-2.44,-0.44,0.56,-1.31,-1.16,2.38,2.37,-0.36,-2.59,-1.32,1.46
-1.44,-3.26,0,0.61,0.46,0.35,0.62,1,0.19,-0.84,-1.29,0.15
-2.37,-1.6,0.76,0.23,0.47,0.77,1.21,-0.88,0.88,0.45,-0.25,-0.23
-2.21,-1.34,0.63,-0.09,0.03,-0.39,1.49,-0.16,1.03,0.18,-0.15,0.59
-2.65,-1.93,0.47,0.03,-0.24,-0.56,1.09,-0.17,0.49,-0.24,-0.86,0.92
-1.59,-2.17,0.07,0.55,0.53,-0.06,0.39,-0.84,0.08,0.36,2.05,2.07
-0.91,-0.89,-0.61,-0.87,0.1,-0.8,0.83,-0.19,-1.68,-0.73,1.63,1.05
-0.8,-0.85,-0.41,-1.03,-0.7,-0.66,1.01,-0.74,-1.31,0.12,0.47,0.03
-0.85,0.06,-0.06,-2.44,-1.11,0.4,1.2,0.19,-0.52,-0.4,1.38,0.69
-0.76,-0.73,-0.28,-1.19,-0.5,-0.02,0.24,0.73,-0.34,-0.9,2.36,1.8
-0.73,0.09,0.08,-0.65,-0.49,-1,-0.03,0.73,0.57,0.05,1.95,2.35
-0.19,-1.53,0.6,-0.43,-1.97,-1.02,-0.38,0.74,-1.05,0.17,1.55,1.64
-0.34,-1.4,0.59,1.02,-1.71,-0.63,-0.28,-0.07,-1.08,-0.72,1.71,1.51
-0.1,-0.64,-0.51,-0.01,-0.5,-1.45,0.14,0.19,-1.02,-0.23,1.45,0.91
0.07,-0.57,-0.99,-1.96,-0.42,0.65,0.1,1.01,1.06,1.15,0.25,0.05
-0.05,-0.98,-0.21,-1.07,-0.78,0.53,0.55,-0.22,-0.08,0.16,0.5,1.28
0.18,0.12,-0.13,-1.24,-1.01,0.68,0.95,0.56,0.6,0.4,0.06,0.86
0.36,-0.57,-0.51,-1.43,-2.04,0,0.29,1.02,1.36,2.13,0.96,0.15
0.63,-0.23,-0.89,-1.27,-1.44,0.41,0.98,1.4,2.11,1.95,0.82,0.42
0.5,-0.17,-0.96,-2.06,-1.04,-0.6,-0.33,0.14,1.54,2.21,1.33,1.55
0.36,0.73,-0.18,-1.32,-0.61,0.43,-0.01,-0.96,0.75,1.45,1.4,0.87
0.06,0.2,0.16,-0.95,-0.29,0.04,-0.06,-0.71,0.3,0.96,0.07,0.18
-0.29,-0.17,0.42,-0.35,-1.23,-0.37,0.07,-0.87,0.82,1.57,0.65,0.06
-0.38,0.4,1.2,0.96,0.23,0.5,0.4,-0.6,0.64,1.15,1.52,1.26
-0.81,-0.09,1.13,-0.62,-1.28,0.24,0.35,-0.21,0.38,0.18,-0.08,0.93
-0.51,-0.79,0.93,0.84,1.22,-0.14,-0.02,1.07,0.67,0.7,0.18,2.21
-0.87,0.29,1.04,-0.38,-0.4,0.87,1.07,0.24,1.19,1,0.67,0.07
-1.13,-0.96,0.67,0.06,-0.52,0.76,0.71,0.11,1.28,1.56,0.61,0.16
-0.82,0.31,1.37,0.92,-0.85,-0.18,0.66,-0.87,0.55,0.45,-0.01,0.35
-1.04,-1.1,0.82,-0.33,-1.18,-0.21,0.77,-0.15,1.27,0.62,-0.38,0.08
-1.03,-0.65,1.09,0.45,-0.19,-0.09,0.74,-0.51,0.49,0.22,0.46,1.31
-1.13,-0.23,1.66,0.18,-0.47,0.6,0.99,-0.76,-0.2,0.25,-0.92,-2.05
-0.94,-0.33,1.58,0.92,-0.08,1.05,0.76,-0.49,0.07,0,-0.68,-0.09
-0.5,-0.88,1.38,0.21,-0.25,1.21,0.91,-0.92,-0.25,0.03,-0.28,0.19
-0.72,-0.27,1.58,1.18,-0.44,0.3,0.34,0.14,1.21,0.48,0.36,1.21
-0.6,0.39,1.89,1.63,0.17,0.86,0.4,-0.54,-0.08,0.89,0.92,-0.75
-0.51,0.01,1.18,1,0.23,1.26,0.06,-1.33,-0.27,0.03,0.36,-1.47
-0.49,-0.57,1.18,1.86,0.15,1.27,0.1,-0.8,-0.39,-0.4,0.55,-0.07
-0.78,-1.07,1.05,0.87,-0.62,0.55,0.48,-0.43,0.86,0.96,1.45,0.16
-0.91,-0.96,1.29,0.9,-0.27,0.24,0.22,-0.59,0.58,0.72,0.79,0.29
-0.95,-0.85,1.14,0.75,-0.24,0.51,0.57,-0.96,-0.04,0.78,0.46,0.07
-0.69,0.23,1.43,0.15,-0.99,-0.37,0.19,-1.27,-0.14,-0.09,-0.13,0.11
-0.7,-0.31,1.55,1.43,0.01,0.13,0.46,-1.12,0.52,1.14,0.51,0.59
-0.44,0.73,1.52,0.91,-0.34,-0.59,-1.02,-2.78,-0.88,0.08,0.15,-0.55
-0.25,1.3,1.41,0.69,-0.43,-1.55,-1.93,-2.97,-0.54,-0.76,-0.81,-0.29
-0.21,0.12,0.55,-0.06,-0.55,-0.65,-0.41,-0.32,0.66,-0.09,-0.07,0.47
0.1,0.52,0.64,-0.2,-0.21,-0.22,-1.57,-2.3,-0.19,0.06,-0.69,-0.7
0.46,1.56,0.68,-1.21,-2.19,-2.29,-2.26,-2.06,0.89,2.15,1.73,0.25
0.26,1.01,0.65,-0.91,-1.13,-1.17,-1.49,-1.69,0.66,0.88,-0.27,-0.32
-0.29,0.31,0.96,-0.29,-0.94,-0.89,-1.43,-2.09,1.57,1.14,-0.56,-0.11
-0.46,-0.08,0.86,0.3,0.13,-0.28,-0.68,-0.99,1.18,0.59,-0.08,0.37
-0.81,-0.75,0.97,-0.23,-0.82,-0.54,0.58,-0.37,1.27,1.51,0.58,0.29
-0.81,-0.46,1.09,-0.15,-0.82,-0.57,0.46,0.49,1.6,0.58,0.55,0.31
-0.98,-0.66,1.31,-0.32,-0.17,0.05,0.77,-0.25,0.96,0.87,0.91,0.47
-0.9,-0.75,0.98,-0.63,-0.59,0.48,1.52,0.56,0.97,1.17,0.69,0.75
-0.52,1.18,1.16,-0.41,0.1,0.69,0.85,-0.19,0.37,-0.15,0.02,0.23
-0.28,0.74,0.54,-0.6,0.8,1.14,1.16,0.66,-0.13,-1.28,-2.74,-1.92
-0.15,0.55,0.81,0.63,0.59,-0.07,0.57,0.5,-0.19,-0.26,-0.6,-0.99
0,0.45,0.11,0.62,1.25,-0.79,0.02,0.68,-1.2,-1.18,-1.15,-1.57
-0.32,-0.71,0.38,0.31,0.49,-0.21,0.45,1.62,0.9,-0.08,-0.25,-0.37
-0.24,-0.7,0.26,0.75,0.49,-0.24,1.01,1.7,-0.7,-1.6,0.17,-0.14
0.04,-0.14,0.18,-0.67,-0.29,0.1,0,0.89,0.61,-0.3,-0.04,-0.88
0.17,0.04,0.1,-0.09,0.22,-0.12,0.28,0.91,0.54,-0.71,-0.1,-0.99
0.25,0.16,-0.28,-0.58,0.43,0.2,0.05,0.63,0.36,-0.5,-0.94,-1.01
0.42,1.14,0.04,-0.32,-0.02,-1.53,-1.51,0.72,-0.35,-2.07,-1.06,-0.14
0.78,0.8,0.23,0.25,-0.49,-2.35,-0.94,2.05,-2.07,-2.8,-0.03,0.52
0.79,-0.08,0.09,-0.01,-0.61,-2.01,-0.65,2.17,-2.62,-2.16,-0.12,0.55
0.85,0.8,0.25,1.6,0.15,-2.09,-1.55,1.65,-1.79,-1.65,1.03,0.75
1.14,0.92,-0.27,0.23,-0.55,-0.99,-2.9,-0.27,-2.33,-1.14,1.34,-0.69
0.4,0.49,0.29,0.48,0.22,-0.29,-0.61,0.24,-1.07,-1.64,0.71,0.42
0.17,0.83,0.24,-0.62,-0.43,-0.54,0.19,0.65,-1.18,-1.43,0.23,-0.11
0.37,1.13,0.23,-0.88,-0.76,0.35,0.51,0.06,-0.27,-0.63,1.64,0.85
0.13,0.2,0.14,0.45,0.44,0.27,1.55,0.33,-0.98,0.01,2.08,1.34
0.7,0.65,-1.14,-0.29,1.07,-0.35,-0.11,-0.13,-1.32,-0.15,1.7,1.26
0.93,0.09,-1.34,-0.05,1.19,-0.38,-0.43,0.69,-0.81,-0.39,-0.13,0.86
1.19,0.65,-1.24,0.88,1.68,-0.63,-1.4,0.43,-0.45,-0.32,0.36,-0.31
0.94,0.62,-1.28,-1.14,1.05,0.57,-0.29,0.69,-0.55,0.11,0.02,-0.96
0.99,0.82,-1.38,-0.94,1.4,-0.23,-1.53,-0.53,-0.35,0.18,-0.03,-0.71
1.15,1.68,-0.71,-0.82,1.39,0.23,-1.08,0.9,0.65,0.79,0.08,-1.01
0.78,0.67,-1.16,-1.21,1.68,0.87,-0.79,1.07,1.69,1.07,0.65,0.01
0.87,0.54,-1.24,-1.08,1.19,1.01,-1.51,-0.56,-0.46,-0.69,0.36,-1.38
1,0.23,-1.23,-0.3,2.01,2.39,-0.88,0.21,0.15,-0.1,0.28,-0.2
1.05,0.95,-1.37,-0.56,1.99,2.66,0.27,0.74,0.93,0.02,0.12,-0.68
1.06,0.87,-1.68,-1.92,0.97,2.06,-0.32,0.44,0.41,-0.22,-1.16,-0.93
1.12,0.53,-1.88,-2.18,0.48,1.86,-0.25,0.59,0.95,-1.38,-1.26,-1.17
0.97,0.36,-1.94,-2.67,1.03,1.24,0.29,2.09,1.19,0.02,-0.9,-0.46
0.67,0.42,-1.07,-0.58,0.88,0,-0.73,0.23,1.02,-0.16,-1.07,-0.85
0.55,0.13,-0.59,-0.97,-0.31,0.26,-0.84,-0.37,-0.75,-1,0.07,-0.4
0.81,0.15,-0.25,-1.1,-0.91,1.45,-1.16,0.46,0.61,-1.18,-0.57,-0.49
0.7,-1.28,0.33,0.44,-1.53,2.38,-0.24,-0.25,0.22,-0.19,-0.21,0.44
0.82,-1.02,0.99,0.56,-2.08,2.21,-0.15,0.1,-0.32,-1.53,-1.39,0.87
0.5,-0.66,0.93,0.83,-2.18,1.09,-1.2,-1.84,-0.61,-0.66,-0.76,0.34
0.19,-0.6,0.76,0.06,-1.18,1.53,-0.14,-0.57,-0.26,-1.26,-1.16,-0.3
0.26,-0.47,1.19,0.54,-1.38,1.22,0.32,-0.48,-0.07,-1.08,-1.83,-0.35
0.04,0.53,1.42,-0.03,-1.19,1.27,0.81,-0.41,-0.96,-1.18,-0.15,-0.17
-0.25,1.1,0.84,-0.77,-0.88,-0.14,0.11,-1.61,-0.64,0.02,1.12,0.9
0.04,1.56,0.43,-1.54,0.31,0.87,1.16,-0.61,-0.9,-0.7,0.64,1.56
-0.03,1.23,0.11,-1.5,0.19,0.26,1.56,1.38,-0.69,-1.32,0.37,1.16
0.46,1.15,-0.92,-1.11,1.2,-0.17,0.22,-0.05,-0.18,0.51,-0.06,-0.6
0.79,0.67,-1.59,-0.24,2.04,0.77,0.56,0.92,-0.57,0.05,-0.13,-0.75
0.9,0.47,-1.1,-0.17,1.07,0.27,-0.35,1.33,0.49,-0.81,-1.27,-0.92
1.01,0.96,-1.27,-0.03,0.2,-0.68,0,0.44,-0.35,0.53,-1.53,-1.46
1.22,1.04,-1.46,0.74,1.36,-1.09,-2.21,-0.76,0.26,0.72,-1.31,-1.2
1.34,0.67,-1.28,1.56,0.93,-1.36,-0.89,0.3,-1.98,0.83,0.86,0.23
0.73,0.03,-1.13,1.03,0.01,-2.79,-0.23,0.9,-1.66,-0.15,0.11,-0.33
0.76,0.13,-0.99,0.68,-0.51,-1.26,0.67,1.63,-1.28,-0.48,-0.1,-0.54
0.64,0.34,-0.76,0.14,0.18,-0.79,0.59,0.7,-1.54,-1.06,-1.19,-1.3
0.53,0.92,-0.77,-0.1,0.17,-1.12,0.05,-0.6,-2.32,-0.96,-1.38,-0.93
0.74,1.21,-0.78,-0.82,-0.38,-0.86,-0.09,-0.79,-2.03,-1.03,-1.25,-1.42
0.92,1.03,-1.23,0.3,2.66,0.45,0.04,-0.72,-2.62,0.12,-0.6,-1.02
0.35,0.76,-0.17,1.34,0.98,-0.79,0.88,-0.82,-1.53,0.37,-0.63,-1.47
0.74,1.49,0.25,0.83,-1.45,-1.22,0.09,-1.07,0.05,1.04,-0.41,-1.99
0.71,0.24,-0.19,2,0.5,0.36,-0.76,-1.06,-0.61,0.2,-0.41,-1.4
1.28,0.33,-1.27,2.28,1.73,-0.33,-2.59,-1.71,0.48,1.7,-0.02,-1.07
1.54,1.03,-1.46,1,1.83,-1.15,-1.87,0.62,1,1.54,-0.65,-2.23
1.62,1.49,-1.25,1.14,1.37,-1.86,-2.68,0.41,2.01,1.93,-0.62,-2.33
1.53,0.91,-1.21,3.15,2.15,-1.14,-2.44,-0.45,0.05,0.66,-2.04,-2.98
1.64,1,-1.74,1.21,1.04,-0.89,-0.84,0.01,0.37,0.47,-2.53,-0.2
1.79,0.76,-1.8,1.43,1.18,0.44,-0.2,0.69,0.18,-0.22,-1.99,0.04
2.16,1.1,-1.91,0.99,0.49,0.38,-0.44,-0.02,0.2,0.14,-1.74,-0.07
2.14,0.96,-2.01,0.89,0.66,0.43,0.26,-0.33,0.17,-0.46,-1.54,0.43
