"V1","V2","V3","V4","V5","V6","V7","V8","V9","V10","V11","V12"
-7.19,-5.06,1.38,-0.24,0.2,0.03,0.67,-0.66,1.14,-1.68,-0.97,0.92
-4.2,-3.71,1.71,-0.21,-1.24,-1.06,0.75,-0.88,0.08,-0.97,-0.89,0.34
-3.06,-2.82,2.11,-1.3,-1.9,-0.31,1.07,-0.97,-0.07,0.18,-0.14,-0.37
-2.93,-2.07,2.2,-1.27,1.44,0.22,-0.41,-1.6,0.87,0.8,0,0.29
-2.47,-0.36,-0.11,-2,2.07,1.13,0.13,-1.55,0.71,0.91,0.37,-0.37
-2.12,0.28,-0.31,-1.61,0.48,0.13,-0.03,-1.78,0.03,0.64,0.82,-0.49
-1.91,-0.19,-0.45,-1.88,1.19,1.28,0.34,-0.79,0.11,0.47,0.61,-0.88
-1.6,0.34,-0.29,-0.16,2.1,1.62,-0.01,-1.41,-0.53,0.47,1.07,-1.12
-1.2,1.1,-0.11,-1.09,0.01,0.33,-0.57,-1.18,-0.26,0.78,0.82,-0.93
-1.27,-0.28,0.47,-0.88,0.04,0.11,0.2,-0.31,0.44,0.19,0.99,-1.84
-1.01,-0.66,0.2,-0.57,-0.15,0.53,0.46,-1.07,-0.52,0.79,0.8,-0.59
-0.84,0.74,-0.16,-0.58,0,1.11,0.14,-1.59,-0.01,2.05,1.05,-0.88
-0.38,0.67,0.03,-0.83,-0.64,1.04,0.55,-0.98,-1.03,0.41,1.89,-0.43
-0.03,0.67,-0.32,-1.36,0.01,2.4,0.87,-1.59,-1.51,0.43,1.92,0.52
0.13,1.38,-0.84,-2.17,-0.38,2.89,2.26,-1.3,-2.22,0.36,1.86,1.27
0.3,0.77,-0.96,-2.83,-2.08,2.39,1.31,-1.8,-3,0,3.09,0.77
0.4,1.04,-0.05,-1.38,-1.26,1.25,1.45,0.06,-1.15,-0.72,1.78,1.7
-0.15,-0.43,0.61,-0.75,-1.09,0.63,2.46,-0.01,-1.74,-0.09,1.39,0.26
-0.08,-0.15,0.48,-1.85,-2.11,1,0.9,-1.05,-1.32,-0.39,0.42,0.04
-0.09,-1.05,0.34,-1.32,-1.95,0.59,0.57,-1.45,-1.26,0.48,1.37,-0.54
0.05,0.04,1.15,-1.03,-1.89,-0.3,0.65,-0.26,-0.68,0.88,1.81,0.78
0.09,-0.39,0.52,-0.55,-0.5,0.86,1.1,-0.11,-1.38,-0.66,0.04,0.01
-0.24,-0.76,1.2,-0.38,-0.82,1.33,1.25,-1.02,-2.33,-0.69,0.73,1
0.3,0.82,-1.2,-0.83,0.26,0.97,-0.74,-0.24,0.14,0.9,-0.02,-0.48
0.18,1.01,-2.18,-0.7,0.93,1.45,-2.29,-0.68,1.32,1.49,-1.69,-1.37
0.25,-0.16,-2.86,-0.54,1.72,1.66,-1.75,-0.51,1.87,1.16,-0.99,-1.01
0.65,1.74,-2.03,0.47,1.9,0.87,-1.88,-0.04,1.73,1.23,-1.06,-0.72
0.39,0.83,-0.92,0.58,1.88,-0.3,-2.77,-1.02,0.53,0,-1.72,-0.75
0.66,1.78,-1.56,0.59,1.44,1.48,-1.95,-1,0.8,0.39,-2.15,-0.98
0.66,1.86,-1.79,-0.37,1.31,1.58,-1.97,-0.4,1.3,1.56,-1.39,-1.17
0.63,2.22,-1.52,-0.51,1.42,1.13,-2.37,-0.59,1.21,0.22,-0.74,-0.41
0.26,0.83,-1.93,-0.39,0.87,0.66,-2.5,-1.09,1.22,1.53,-0.54,-0.99
0.6,0.9,0.03,-0.51,0.36,0.21,0.1,-0.2,1.11,0.36,-0.6,0
0.16,-0.13,0.64,-0.61,-0.32,-0.11,-0.04,-0.72,-0.95,-1.17,-0.46,0.39
0.06,0.51,0.5,-0.42,-0.08,0.29,-0.88,-0.63,1,0.13,-1.49,-0.36
0.38,0.3,0.55,2,-0.34,0.45,0.64,-0.49,0.27,0.9,-1.47,-0.73
0.38,0.87,0.9,0.13,-1.04,0.82,0.11,-0.79,0.87,0.7,-0.86,-0.88
0.14,-0.86,0.14,0.14,-0.64,-0.71,-0.14,0.1,-0.38,-1.13,-0.76,0.21
0.3,0.92,0.58,0.12,-0.41,0.56,0.23,-1.29,-0.23,0.54,0.04,-0.59
-0.05,-0.88,1.54,0.03,0.22,0.73,-0.02,-0.53,-0.55,-0.19,0.32,-0.46
-0.31,-0.81,1.98,0.08,-0.09,0.2,0.3,0.08,0.06,-0.23,-0.09,-0.33
-0.2,-1,0.41,0.31,0.39,-0.21,-1.27,-0.15,0.79,0.17,-0.61,0.44
0.01,0.11,-0.45,0.16,1.28,1.3,-0.53,-0.93,-0.97,0.92,-0.73,-0.48
0.36,0.57,-1.05,-0.22,0.44,0.29,-1.49,-0.52,1.3,1.43,-1.03,-1.12
0.34,0.71,0.04,-1.81,-1.26,0.59,0.54,-0.87,-0.25,0.75,-0.63,-0.4
0,-0.16,0.22,-1.21,-1.55,-0.15,-0.45,-1.18,-1.09,0.16,0.4,-0.05
-0.3,-0.07,0.3,-1.55,-0.52,0.37,0.29,-0.81,-0.49,-0.59,-0.01,-0.03
0.21,-0.69,-0.34,-0.62,-0.71,0.54,-0.63,-1.05,-0.5,-1.09,-0.62,0.28
0.27,-0.13,-0.57,-0.22,0.86,0.86,-0.23,0.93,1.4,-0.37,-1.06,0.4
0.36,0.66,0.69,0.71,-0.7,-0.59,-0.99,-1.01,0.22,0.94,0.14,-0.03
0.02,-0.66,0.34,0.47,-0.29,-0.6,-0.11,0.39,0.17,-0.68,-0.65,0.12
-0.07,-0.6,-0.18,0.57,0.69,-0.05,0.55,-0.05,-0.94,-0.92,-0.69,-0.34
0.25,-0.88,0.09,0.91,0.59,0.14,0.16,-0.37,-0.69,1.33,0.48,-0.91
0.43,0.63,0.91,0.51,-0.2,-0.24,0.74,0.16,-1.14,-0.32,0.37,0.06
0.2,0.29,0.25,-0.73,-0.34,0.74,0.68,-0.72,-0.6,0.26,0.53,0.44
0.43,0.91,0.51,-1.37,-0.87,1.25,1.11,-0.51,-1.49,-0.71,0.28,0.68
-0.06,-0.72,0.36,-1.2,-1.68,0,0.68,-0.61,-1.41,0.34,0.46,-0.38
0.33,-0.85,-1.1,-0.86,-0.5,-0.23,1.08,-0.24,-0.45,0.54,0.04,0.61
0.3,-0.6,-0.69,-0.75,0.51,0.3,1.08,-0.14,-1.32,-0.12,0.37,0.53
0.29,0.06,0.64,-0.3,-0.19,1.11,1.24,0.2,-0.68,0.16,0.2,-0.11
0.18,0.31,1,-0.19,-0.41,-0.03,-0.27,-0.14,-0.11,-0.96,-0.43,0.91
0.46,0.17,0.33,-0.22,-1.38,-0.87,0.77,0.5,0.65,0.54,0.41,0.55
-0.07,-0.58,1.33,0.17,-1.39,-0.64,0.81,0.47,-0.12,0.21,0.02,0.06
-0.48,-1.37,1.95,0.2,-0.82,-1.51,-0.15,1.27,-0.29,-2.05,-1.54,-0.45
-0.1,-0.28,0.16,-0.34,0.16,0.44,-0.69,-0.15,1.26,0.08,-0.82,-0.86
0.72,2.13,-0.74,1.15,0.6,1.22,-1.03,-0.49,0.88,0.63,-1.84,-1.15
0.86,1.29,-2.01,-0.8,2.29,1.29,-1.57,-0.51,1.3,1.41,-0.66,-0.38
0.55,0.73,-1.81,-0.4,1.77,0.72,-1.1,-0.16,1.65,0.37,-0.73,0.06
0.47,1.29,-1.33,0.09,1.01,0.18,-1.51,0.23,2.43,0.04,-1.04,-0.39
0.4,0.02,-1.78,-0.59,0.51,1.13,-1,-0.42,1.49,1.45,-0.56,-0.98
0.43,0.77,-1.53,0.09,0.56,0.88,-1.16,-0.15,0.94,1.22,-1.43,-1.24
0.66,2.08,-0.82,0.67,0.91,0.87,-1.2,-0.25,1.34,1.96,-0.97,-1.15
0.1,1.3,-0.4,1.42,0.8,1.31,-1.77,-1.42,0.68,1.29,-1.32,-0.89
0.26,0.03,-0.89,0.51,0.63,0.46,-1.25,-0.52,1.21,1.72,-1.49,-1.27
0.02,-1.22,0.22,1.04,-0.1,-0.23,1.16,0.5,0.2,0.9,0.03,-0.88
0.27,0.19,0.28,0.97,-0.52,-1.56,-1.79,-0.64,0.89,0.47,-0.39,-1.02
0.46,-0.57,-1.01,1.78,0.96,-0.59,-0.37,0.34,0.85,-0.09,-1.14,0.88
0.66,0.26,-0.07,1.63,1.51,-1.11,-0.26,0.89,1.37,-0.51,-1.56,0.22
0.01,-1.57,-1.24,1.96,1.89,-0.57,-0.05,2.18,1.72,-1.04,-0.26,1.45
0.64,0.06,-0.22,0.45,-0.17,-1.48,-0.27,0.96,0.23,-1.25,-0.51,0.42
0.05,-0.63,-0.16,0.57,0.3,-0.1,-0.37,0.61,1.32,-0.45,-1.97,-0.5
0.44,0.91,-0.24,-0.08,-0.39,-0.83,-1.5,0.5,1.61,0.9,-0.75,-0.54
0.48,0.66,-0.24,0.71,0.54,0.25,-0.76,0,0.43,0.4,-0.44,-0.71
0.3,-0.45,-0.08,1.81,0.43,-1.14,0.52,0.38,0.15,0.76,-0.39,-1.25
0.79,-0.21,-0.78,1.24,-0.43,-1.41,-0.03,0.17,-0.07,0.53,-0.59,-1.62
1,0.02,-1.88,1.57,1.34,-0.99,0.12,-0.21,-1.17,1.19,1.52,-0.43
0.3,-0.75,-0.96,1.43,0.72,-0.19,-0.62,-0.33,0.83,1.57,-0.79,-0.49
0.34,-0.46,-0.38,0.04,-0.09,-0.73,0.45,0.47,0.81,-0.27,-1.39,-0.34
0.27,-0.29,0.4,0.43,-0.56,-0.87,-0.76,-1.48,-1.36,-0.65,-0.27,-0.41
0.17,-0.38,0.47,-0.12,-0.44,-1.3,-1.08,-0.37,0.95,0.91,0.01,0.79
0.43,-0.28,0.43,0.76,-0.38,-1.55,-0.2,1.02,-0.38,-0.12,0.5,-0.52
0.57,0.29,0.14,1.05,-0.8,-1.31,0.72,1.05,-0.34,0.76,0.53,-1.57
0.32,-0.38,0.66,0.81,-0.08,-0.92,0.47,0.46,-0.66,0.09,-0.76,-1.25
-0.26,-0.84,0.55,0.18,-1.04,-0.31,0.33,-0.11,0.55,-0.12,-0.47,-0.36
0.19,-0.69,0.55,-0.29,-0.72,0.22,0.36,-0.06,-0.83,-0.24,-0.19,-0.88
0.22,-0.42,-0.21,2.42,0.87,-1.08,0.68,1.08,-1.18,-1.11,0.13,-0.05
0.44,0,-0.57,0.93,1.06,-1.7,-0.96,1.4,0.58,-0.94,0.04,0.81
-0.03,-0.99,-0.58,1.38,-0.25,-1.87,-0.87,2.33,0.82,-1.91,-0.93,1.95
0.64,0.18,-0.91,1.25,1.14,-1.11,-0.07,1.7,-0.56,-1.61,1.06,0.92
0.81,0.58,-1.14,1.74,1.27,-2.07,-0.69,2.7,-0.63,-1.47,1.83,1.04
0.67,0.73,-0.02,0.29,0.42,-1.01,-0.3,0.61,0.03,-0.92,0.84,0.88
0.3,-0.06,0,0.03,1.13,-0.28,0.32,1.07,0.6,-0.92,0.82,1.67
0.18,0.07,1.12,-0.6,-0.84,-0.77,1.11,0.51,-0.97,-0.29,1.24,0.86
0.52,0.58,-0.42,0.93,-0.34,-1.15,0.86,0.83,-1.94,-0.68,1.15,-0.34
0.47,0.19,0.27,1.51,0.61,-1.49,0.53,1.83,-0.13,0.27,1.64,-0.13
0.14,-0.63,0.61,1.34,0.33,-1.58,0.9,0.71,-1.25,-0.46,1.6,-0.27
0.2,0.1,0.67,0.11,-1.18,-0.59,0.63,-0.74,-1.3,-0.48,0.87,-0.16
0.26,0.12,0.91,-0.42,-1.1,-0.5,0.71,0.13,-0.29,0.46,0.94,-0.8
0.16,0.09,1.37,-0.47,-1.19,-0.29,1.12,0.38,-0.06,0.39,1.13,0.28
-0.1,-0.41,1.27,-0.98,-2.13,-0.6,0.85,0.99,0.76,1.45,1.08,0.22
-0.14,-0.18,1.88,0.22,-0.77,0.74,1.18,0.35,0.24,-0.21,0.95,0.44
0.08,0.01,1.23,-0.3,-1.3,-0.11,0.83,0.41,-0.76,-0.68,0.59,0.6
0.19,0.04,0.97,-0.26,-0.53,0.17,1.44,1.07,-0.14,0.27,0.5,-0.23
0.51,0.57,0.36,-0.63,-0.93,-0.04,1.06,0.43,-0.36,-0.63,-0.43,0.11
0.34,0.67,1.37,-0.31,-1.26,-0.02,1.27,0.86,-0.9,-1.57,0.98,2.68
0.35,0.05,-0.04,-0.33,0.43,-0.2,0.68,1.43,-0.24,-2.72,0.2,2.68
0.44,0.87,-0.44,1.05,1.04,-0.42,-0.64,1.87,0.13,-2.06,-0.78,2.42
0.14,0.15,-0.85,-0.36,0.14,-0.94,0.21,2.11,0.51,-2.29,-0.16,2.96
0.17,0.57,-0.15,0.78,0.09,-0.79,0.36,1.56,-0.71,-2.63,0.05,2.77
0.23,-0.35,-0.41,-0.75,-1.11,-0.89,0.93,1.82,0.4,-1.4,0.77,3.2
0.38,0.35,0.79,0.42,0.03,-0.4,1.06,1.33,-0.11,-1.71,0.26,2.6
-0.35,-1.33,2.21,0.73,-0.86,-1.38,-0.06,0.51,-0.25,-1.55,-0.63,0.51
-0.01,-0.63,1.49,1.72,0.59,-1.07,0.55,1.27,-0.95,-0.98,0.72,0.22
0.95,0.47,-0.12,1.59,0.16,-2.02,-0.16,2.42,0.85,-1.02,-0.12,-1.09
0.22,-1.25,-0.51,1.58,0.16,-1.77,0.67,2.19,-0.12,-0.11,0.87,0.08
0.32,-0.02,0.37,0.47,0.41,-0.48,-0.28,0.87,0.39,-0.46,0.3,1.01
0.39,-0.09,-0.51,-0.59,-0.18,0.47,0.47,0.16,-0.44,1.14,1.79,-0.18
