"V1","V2","V3","V4","V5","V6","V7","V8","V9","V10","V11","V12"
0.07,0.03,1.31,0.59,0.05,0.72,-0.54,0.58,0.02,-0.98,0.15,-0.01
0.3,0.36,0.45,-0.33,0.35,1.51,-0.91,-0.63,-0.57,-1.3,0.12,0.22
0.19,0.14,0.22,-0.61,-0.21,0.04,-0.29,0.62,-0.11,0.09,-0.08,0.34
0.26,1.02,1.16,0.75,1.27,-0.07,-0.61,0.88,0.14,-0.54,-1.01,0.53
0.89,1.06,0.22,-0.1,-0.24,-0.37,-0.09,-0.86,0.08,-0.52,-0.9,0.62
-0.12,0.88,1.24,0.76,0.95,-0.08,-0.03,-0.89,-1.88,-1.37,-0.02,0.34
0.94,1.47,0.92,0.97,-1.44,-1.76,-1.31,-0.37,0.81,0.31,0.58,-0.05
1.19,2.61,2.08,0.52,-1.11,-0.02,-0.65,-0.34,-0.43,-1.29,1.02,2.24
0.95,1.92,1.39,0.33,-1.62,-1.47,-1.8,-1.03,-0.25,-0.62,0.33,1.12
0.25,0.67,0.24,0.84,-0.21,-1.63,-2.24,-0.53,-0.76,-0.53,-0.36,0.4
0.51,0.04,0.2,0.19,-1.04,-1.52,-0.45,0.73,0.05,-0.01,-0.2,-0.12
0.77,-0.08,0.27,0.16,-0.36,0.32,2.03,1.6,0.1,-0.87,-1.92,-1.77
0.94,-0.22,-0.88,-0.43,-0.58,1,2.03,2.06,0.59,-0.31,-1.61,-0.38
1.02,0.55,-0.69,0.14,-0.5,-0.18,1.1,1.13,-0.49,-0.06,0.41,-0.18
0.76,-0.44,-0.92,1,0.65,-0.44,0.46,-1.41,-1.81,0.09,-0.36,-0.17
0.74,-0.07,-0.69,0.3,-0.82,-1.53,-1.3,0.18,1.31,0.18,-0.39,0.19
0.11,-0.02,-0.31,0.96,0.77,-0.15,-1.97,-1.64,0.29,0.94,0.28,-0.26
-0.37,-0.7,-0.76,-0.45,0.17,-0.26,0.4,1.04,0.48,0.86,-0.57,-0.88
-0.08,0.03,-0.49,-0.11,-0.6,-0.6,-0.38,0.08,1.3,1.23,0.07,0.17
-0.13,-0.12,-0.36,-0.58,0.19,0.83,0.41,-0.32,-0.63,-0.51,-0.82,-1.05
0.18,-0.13,0.05,0.89,0.12,0.86,-0.51,-0.88,-0.03,-0.1,0.09,1.1
0.09,-0.62,-0.89,1.1,0.79,0.18,0.75,-2.02,-1.5,-1.06,-1.08,-0.22
0.8,-0.62,-1.53,0.33,-0.2,0.02,0.77,-0.85,-0.81,-0.04,-0.18,0.69
1.31,0.16,-0.12,0.2,-2.21,-1,-0.82,-1.73,-0.76,0.28,-0.52,0.18
1.1,0.58,-0.21,-0.07,-1.3,0.24,1.6,-0.44,-1.45,-0.39,0.29,0.58
0.81,-0.11,-0.34,-0.28,0.11,-0.72,0.55,1.25,0.65,0.63,0.12,-0.62
0.68,0.07,-0.59,-0.57,-0.91,-0.32,2.34,0.8,-0.15,-0.97,-1.1,-0.21
0.62,-0.39,-0.45,0.02,-0.47,-0.45,0.49,0.13,-1.5,-2.11,-1.55,0.08
0.86,0.03,-0.5,-0.18,0.25,1.34,2.51,1.74,1.14,0.48,-0.79,-1.75
0.16,-0.78,-0.33,-0.62,-0.07,1.75,0.25,0.37,-0.13,-0.74,-0.14,0.03
0.12,0.16,0.27,-0.92,-0.15,0.67,-0.1,-0.17,-0.54,-1.05,-0.42,-0.43
0.38,0.52,0.76,0.21,-0.89,-0.44,-1.76,-0.13,-1.14,-2.03,-0.88,-0.63
0.39,-0.9,0.73,0.27,-0.82,-0.21,-1.22,-0.18,0.1,-1.02,-0.75,-0.43
0.06,-0.42,0.65,0.38,0.22,1.77,0.91,0.67,0.1,-1.4,-0.04,0.23
1.26,0.52,-0.42,-0.95,-1.67,-0.13,-0.07,0.07,0.19,0.45,1.23,1.47
-0.22,0.02,-0.24,-0.98,0.49,1.63,0.68,0.16,-0.11,-0.54,-0.23,0.44
-0.23,-0.04,0.52,0.67,1.06,0.24,0.79,0.1,0.02,0.11,0.09,1.42
0.22,-0.03,-0.72,-1.29,-0.87,0.51,2.13,1.22,0.01,-1.68,-2.84,-1.23
-1.49,-1.03,0.37,-0.06,0.57,-0.57,0.54,0.43,0.06,-0.03,0.41,0.47
-1.64,-0.61,0.51,0.78,0.74,1.38,1.82,0.5,0.18,-0.85,-0.11,-0.62
0.01,-0.1,0.34,1.12,0.64,0.53,0.66,-0.56,-0.25,0.88,1.09,0
-0.15,-0.4,0.11,0.19,0.59,1.52,0.25,-0.54,0.08,-0.45,-1,-0.7
-0.21,0.63,1.44,1.91,1.63,0.31,0.12,0.93,0.35,-1.6,-1.23,-1.06
-0.74,0.7,2.42,2.03,-0.14,-0.09,-0.45,-0.28,-1.06,0.09,-1.71,-1.63
-0.91,0.88,3.55,3,1.47,2.97,0.68,-0.89,-1.57,-2.69,-2.03,-2.4
-1.05,1.09,3.01,2.62,0.2,1.66,1.01,0.31,-1.03,-2.08,-2.18,-2.44
-1.03,1.08,3.2,3.65,0.48,1.29,1.76,0.89,-0.24,-1.84,-2.28,-2.48
-0.67,-0.3,1.95,1.63,1.1,1.46,1.25,0.45,0.17,-0.18,-0.46,-0.55
0.45,0.5,1.07,0.98,0.28,0.08,-0.77,-0.34,0.07,-0.39,-0.22,0.34
0.19,0.38,1.41,0.99,-0.88,-1.64,-0.98,-0.8,-0.52,-0.77,-1.14,0.16
0.52,0.17,0.67,0.52,-2.09,-2.41,-0.23,0.89,0.98,0.21,-0.46,0.04
0.1,-0.49,-0.71,-0.54,-0.11,-0.54,-0.6,1,0.58,-0.26,-0.76,-0.28
0.48,-0.59,-0.13,-0.35,-0.9,-1.75,-0.56,0.68,1.8,2.7,1.04,0.47
-0.19,-0.81,-0.66,0.14,-1.19,-0.5,-0.67,0.5,1.31,0.38,0.57,0.03
-0.83,-0.68,-0.36,-0.14,-0.35,-1.44,0.11,0.71,1.07,1.23,0.23,-0.36
-0.14,-0.64,-1.16,0.02,-1.17,-0.99,-0.59,0.9,1.38,0.93,-0.04,0.28
-0.03,-1.6,-1.38,0.02,-0.34,-0.54,0.32,2.04,2.13,1.61,0.49,-0.69
-0.66,-1.28,-0.71,-0.88,-0.89,-0.79,-1.54,0.46,0.92,1.67,1.36,1.17
-0.7,-1.31,-1.24,-0.63,-0.55,-0.07,-0.26,1.1,0.77,0.48,0.08,-0.03
-0.47,-0.88,-0.54,-0.07,-0.13,0.47,0.78,1.94,1.53,0.75,-0.04,-0.3
-0.5,-1.17,-0.58,-0.79,1.17,1.7,1.4,1.32,0.74,-0.62,-0.97,-0.28
-0.76,-0.25,-0.26,-0.45,0.89,0.29,0.36,0.41,0.98,-0.11,-0.28,-0.24
-0.55,-1.05,0.33,-0.46,1.07,1.78,-0.01,-0.52,-0.34,-0.34,0.3,-0.01
-0.94,-1.52,-0.42,-0.19,1.39,0.08,0.06,-0.14,0.29,-0.66,-0.32,0.79
-0.52,-1.14,0.13,0.12,1.73,0.67,-0.38,-2.13,-1.3,-1,-0.22,0.01
-0.58,-0.65,0.07,-0.17,2.03,1.15,0.19,-0.43,-0.14,0.29,0.99,0.22
-1.14,-0.83,-0.05,0.51,1.29,1.53,0.86,1.57,0.55,0.69,1.52,1
-0.8,-1.35,-0.59,-1.03,-0.12,-0.15,-0.59,-1.26,-0.62,-0.78,0.32,0.96
-1.09,-0.9,-0.19,-0.85,0.66,0.95,-0.76,-1.04,-1.33,-0.79,-0.05,0.04
-1.57,-0.41,0.88,1.48,1.57,0.82,-1.2,-0.67,1.14,1.21,0.73,0.4
0,-0.82,-0.57,0.66,1.56,-0.12,-0.56,-1.91,-0.42,-0.47,-0.59,0.17
-0.26,-0.38,0.54,0.88,1.34,1.44,0.45,0.57,0.36,-0.43,0.09,-0.03
-0.9,-1.13,-0.28,-0.12,1.72,1.62,0.66,0.56,-0.11,0.3,-0.28,0.72
-0.64,-1.09,-0.89,-0.98,0.39,0.96,0.63,1.17,1,0.9,-0.57,-0.24
-0.65,-0.59,-0.15,-1.45,0.26,0.09,0.57,0.2,0.34,0.81,0.84,0.47
-0.1,-1.37,-0.71,-0.38,0.21,0.11,0.36,-0.56,0.16,0.86,0.62,0.56
-0.31,-1.36,-1.29,0.2,0.2,1.3,0.67,-0.87,-0.37,0,-0.24,0.3
-0.92,-0.87,-0.61,1.03,0.09,-0.94,-0.41,-0.49,0.22,0.1,-1.44,-1.04
-0.79,-0.5,0.79,0.71,0.53,0.22,0.12,1.18,-0.07,-0.66,-0.56,-0.07
-0.98,-1.24,-0.2,0.34,-0.89,-0.79,-0.46,-0.74,-0.14,0.43,-0.01,-0.08
-0.48,0.08,-0.03,-0.32,0.79,-0.31,-0.59,-1.04,0.1,-0.85,-1.17,0.09
0.26,0.28,0.02,-0.15,-0.55,-0.98,-0.56,-1.57,-1.14,-0.65,0.96,1.47
0.39,0.04,-0.58,-0.52,-0.8,-0.78,1.24,-0.07,-0.57,-0.69,0.36,1.95
-0.16,0.06,-1.14,-1.03,-1.99,-0.62,-0.16,-0.04,0.64,0.54,1.95,2.67
-0.06,-0.02,0.47,-0.01,-0.27,-0.03,-1.43,1.27,1.05,1.01,1.17,0.75
-0.55,0.27,-0.73,0,0.2,-1.06,-0.9,-0.5,-0.04,0.2,0.4,1.02
0.03,0.03,-1.35,0.76,-0.67,-2.15,-0.54,-0.16,1.78,3.72,2.2,0.48
-0.37,-1.17,-1.08,0.03,2.01,-0.45,-0.24,0.17,0.49,0,0.09,-0.41
-0.34,-0.55,-1.47,-1.96,-0.69,-0.41,-0.96,-0.72,0.14,1.19,-0.23,-0.38
-0.82,-0.85,-0.38,-0.82,0.18,-0.88,0.4,0.41,-0.23,0.72,1.13,0.76
-1.15,-1.26,-1.48,-1.47,0.28,-0.82,-0.59,0.51,-0.29,-0.09,-0.57,0.29
0.24,0.05,0.66,-0.16,-0.41,-0.59,-1.04,-1.08,0.05,-1.03,-1.8,-0.02
-0.67,-0.3,0.4,0.25,0.63,-0.27,-0.15,-0.9,0.5,0.35,1.42,0.82
-0.82,-0.72,-0.19,0.24,-0.27,-0.42,1,0.64,0.87,1.28,1.13,0.84
-1.78,-0.25,0.78,-0.01,0.39,1.15,0.98,0.71,1.55,1.37,0.81,1.51
-1.44,0,0.11,0.06,0.02,-0.01,-0.62,-0.69,-0.23,-0.71,0.56,1.98
-0.69,0.1,0.77,0.63,-0.03,0.36,-0.63,-0.99,1.01,1.01,1.73,2.77
-1.11,-0.43,0.52,-0.46,-0.78,-0.99,0.26,1.84,1.08,1.5,3.19,1.9
-1.21,-0.91,-0.16,-1.08,0.35,-0.19,0.2,0.07,0.26,0.92,0.57,0.27
-0.4,0.03,-0.16,-0.8,-0.4,0.28,-1.39,-0.83,0.75,1.41,1.1,-0.04
-0.78,0.25,0.37,-0.56,0.51,-0.19,-1.73,-0.09,0.73,1.07,0.75,0.89
-0.64,-0.27,0.61,0.05,1.42,0.32,-0.5,0.44,-0.27,-0.42,-0.67,-0.43
0.62,-0.79,0.99,0.87,0.92,1.04,-1.42,1.15,-1.24,-1.09,-0.65,-1.13
1.7,0.26,-1.59,-2.44,-1.88,-1.08,-1.68,-0.16,1.35,-0.05,-0.82,-0.75
1.06,1.01,-0.12,0.02,0.55,0.14,-0.32,-0.3,0.73,-0.09,-0.23,0.15
-1.38,-0.89,-0.34,0.82,0.81,0.49,-0.18,2.32,2.39,0.81,-0.66,-0.71
0.95,1.21,0.88,1.31,0.39,-0.95,-0.81,0.29,0.92,0.58,-0.84,-0.77
-0.96,0.18,0.55,-0.01,1.36,-0.1,0.86,0.54,0.79,1.01,0.74,0.77
0.3,0.87,0.51,0.03,0.99,1.22,1.4,1.11,1.5,0.87,-0.13,-1.67
1.11,2.21,0.89,1.12,0.3,1.55,1.73,-0.66,-2.52,-1.12,0.27,-1.68
1.63,2.28,0.22,0.91,0.35,-0.72,-0.93,-1.24,-2.3,-0.25,0.17,-3
2.73,2.76,-0.2,-1.02,-1.79,-1.14,1.18,-0.96,-1.81,1.51,1.76,-1.55
3.25,3.35,-1.6,-3.58,-1.72,-0.97,-2.16,-2.5,-2.91,0.05,3.02,0.09
3.96,3.6,-2.15,-2.36,-1.83,-1.55,-0.67,-1.77,-2.39,1.41,1.69,-1.32
3.35,2,-2.72,-1.29,-0.75,-1.78,0.47,-0.97,-2.02,1.94,0,-2.96
2.83,2.76,-1.43,-1.49,-0.29,-0.09,-1.55,-2.35,-0.88,0.8,0.23,-1.34
1.62,1.69,0.76,-1.26,-3.5,-1.64,0.01,-1.75,-2.64,-1.12,0.4,-0.28
0.01,0.45,-0.39,-0.32,0,-0.84,-0.72,-0.8,-0.22,-0.74,-1.06,-0.28
-0.12,0.57,0.31,-0.07,-1.53,-1.1,0.25,-1.24,-0.07,-0.1,0.24,0.15
0.27,0.65,-0.83,-1.32,-1.36,0.27,0.12,-0.06,0.26,0.2,0.6,-0.12
-0.24,-0.49,-1.1,-1.12,0.22,0.03,0.53,-0.05,-0.68,0.2,0.8,0.14
-0.88,-0.1,0.72,-0.01,1.22,0.7,-0.87,0.74,0.01,0.3,1.34,0.4
-0.83,-0.18,0.71,-0.34,0.56,0.48,0.93,0.33,-0.14,-1.3,-0.65,0.31
-0.66,-1.05,-1.63,-1.56,0.02,-0.37,0.39,0.96,0.06,0.73,1.08,0.07
-1.14,0.73,0.93,0.92,0.71,1.03,1.43,0.93,0.11,0.19,-0.27,0.52
-0.82,-0.33,0.06,0.3,1.6,1.11,0.51,0.89,0.59,-0.24,0.22,-0.06
-0.47,-0.49,0.27,0.12,-0.45,-0.01,1.72,0.61,0.9,0.57,0.13,0.75
