"V1","V2","V3","V4","V5","V6","V7","V8","V9","V10","V11","V12"
-1.2,-2.22,0.78,-1.04,-0.06,2.17,-0.91,-3.88,-1.56,0.67,0.84,0.43
-1.02,-1.04,0.59,-1.8,-0.36,0.33,0.19,-0.39,0.76,-1.2,1.22,1.18
-1.21,-1.41,2.34,-0.6,-0.83,-1.91,-0.99,-0.31,-0.69,0.48,-0.63,-0.55
-1.41,-1.82,0.95,1.45,0.23,-1.47,0.98,1.5,0.51,-1.16,-3.13,-0.96
-1.15,-0.48,1.88,-0.86,-0.22,-1.27,-2.04,-1.79,0.55,3.06,-0.43,-3.49
-0.96,-1.26,0.66,0.27,1.83,0.58,0.72,0,0.39,-1.62,0.78,0.75
0.71,0.65,-0.37,0.16,-0.32,-0.03,-0.21,0.02,-0.23,-0.07,-0.27,-0.18
-1.38,-0.8,3.62,-3.27,0.93,-2.48,-2.01,1.78,-3.34,-1.63,3.59,-1.81
-1.34,-1.01,3.55,-1.63,-2.31,0.32,0.09,-3.34,-1.23,2.15,0.16,-0.56
0.71,0.65,-0.37,0.16,-0.32,-0.03,-0.21,0.02,-0.23,-0.07,-0.27,-0.18
0.71,0.65,-0.37,0.16,-0.32,-0.03,-0.21,0.02,-0.23,-0.07,-0.27,-0.18
0.71,0.65,-0.37,0.16,-0.32,-0.03,-0.21,0.02,-0.23,-0.07,-0.27,-0.18
0.71,0.65,-0.37,0.16,-0.32,-0.03,-0.21,0.02,-0.23,-0.07,-0.27,-0.18
0.71,0.65,-0.37,0.16,-0.32,-0.03,-0.21,0.02,-0.23,-0.07,-0.27,-0.18
0.71,0.65,-0.37,0.16,-0.32,-0.03,-0.21,0.02,-0.23,-0.07,-0.27,-0.18
0.71,0.65,-0.37,0.16,-0.32,-0.03,-0.21,0.02,-0.23,-0.07,-0.27,-0.18
0.71,0.65,-0.37,0.16,-0.32,-0.03,-0.21,0.02,-0.23,-0.07,-0.27,-0.18
0.71,0.65,-0.37,0.16,-0.32,-0.03,-0.21,0.02,-0.23,-0.07,-0.27,-0.18
-1.6,-2.13,-3.04,0.15,-2.26,0.34,-1.75,0.41,-1.3,0.54,-1.24,0.29
0.71,0.65,-0.37,0.16,-0.32,-0.03,-0.21,0.02,-0.23,-0.07,-0.27,-0.18
0.71,0.65,-0.37,0.16,-0.32,-0.03,-0.21,0.02,-0.23,-0.07,-0.27,-0.18
0.71,0.65,-0.37,0.16,-0.32,-0.03,-0.21,0.02,-0.23,-0.07,-0.27,-0.18
0.71,0.65,-0.37,0.16,-0.32,-0.03,-0.21,0.02,-0.23,-0.07,-0.27,-0.18
0.71,0.65,-0.37,0.16,-0.32,-0.03,-0.21,0.02,-0.23,-0.07,-0.27,-0.18
0.71,0.65,-0.37,0.16,-0.32,-0.03,-0.21,0.02,-0.23,-0.07,-0.27,-0.18
0.71,0.65,-0.37,0.16,-0.32,-0.03,-0.21,0.02,-0.23,-0.07,-0.27,-0.18
0.71,0.65,-0.37,0.16,-0.32,-0.03,-0.21,0.02,-0.23,-0.07,-0.27,-0.18
0.71,0.65,-0.37,0.16,-0.32,-0.03,-0.21,0.02,-0.23,-0.07,-0.27,-0.18
0.71,0.65,-0.37,0.16,-0.32,-0.03,-0.21,0.02,-0.23,-0.07,-0.27,-0.18
0.71,0.65,-0.37,0.16,-0.32,-0.03,-0.21,0.02,-0.23,-0.07,-0.27,-0.18
0.71,0.65,-0.37,0.16,-0.32,-0.03,-0.21,0.02,-0.23,-0.07,-0.27,-0.18
0.71,0.65,-0.37,0.16,-0.32,-0.03,-0.21,0.02,-0.23,-0.07,-0.27,-0.18
-1.46,-1.15,-0.19,-1.94,-0.97,-0.23,2.63,1.74,-1.34,0.19,3.96,1.32
-1.34,-0.74,0.52,1.07,2.23,1.34,0.97,2.32,2.2,-1.7,0.7,3.46
-1.41,-0.54,1.01,1.53,3.45,1.4,1.94,1.85,1.94,-1.23,0.47,2.03
-1.42,-0.63,0.46,1.49,2.8,0.59,1.76,1.88,3.79,2.13,0.95,3.17
-1.09,-1.26,0.98,1.48,2.08,-0.6,-0.59,-0.08,3.33,3.54,1.73,0.31
0.71,0.65,-0.37,0.16,-0.32,-0.03,-0.21,0.02,-0.23,-0.07,-0.27,-0.18
0.71,0.65,-0.37,0.16,-0.32,-0.03,-0.21,0.02,-0.23,-0.07,-0.27,-0.18
0.71,0.65,-0.37,0.16,-0.32,-0.03,-0.21,0.02,-0.23,-0.07,-0.27,-0.18
0.71,0.65,-0.37,0.16,-0.32,-0.03,-0.21,0.02,-0.23,-0.07,-0.27,-0.18
-1.61,-2.2,2.04,-0.01,-2,-1.52,0.55,-1.39,-2.44,0.55,1.51,-1.61
-1.05,-0.8,1.72,-0.36,0.35,0.33,0.16,-0.83,2.06,1.91,1.41,2.15
-1.12,-1.85,-0.76,-2.53,0.98,2.86,-0.26,-1.04,-0.05,0.32,0.24,2.72
0.71,0.65,-0.37,0.16,-0.32,-0.03,-0.21,0.02,-0.23,-0.07,-0.27,-0.18
0.71,0.65,-0.37,0.16,-0.32,-0.03,-0.21,0.02,-0.23,-0.07,-0.27,-0.18
-1.81,-2.96,-1.44,-2.01,-1.19,-1.26,-0.9,-0.64,-0.67,-0.67,-0.62,-0.53
0.71,0.65,-0.37,0.16,-0.32,-0.03,-0.21,0.02,-0.23,-0.07,-0.27,-0.18
0.71,0.65,-0.37,0.16,-0.32,-0.03,-0.21,0.02,-0.23,-0.07,-0.27,-0.18
0.71,0.65,-0.37,0.16,-0.32,-0.03,-0.21,0.02,-0.23,-0.07,-0.27,-0.18
-1.26,-1.83,-0.34,-2.75,-1.03,-0.33,0.32,-1.25,0.46,0.53,1.66,-0.99
0.71,0.65,-0.37,0.16,-0.32,-0.03,-0.21,0.02,-0.23,-0.07,-0.27,-0.18
0.71,0.65,-0.37,0.16,-0.32,-0.03,-0.21,0.02,-0.23,-0.07,-0.27,-0.18
0.71,0.65,-0.37,0.16,-0.32,-0.03,-0.21,0.02,-0.23,-0.07,-0.27,-0.18
0.71,0.65,-0.37,0.16,-0.32,-0.03,-0.21,0.02,-0.23,-0.07,-0.27,-0.18
0.71,0.65,-0.37,0.16,-0.32,-0.03,-0.21,0.02,-0.23,-0.07,-0.27,-0.18
0.71,0.65,-0.37,0.16,-0.32,-0.03,-0.21,0.02,-0.23,-0.07,-0.27,-0.18
0.71,0.65,-0.37,0.16,-0.32,-0.03,-0.21,0.02,-0.23,-0.07,-0.27,-0.18
0.71,0.65,-0.37,0.16,-0.32,-0.03,-0.21,0.02,-0.23,-0.07,-0.27,-0.18
0.71,0.65,-0.37,0.16,-0.32,-0.03,-0.21,0.02,-0.23,-0.07,-0.27,-0.18
0.71,0.65,-0.37,0.16,-0.32,-0.03,-0.21,0.02,-0.23,-0.07,-0.27,-0.18
0.71,0.65,-0.37,0.16,-0.32,-0.03,-0.21,0.02,-0.23,-0.07,-0.27,-0.18
0.71,0.65,-0.37,0.16,-0.32,-0.03,-0.21,0.02,-0.23,-0.07,-0.27,-0.18
0.71,0.65,-0.37,0.16,-0.32,-0.03,-0.21,0.02,-0.23,-0.07,-0.27,-0.18
0.71,0.65,-0.37,0.16,-0.32,-0.03,-0.21,0.02,-0.23,-0.07,-0.27,-0.18
0.71,0.65,-0.37,0.16,-0.32,-0.03,-0.21,0.02,-0.23,-0.07,-0.27,-0.18
0.71,0.65,-0.37,0.16,-0.32,-0.03,-0.21,0.02,-0.23,-0.07,-0.27,-0.18
0.71,0.65,-0.37,0.16,-0.32,-0.03,-0.21,0.02,-0.23,-0.07,-0.27,-0.18
0.71,0.65,-0.37,0.16,-0.32,-0.03,-0.21,0.02,-0.23,-0.07,-0.27,-0.18
0.71,0.65,-0.37,0.16,-0.32,-0.03,-0.21,0.02,-0.23,-0.07,-0.27,-0.18
0.71,0.65,-0.37,0.16,-0.32,-0.03,-0.21,0.02,-0.23,-0.07,-0.27,-0.18
0.71,0.65,-0.37,0.16,-0.32,-0.03,-0.21,0.02,-0.23,-0.07,-0.27,-0.18
-2.01,-0.57,2.36,0.74,1.22,-1.43,-1.42,0.34,1.05,-0.97,-0.96,1.15
-1.12,-1.03,1.59,3.34,1.24,1.19,1.06,-1.24,-0.2,-1.33,1.21,1.29
-1.42,-0.43,1.9,0.4,1.67,0.76,2.29,2.21,2.02,0.46,1.61,0.99
-1.44,-0.63,2.01,2.04,2.51,1.17,3.68,2.39,2.61,1.53,1.56,0.47
-1.44,-0.55,1.7,0.57,2.59,2.08,2.65,2.15,2.93,0.74,1.19,1.11
-1.22,-0.21,1.25,1.09,1.61,0.54,1.74,2.14,0.46,1.09,1.93,-0.61
0.71,0.65,-0.37,0.16,-0.32,-0.03,-0.21,0.02,-0.23,-0.07,-0.27,-0.18
0.71,0.65,-0.37,0.16,-0.32,-0.03,-0.21,0.02,-0.23,-0.07,-0.27,-0.18
0.71,0.65,-0.37,0.16,-0.32,-0.03,-0.21,0.02,-0.23,-0.07,-0.27,-0.18
-1.32,-1.59,1.06,0.08,0.57,-1.06,-1.25,-1.48,0.14,3.21,2.1,1.76
-1.16,-1.74,1.61,2.54,2.69,0.78,1.13,3.42,2.3,-3.44,-1.2,-2.33
-1.26,-1.47,-0.44,-1.48,-0.54,-1.3,-1.44,-1.15,0.98,-2.08,0.19,-1.48
-1.13,-1.53,1.31,0.58,2.25,1.8,-1.12,-1.08,1.11,-1.9,-2.96,-2.86
-1.26,-1.02,-0.95,-3.37,-1.89,0.72,-0.25,-1.3,0.06,0.26,-1.8,-1.55
-2.14,-1.83,-1.56,-3.03,-1.03,0.67,-3.32,1.73,-1.91,-0.01,-0.47,-0.52
0.71,0.65,-0.37,0.16,-0.32,-0.03,-0.21,0.02,-0.23,-0.07,-0.27,-0.18
0.71,0.65,-0.37,0.16,-0.32,-0.03,-0.21,0.02,-0.23,-0.07,-0.27,-0.18
0.71,0.65,-0.37,0.16,-0.32,-0.03,-0.21,0.02,-0.23,-0.07,-0.27,-0.18
0.71,0.65,-0.37,0.16,-0.32,-0.03,-0.21,0.02,-0.23,-0.07,-0.27,-0.18
-1.43,-2.08,0.01,-2.34,-1,0.21,-1.89,-0.17,-1.36,-2.15,0.05,-0.44
-1.54,-1.72,-2.69,-2.61,1.02,-4.75,2.38,-3.12,0.94,-1.15,-1.24,1.14
0.71,0.65,-0.37,0.16,-0.32,-0.03,-0.21,0.02,-0.23,-0.07,-0.27,-0.18
0.71,0.65,-0.37,0.16,-0.32,-0.03,-0.21,0.02,-0.23,-0.07,-0.27,-0.18
0.71,0.65,-0.37,0.16,-0.32,-0.03,-0.21,0.02,-0.23,-0.07,-0.27,-0.18
0.71,0.65,-0.37,0.16,-0.32,-0.03,-0.21,0.02,-0.23,-0.07,-0.27,-0.18
0.71,0.65,-0.37,0.16,-0.32,-0.03,-0.21,0.02,-0.23,-0.07,-0.27,-0.18
0.71,0.65,-0.37,0.16,-0.32,-0.03,-0.21,0.02,-0.23,-0.07,-0.27,-0.18
0.71,0.65,-0.37,0.16,-0.32,-0.03,-0.21,0.02,-0.23,-0.07,-0.27,-0.18
0.71,0.65,-0.37,0.16,-0.32,-0.03,-0.21,0.02,-0.23,-0.07,-0.27,-0.18
0.71,0.65,-0.37,0.16,-0.32,-0.03,-0.21,0.02,-0.23,-0.07,-0.27,-0.18
0.71,0.65,-0.37,0.16,-0.32,-0.03,-0.21,0.02,-0.23,-0.07,-0.27,-0.18
0.71,0.65,-0.37,0.16,-0.32,-0.03,-0.21,0.02,-0.23,-0.07,-0.27,-0.18
0.71,0.65,-0.37,0.16,-0.32,-0.03,-0.21,0.02,-0.23,-0.07,-0.27,-0.18
0.71,0.65,-0.37,0.16,-0.32,-0.03,-0.21,0.02,-0.23,-0.07,-0.27,-0.18
0.71,0.65,-0.37,0.16,-0.32,-0.03,-0.21,0.02,-0.23,-0.07,-0.27,-0.18
0.71,0.65,-0.37,0.16,-0.32,-0.03,-0.21,0.02,-0.23,-0.07,-0.27,-0.18
0.71,0.65,-0.37,0.16,-0.32,-0.03,-0.21,0.02,-0.23,-0.07,-0.27,-0.18
0.71,0.65,-0.37,0.16,-0.32,-0.03,-0.21,0.02,-0.23,-0.07,-0.27,-0.18
0.71,0.65,-0.37,0.16,-0.32,-0.03,-0.21,0.02,-0.23,-0.07,-0.27,-0.18
0.71,0.65,-0.37,0.16,-0.32,-0.03,-0.21,0.02,-0.23,-0.07,-0.27,-0.18
0.71,0.65,-0.37,0.16,-0.32,-0.03,-0.21,0.02,-0.23,-0.07,-0.27,-0.18
-1.28,-1.07,1.35,-0.41,1.5,2.29,0.63,-0.26,1.82,0.47,0.22,1.62
-1.43,-0.51,1.38,0.5,1.25,1.02,1.54,0.36,1.15,0.74,3.15,2.58
-1.44,-0.74,1.36,0.84,2.38,1.94,2.6,1.25,2.38,0.77,1.26,3.52
-1.42,-0.36,1.09,0.62,1.88,0.87,1.88,-0.12,2.08,2.34,2.29,2.02
-1.23,-0.37,1.9,0.05,1.49,1.9,2.14,-0.82,0.07,2.45,0.67,1
-1.61,-1.58,-1.53,-1.89,0.28,-3.66,0.92,-0.59,1.43,2.67,0.59,1.32
0.71,0.65,-0.37,0.16,-0.32,-0.03,-0.21,0.02,-0.23,-0.07,-0.27,-0.18
0.71,0.65,-0.37,0.16,-0.32,-0.03,-0.21,0.02,-0.23,-0.07,-0.27,-0.18
0.71,0.65,-0.37,0.16,-0.32,-0.03,-0.21,0.02,-0.23,-0.07,-0.27,-0.18
-1.38,-1.69,0.07,-1.14,0.86,-0.74,-0.24,-3.24,-0.47,-0.05,1.88,0.18
-1.75,-2.95,-1.41,-1.98,-1.17,-1.23,-0.88,-0.62,-0.65,-0.65,-0.61,-0.52
-1.23,-1.17,2.13,0.8,-0.7,-3.44,0.61,-0.69,-1.43,-0.93,1.48,-0.42
-1.72,-1.96,0.31,1.61,2.34,2.86,3.61,1.82,-1.47,-3.47,-2.97,-1.52
0.71,0.65,-0.37,0.16,-0.32,-0.03,-0.21,0.02,-0.23,-0.07,-0.27,-0.18
