"V1","V2","V3","V4","V5","V6","V7","V8","V9","V10","V11","V12"
-1.03,1.14,-1.31,-3.8,-1.44,-0.36,0.51,-1.96,-0.16,-1.15,-1.05,0.79
-0.98,-0.49,-0.43,-1.24,-0.55,-0.6,0.73,-0.39,-0.57,-0.94,-1.07,-0.36
-1.74,-0.63,0.49,1.06,0.46,-0.41,1.58,-0.02,0.75,0.81,-1,-1.76
-2.07,-0.85,0.82,1.01,0.94,-0.33,-0.59,-1.02,-0.29,-1.15,-0.63,-1.22
-0.93,0.19,0.67,0.05,0.47,-0.14,0.62,0.47,0.86,-0.19,0.19,0.27
-2.32,0.34,0.02,-0.16,1.43,0.94,1.43,0.33,1.33,0.94,0.49,-0.34
-1.34,-0.53,0.57,1.27,0.99,0.23,0.13,-0.76,-0.78,0.3,-0.53,-0.72
0.02,-0.79,-0.29,-1.3,0.83,1.12,-0.9,0.31,0.7,1.01,-0.05,0.57
-1.56,0.13,0.35,-0.95,-0.08,0.6,0.97,1.49,1.26,1.37,1.76,2.13
-1.1,0.37,0.46,0.31,-0.42,-1.03,-0.4,0.3,0.99,1.74,0.2,-1.52
0.25,1.11,-0.34,-0.59,-0.08,-0.72,-0.32,1.42,0.59,-0.93,-0.7,-0.72
0.2,0.9,-1.3,-1.94,-0.43,0.07,2.33,1.02,1.37,0.19,-0.45,0.14
-0.25,0.89,-1.83,-2.74,-1.59,-1.75,0.67,3.58,1.56,0.36,0.32,0.2
0.81,0.5,0.41,-1.86,-2.3,-0.84,0.36,2.34,1.63,0.62,1.63,1.81
1.79,0.22,-1.82,-0.97,-2.29,-1.72,0.71,2.15,1.5,-0.34,-0.28,1.56
0.02,0.85,-0.39,-1.32,-1.64,-2.43,-0.23,1.13,2,1.61,0.05,0.38
0.79,0.08,-0.24,-0.34,-1.6,-1.46,0.47,0.84,0.75,1.54,0.79,0.1
1.86,-0.44,-1.63,1.29,0.32,-0.07,0.91,-0.12,-0.29,0.69,-0.79,-2.03
-0.1,0.3,-0.29,0.27,1.4,0.92,2.42,0.7,-0.6,-0.3,-0.39,0.75
0.35,-0.38,-0.54,0.89,0.14,-0.39,-0.28,-0.61,-0.3,0.64,1.28,-0.75
-0.11,-1.4,-0.8,1.02,1.64,-0.4,-0.85,-0.53,-0.53,0.63,0.54,-0.9
0.46,-1.18,-0.7,0.76,0.85,-0.41,-1.5,-0.23,-0.62,0.36,0.26,0.93
0.17,0.13,0.84,1.18,1.31,-0.34,-0.81,-0.3,0.64,0.14,-0.09,-0.78
0.71,0.14,0.46,0.85,0.78,0.51,-0.44,-1.2,-0.62,-0.45,0.07,0.03
1.31,0.48,-0.92,-0.1,-0.23,-0.99,-0.62,-1.66,-2.12,-0.67,0.24,0.85
-0.28,-0.92,-0.79,0.09,0.54,0.04,-0.26,0.26,-0.21,0.63,1.61,0.25
-0.03,-1.04,-0.32,-0.53,0.28,1.09,1.08,0.52,-0.16,0.07,-1.67,-1.44
-0.57,-1.1,-0.85,0.01,1,1.6,0.66,-0.63,-1.3,0.78,0.88,1.15
0.43,-2.04,-0.41,0.3,0.32,1.24,1.32,1.67,0.03,0.47,0.44,1.36
0.92,1.51,1.33,-1.16,-1.91,-2.43,-2.07,-0.59,-0.53,-0.38,1.3,1.22
1.46,-0.35,-1.23,-0.39,-0.47,-1.32,-0.87,1.27,0.06,0.7,0.16,-0.56
0.77,-0.7,-2.36,-0.11,-0.13,-0.43,-0.88,-2.12,0.32,0.53,-1.53,-0.1
-0.86,-0.95,-0.59,0.67,1.18,0.73,0.44,-0.6,-0.73,-0.4,0.78,1.09
-0.2,-1.69,0.16,0.55,0.16,-0.16,-0.73,-1.18,0.11,0.97,-0.66,-1.06
0.14,-0.5,0.32,1.36,0.08,1.54,0.1,0.51,-0.43,-1.24,-0.65,-1.54
-0.67,1.3,1.21,0.25,0.43,-0.53,-0.34,-0.16,-1.14,-1.22,-2.04,-2.07
0.9,0.8,0.08,0.65,-0.18,1.33,0.65,-0.14,-0.76,-1.68,-1.46,-2.26
1.39,0.54,0.86,0.47,-0.6,0.26,-0.81,-1.02,-0.93,-1.5,-2.02,-0.6
0.74,-0.26,0.32,0.48,-0.9,0.43,-1.28,-2.11,-1.17,-0.7,-0.81,-1.12
-0.15,-0.37,0.11,0.5,1.04,0.31,-0.54,-0.41,-0.5,-0.24,-0.19,-0.7
0.68,0.88,1.52,-0.08,-0.2,-2.3,-3.21,-3.01,-2.44,-1.62,-0.7,0
2.97,0.97,-0.46,-1.28,-2.67,-2.33,-2.68,-1.43,-0.15,0.98,1.55,1.39
2.22,1.21,0.17,-0.84,-2.06,-2.46,-2.53,-0.46,-0.74,0.42,0.89,2.3
2.31,0.91,-1.1,-0.64,-1.8,-0.74,-0.73,0.41,-0.12,-1.02,0.12,1.92
0.88,0.62,-0.84,-1.05,0.22,0.71,0.95,0.04,-0.74,-0.94,-0.62,0
0.19,0.05,-0.78,-1.36,-0.93,0.04,1.81,0.99,0.44,-0.76,-1.1,0.47
0.2,0.1,-1.16,-0.63,-0.95,-0.05,0.63,0.95,0.1,-0.89,-0.11,0.59
-0.67,-0.11,0.38,-0.45,0.18,-0.35,-0.92,-0.61,0.43,0.77,-0.49,0.27
1.51,-0.88,-0.19,-0.06,0.64,1.72,1.41,0.3,-0.5,0.02,-1.6,-1.42
1.61,1.52,-0.01,-1.48,-0.08,0.5,-0.12,0.75,-0.65,-1.07,-1.46,-0.72
-0.36,-0.96,0.06,0.52,0.65,0.48,-0.99,-0.21,0.2,0.08,-0.14,-0.6
0.52,-0.44,-0.95,0.75,1.13,0.92,0.32,-0.21,0,0.04,0.17,0.09
1.04,-1.4,-1.79,0.33,0.08,-0.24,-0.18,-0.04,1.29,0.81,-0.29,-0.67
-0.37,-1.65,-0.84,0.96,1.16,1.3,0.84,0.34,0.14,0.88,1.52,0.28
0.06,-0.15,0.4,1.03,0.56,0.77,0.4,-0.19,-0.42,-0.28,-0.4,-0.18
-0.3,0.47,1.06,0.56,-0.05,-1.3,-1.31,0.33,1.54,0.21,-0.6,-1.08
-0.19,0.67,0.9,-0.18,-1.45,-1.3,-0.07,0.3,1.48,1.89,0.25,1.28
-0.33,0.53,-0.75,-0.95,0.22,0.38,1.77,0.21,1.04,-0.12,-0.65,-0.83
0.01,-0.89,-0.57,0.8,-1.77,1.69,0.66,0.3,2.14,-0.17,0.71,0.23
-0.36,0.66,-1.15,-1.97,-0.74,0.14,0.72,-0.33,0.16,0.58,1.95,0.41
-1.11,-0.77,-2.07,-0.91,0.88,0,-0.28,0.3,0.44,-0.19,0.95,-0.08
-0.67,-0.01,-0.73,-0.27,-0.06,-0.58,0.75,-0.12,0.53,0.8,0.79,1.29
-1.02,-0.08,-0.41,-0.56,0.64,-0.11,0.85,0.5,0.31,0.52,-0.32,-0.69
-1.81,-0.19,-0.09,-0.74,-0.22,-0.7,0.54,0.57,1.06,0.11,-0.06,-0.21
-0.65,-0.55,-0.88,-1.73,-0.23,0.22,1.39,0.38,0.2,0.68,0.72,-0.27
-0.32,-1.47,-0.29,0.34,-0.36,-0.78,-0.43,-0.11,-0.63,0.17,0.31,-0.03
0.7,-0.8,-1.23,-1.6,0.1,1.96,0.84,-0.16,-0.44,0.09,-0.26,0.82
-0.17,-1.15,-0.19,1.04,0.55,0.34,-1.23,0.04,0.2,0.02,-0.11,-1.16
-0.14,-2.23,-1,0.41,1.28,1.01,-1.2,-0.99,-0.5,0.69,-0.67,-0.78
-0.04,-2.53,-1.33,-0.03,0.5,0.58,-0.63,-0.26,-0.05,1.3,1.37,1.44
-1.28,-0.53,0.73,0.34,0.38,1.16,0.94,0.52,0.92,0.65,-0.02,0.19
-1.28,-0.44,-1.31,-1.78,0.32,-0.07,0.87,0.71,1.21,1.51,2.18,1.25
-2.7,-1.17,-0.25,-0.16,0.8,-0.4,0.6,0.96,2.14,1.56,1.51,1.27
-1.21,-0.31,-0.15,-0.84,0.73,0.51,-0.03,0.34,1.57,1.49,1.31,0.52
-0.43,0.29,0.3,-0.86,-1.07,-0.47,-0.55,-0.56,-0.05,0.86,2.18,1.87
-0.27,0.52,-0.09,-1.75,-0.78,0.14,0.73,-0.31,-0.94,-0.01,0.47,0.47
-0.8,0.74,0.18,-0.01,0.44,-0.29,-0.01,0.7,0.57,0.28,0.93,-0.12
-0.93,-0.59,-0.3,1.12,1.64,1.61,0.21,-0.88,-0.6,-0.32,0.95,0.22
-0.69,-0.93,1,0.82,-1.2,0.41,0.4,-0.38,2.31,0.41,0.9,-0.18
-0.82,-0.47,-0.96,-0.01,0.45,0.18,-0.16,0.06,0.58,0.59,1.58,-0.16
-0.57,0.53,-0.43,0.01,-0.95,-1.3,-0.59,0.74,-0.41,-0.4,0.71,1.58
0.62,0.26,1.17,1.08,-1.66,-0.81,-0.26,0.15,-1.72,-1.78,-0.53,-0.72
-0.01,0.68,0.27,1.03,-0.09,0.74,1.32,0.17,-1.6,-1.84,-1.12,-0.8
0.99,2.22,1.24,-0.41,-1.28,-0.03,-0.31,-0.88,-1.37,-2.32,0.25,2.17
2.01,1.93,0.75,-0.09,-1.69,-1.57,-1.22,-1.44,-1.82,-1.55,-0.38,0.62
2.57,0.72,0.67,0.58,-1.12,-0.55,-0.25,-2.19,-3.25,-2.49,-1.36,0.78
0.85,2.03,0.42,0.56,0.3,-0.83,-1.25,-0.72,-1.44,-3.1,-1.97,0.78
1.17,0.24,-0.53,-0.57,-0.6,0.4,0.71,1.6,0.07,0.56,0.69,0.24
-0.67,-0.5,1.02,1.46,0.39,0.21,0.01,0.41,1.12,1.14,0.25,-0.46
-0.66,-0.62,0.06,0.51,0.34,-0.21,-0.42,0.23,0.64,0.02,0.36,1.04
0.1,-0.06,-0.09,1.15,0.69,-0.3,0.37,0.92,-0.35,-1.64,-0.93,1.11
0.74,-0.01,0.18,1.44,-0.08,0.2,0.97,0.64,-0.26,-0.53,-1.04,-1.32
0.28,2.33,1.86,0.43,-0.37,-0.38,0.38,-0.29,-0.14,0.13,-0.39,-0.73
0.06,0.56,1.38,0.53,-0.47,-0.75,0.82,1.89,1.02,0.7,1.02,0.67
0.4,1.07,1.12,0.96,0.8,1.56,0.8,0.69,-1.51,0.15,0.86,-0.49
-0.61,0.17,1.86,2.4,1.38,0.27,0.36,0.88,-0.56,-0.36,0.43,1.63
0.48,-1.03,0.89,0.72,0.71,1.61,1.5,1.56,-0.18,1.28,-0.38,0.12
0.03,-1.87,0.31,-0.72,0.52,1.67,0.35,1.32,0.46,1.81,0.89,1.81
0.25,-1.96,-0.19,0.02,0.67,1.87,-0.02,1.44,0.04,0.82,-0.78,0.43
2.42,-0.44,-0.91,-2.4,-2.52,0.8,-0.89,1.73,0.4,-0.83,-1.24,-0.05
-0.05,-0.68,0.32,-1.44,-0.72,0.59,0.72,1.15,-0.18,1.79,1.07,0.77
-0.66,0.02,0.79,0.02,0.13,1,0.06,-0.35,-0.21,-0.28,-0.43,0.26
-0.64,1.35,0.57,0.19,1.83,1.34,0.1,-1.03,-0.72,-0.55,0.37,0.77
-0.81,0.93,2.09,0.42,0.52,0.8,0.58,0,0.15,-0.05,-1.28,-1.63
-1.09,1.66,2.67,0.35,1.17,-0.11,-0.01,-0.4,0.3,-0.65,-0.32,-0.11
-0.43,1.8,3.04,-0.43,-1.82,-1.56,-1.48,-0.31,-0.18,0.1,0.45,-0.82
-0.25,1.73,2.87,0.27,-0.87,-2.01,-0.83,0.03,0.25,0.22,-0.5,-1.75
1.18,1.45,-0.5,-0.56,-0.87,0.42,0.07,-1.31,-0.39,-0.22,-1.47,-0.69
-0.14,1.17,1.04,-0.38,0.16,0.17,-0.79,-1.46,-1.04,-1.3,-0.65,-1.46
0.11,0.42,0.09,1.53,1.47,0.36,0.17,-0.22,-2.21,-0.33,0.87,-1.24
0.03,1.19,1.54,0.73,1.48,1.03,0.09,-0.28,-0.7,-2.08,-2.2,-1.77
1.21,-0.49,0.8,0.13,1.26,1.58,-0.57,-0.21,-0.93,-0.52,1.17,-0.66
1.24,0.66,-0.8,1.39,1.49,1.28,-1.52,-1.89,-0.55,-0.41,-0.22,0.18
-0.36,-0.27,-0.54,-0.07,0.6,0.52,1.53,0.76,-0.04,1.76,1.65,0.25
-0.35,0.09,1.24,0.6,-0.05,-0.5,-0.14,0.64,-0.23,0.56,0.9,0.31
0.02,0.39,0.69,-0.09,-0.47,-1.46,-0.72,-0.59,0.63,-0.64,-2.41,-1.36
-0.65,-0.08,-0.02,0.15,0.34,-0.29,-1.94,-0.82,1.42,-0.02,-2.15,-1.27
-0.79,-0.06,0.21,1.1,1.27,0.16,-0.46,-0.52,2.49,2.27,0.17,0.41
-0.7,-0.83,-0.65,-0.14,0.58,-0.02,0.74,-0.41,0.16,-0.57,0.19,-0.63
0.69,1.08,0.2,0.45,0.46,-1.17,-2.56,-1.05,0.66,0.43,0.38,-0.24
-0.17,1.72,2.06,0.81,-0.93,-1.29,-0.32,-0.11,0.36,-0.86,-0.8,-0.18
-0.41,0.74,-0.45,0.53,0.49,-0.38,0.24,-0.5,-1.19,-1.59,-0.03,0.28
-0.69,-0.6,-0.65,0.1,0.04,-0.51,-0.8,-0.73,-1.52,-0.77,-0.39,0.22
0.21,-2.09,-1.17,0.53,-0.9,0.63,0.53,0.37,0.42,-0.81,0.96,-0.48
-1.21,-1.47,0.1,1.29,0.5,-0.1,-0.21,-0.9,0.3,0.16,0.15,-0.23
0.22,-0.45,-1.37,1.51,0.73,0.74,1.56,0.7,-0.3,-0.73,-0.78,0.26
-1.17,-0.41,-0.14,-0.28,0.45,0.2,-0.17,-1.66,0.35,0.66,1.31,0.02
