"V1","V2","V3","V4","V5","V6","V7","V8","V9","V10","V11","V12"
-0.77,0.83,-0.09,-0.63,-0.07,0.22,0.51,-0.46,-0.63,-0.62,-2.15,-1.13
-0.33,-0.11,0.55,-0.19,0.16,-0.34,-0.21,0.54,-0.66,1.05,0.38,-0.44
-0.66,0.75,-0.82,-0.97,-0.97,-0.79,-0.43,-0.2,1.47,0.54,0,-1.68
2.38,3.63,-0.87,-2.53,-1.79,-1.9,-0.67,-2.67,-1.57,-0.9,-0.65,-0.81
2.02,2.41,-0.75,-1.95,-0.42,-1.26,-1.53,-2.43,-1.34,0.04,-0.61,-1.02
-0.14,0.52,-0.77,-0.63,-0.27,0.13,1.16,1.01,-0.11,0.82,1.02,-1.19
0.78,1.48,1.81,-0.73,-0.61,-0.29,-1.06,0.24,0.47,0.94,-0.16,-0.29
0.37,0.05,1.48,-0.71,-0.45,-0.02,1.2,0.39,0.67,0.13,-1.15,-1.34
0.62,0.1,1.12,-0.26,0.06,1.18,-0.34,-0.16,0.74,-0.92,-1.31,0.06
3.22,3.32,-1.16,-2.97,-2.16,-1.53,-2.46,-0.71,0.15,0.76,0.03,0.11
1.15,1.88,2.05,0.33,-0.49,-0.83,-1.42,-1.33,-1.79,-2,0.45,-0.29
0.12,1.25,-0.26,-1.17,-0.83,-0.58,1.34,1.31,-0.58,0.03,-1.26,-1.04
-0.04,1.34,0.76,-0.92,-0.75,-1.53,-0.45,2.21,0.21,1.36,-0.01,-1.22
-0.76,-0.34,1.11,0.42,-0.1,-1.67,-0.82,-1.17,-0.21,0.85,-0.05,-1.52
-0.46,0.43,0.67,1.13,0.43,-2.21,-2,-0.65,0.08,-0.2,-0.41,-0.21
3.33,2.89,-3.57,-4.5,-1.58,0.14,-0.32,0.29,2.01,2.4,-0.8,-0.2
1.3,0.78,-1.19,-1.53,-0.88,-1.06,-0.18,0.62,0.98,-0.15,0.25,-0.65
0.51,0.01,1.68,-0.14,-0.05,-1.04,0.46,-0.52,-0.45,-0.97,-0.77,-0.77
0.27,0.5,-0.78,-1.45,-1.14,-0.46,-0.86,-0.44,0.23,-0.27,0.66,0.05
-0.15,-0.09,0.45,-0.92,-0.04,-0.34,0.37,-0.57,-0.47,0.8,-0.07,-0.88
-0.79,-0.25,0.71,0.07,0.33,-1.32,-0.77,-0.83,-1.02,-1.47,0,0.06
-0.19,-0.41,0.31,-0.6,-0.52,0.45,1.62,-0.48,1.08,2.18,1.77,0.58
0.3,0.45,-0.21,-1.32,0.17,0.96,0.21,-1.11,-0.16,-0.55,-0.64,-0.65
1.5,1.5,0.16,-0.81,-0.22,-1.57,-1.01,-0.04,0.67,1.69,0.65,-0.87
0.21,-0.19,1.89,0.16,1.19,-0.47,0.5,-0.69,-1.26,0.6,0.01,0.96
0.79,0.03,-0.22,-1.3,0.54,1.01,1.13,-0.97,-0.01,0.98,-0.01,1.29
0.77,-0.39,0.12,-0.26,-0.08,-2.49,-0.98,0.05,1.15,2.18,0.02,-0.87
0.2,-0.07,0.96,-0.71,1.13,-0.31,0.5,0.12,-0.96,0.1,-2.19,-0.77
0.5,-1.89,0.32,-0.21,1.36,0.29,0.52,1.07,-1.81,0.56,-0.65,0.25
-0.83,-1.33,0.69,0.04,-0.27,-0.35,-0.23,0.19,0.75,2.84,-0.53,-0.81
-0.32,0,0.67,0.59,-0.67,-0.46,0.04,0.29,-0.64,1.4,0.65,1.81
-0.29,-0.86,-1.07,-0.18,-0.49,-0.18,0.36,-0.06,-0.39,-0.55,-1.23,-1.51
-0.8,-0.82,-1.75,-0.9,0.22,0.32,1.28,-0.42,-0.76,0.31,-0.02,0.2
-0.63,0.07,-0.51,0.32,-1.54,-0.32,-1.63,0.5,-0.2,0.64,-0.03,-1.21
-0.5,0.14,-0.23,1.24,0.81,0.74,-1.2,-0.71,-1.03,0.64,1.63,0.81
-0.97,0.17,0.23,0.91,0.33,0.75,0.46,0.09,-0.43,-1.25,-0.64,-1.13
-0.83,0.36,0.39,1.38,0.99,0.03,-0.44,-0.05,0.14,0.81,0.72,-0.44
-0.34,-0.41,-0.38,0.65,-0.07,0.54,0.88,0.7,-0.72,-0.09,0.94,0.87
0.21,-0.28,0.33,1.57,-0.36,0.34,0.99,1.14,0.97,-1.51,-1.18,-0.18
-0.94,-0.09,0.2,0.19,0.39,1.57,0.47,-0.25,0.3,0.31,1,0.95
0.01,-0.12,0.17,0.47,-1.19,-0.29,2.27,2.8,1.03,-0.39,-1.17,-0.83
-0.42,0.12,0.69,0.47,0.09,1.12,0.07,0.89,0.32,0.38,-1.36,0.46
-0.45,-0.58,0.19,-0.48,-0.39,1.19,1,1.18,0.36,-0.37,-1.61,-0.97
-0.27,-0.21,1.5,-0.1,-0.18,-1.39,-0.55,0.03,0.8,0.52,0.79,0.39
-1.04,-1.31,1.65,0.49,0.3,-0.86,-0.21,2.29,1.27,1.09,0.06,-0.97
-0.52,-0.18,1.33,0.04,-1.43,0.01,-0.74,0.53,0.62,0.38,-0.88,0.49
-0.28,-0.04,0.71,0.06,-0.35,-0.56,-0.29,0.6,0.93,-0.17,-1.8,-0.5
-0.43,-0.29,0.3,-0.04,-0.88,0.09,0.22,-0.43,0.05,-0.09,0.75,2.52
-0.65,0.04,0.2,1.07,-0.47,0.5,-0.7,0.12,-0.25,-1.43,-1.83,-0.56
-0.87,-1.31,-0.87,0.25,-0.17,0.98,0.21,-0.29,0.82,0.16,-0.21,-0.7
-0.4,-1.55,-1.27,-0.14,0.65,1.02,-0.01,0.01,1.7,1.28,1.35,1.08
-0.5,-0.31,0.7,1.08,-0.29,-0.27,0.42,-0.6,-0.3,-0.91,-1.16,0.19
-0.6,0.21,0.75,0.51,-0.51,-0.39,-1.54,0.3,0.35,1.31,0.84,0.89
-0.62,-0.77,0.71,0.12,0.81,1.5,1.3,0.09,-2.42,-1.5,-1.69,1.52
-0.95,-1.29,-0.08,-0.1,-0.71,2.31,1.79,1.87,2.35,0.74,1.66,1.32
-0.35,-0.07,0.01,-0.68,0.05,0.76,0.5,1.33,0.45,-1.12,1.09,0.23
-0.19,-0.07,1,-0.9,0.22,1.16,1.1,2.32,1.91,1.12,-0.01,0.19
-0.73,-0.2,-0.36,-0.08,0.88,1.51,0.48,1.08,1.13,0.78,1.08,0.4
0.08,0.37,1.29,-0.41,0.22,-0.04,-2.64,-1.27,-0.99,-0.15,0.18,0.24
-0.26,-0.1,0.96,-0.99,-0.1,0.2,0.73,1.86,0.93,1.99,1.57,0.61
-1.34,0.49,0.36,0.56,0.44,0.34,-0.27,0.25,-0.4,-1.22,-1.33,1.21
-0.92,0.63,0.3,0.33,1.17,1.64,-0.04,-0.37,-2.28,-0.63,-0.93,-0.8
-1.43,-0.51,-1.22,-0.96,0.17,1.22,1.19,0.4,-1.71,-0.64,0.61,0
-0.83,0.75,-1.81,-0.12,0.27,0.51,0,0.29,0.11,1.03,-0.73,0.38
-0.82,0.06,-1.05,-0.73,0.54,0.33,-0.78,-2.39,-2.97,-0.91,0.5,0.54
-1.05,0.09,-0.58,0.01,1.04,-0.18,-0.1,-0.48,-0.82,-1.52,-0.35,0.99
-0.87,-0.57,-0.76,0.52,-0.31,-0.1,0.19,-1.27,-1.22,0.02,-0.26,-1.27
-1.05,0.56,-0.48,-0.31,-0.97,0.05,-0.26,-1.1,0.4,0.16,0.17,-0.76
-0.74,-0.51,-0.43,1.71,0.89,-0.05,-0.4,-1.86,-0.14,-0.06,0.48,-0.25
-0.27,-0.6,0.17,0.21,-1.21,-0.49,1.02,0.74,1.22,0.5,0.89,-0.61
-0.85,-0.41,0.45,0.48,-0.73,-0.29,0.55,0.55,-0.05,0.74,1.78,0.69
-0.44,-0.92,-0.39,0.86,0.86,-0.06,1.39,-0.2,1.42,1.23,0.82,-1.47
-0.41,-0.54,-0.13,0.41,-0.11,1.29,1.91,0.8,1.14,0.84,0.71,0.53
-0.68,-0.81,-1.09,-0.21,-0.84,0.36,-1.07,-0.54,0.77,1.88,0.84,1.42
-0.59,-0.3,-0.04,0.45,0.79,1.75,0.34,0.47,-0.76,-1.33,0.74,-0.48
-1.4,-0.42,1.07,0.37,-0.64,1.01,0.93,0.6,0.56,-0.39,-0.25,0.95
-1.18,0.37,0.61,-0.3,1.12,2.31,0.73,1.41,0.5,-1.72,-1.56,0.71
-0.93,-0.15,1.11,0.02,0.5,1.1,0,0.09,-0.43,-0.94,-0.87,1.32
-1.01,-0.26,0.71,0.48,0.99,-0.2,-0.61,1.13,0.45,1.12,0.81,0.61
-0.79,1.08,1.02,-0.05,0.73,0.87,-0.07,-0.83,-1.56,-1.1,-1.78,0.22
-0.72,-0.4,-0.3,-0.4,0.63,0.07,-2.4,-0.66,-0.1,0.43,-1.07,-1.08
-0.99,-0.09,-0.43,-0.45,0.1,-0.01,0.49,-1.24,-0.08,0.29,-0.13,0.89
-1.4,0.16,0.7,0.66,0.09,0.62,-0.44,-2.26,-2.43,-0.98,0.85,2.6
-0.93,0.3,0.09,0.45,0.34,-0.08,-0.07,0.85,2.16,0.64,0.55,0.73
-1.66,-0.31,-0.95,0.13,1.01,1.2,0.43,-1.07,0.3,-0.1,-0.43,-0.41
-1.51,0.14,-0.71,1.18,2.74,1.94,0.95,0.07,0.77,-0.15,0.35,2.4
0.01,0.76,-0.97,-1.12,-1.12,0.23,0.96,0.18,0.29,-1.23,-0.57,1.32
-1.09,-0.63,-0.02,0.62,0.53,1.85,3.03,0.69,0.16,-0.52,1.12,0.73
-1.07,0.05,0.32,0.97,0.86,0.91,1.46,-0.43,0.76,-1.22,-0.08,1.14
-1.14,-0.53,0.73,0.51,0.62,0.74,1.13,0.48,-0.63,-0.45,1.08,2.18
-0.76,0.02,0.72,1.06,2.12,-0.08,-0.3,-0.55,-0.63,-0.59,1.07,-1.21
1.25,2.08,-0.32,-0.89,-2.18,-2,-0.4,0.95,0.05,-2.47,-0.51,-0.68
0.21,1.33,0.07,0.73,0.05,-0.73,0.17,-0.84,0.5,0.9,1.97,1.43
-0.81,-0.11,-0.39,0.7,0.34,1.38,0.61,-0.68,0.64,-0.18,-0.02,-0.66
0.29,0.99,-0.78,0.26,-1.01,-0.8,0.18,-0.49,-0.66,-0.13,1.45,1.38
-0.27,-1.63,-1.26,1.27,0.04,-0.93,-1.46,-0.02,-0.41,-1.18,-0.6,0.57
0.18,-1.34,0.02,0.6,-0.27,0.85,-0.02,-0.05,-1.21,0.29,-0.87,0.24
0.46,-1.63,0.43,0.85,0.63,0.17,-0.05,-0.12,0.13,-1.11,-1.21,-1.16
0.69,0.52,0.91,0.12,-0.67,-0.79,-2.13,-1.33,-0.87,-0.77,1.69,-0.14
1.18,0.51,2.12,0.6,-1.95,-0.18,-0.01,-0.99,-1.14,-1.19,0.98,-0.29
3.08,2.06,0.78,-2.77,-3.88,-0.09,-0.04,0.38,-0.24,-0.26,0.15,-1.7
1.22,1.57,1,-0.4,-1.82,0.75,-1.09,0.83,-0.15,-0.93,-0.76,0.36
1.15,1.25,1.89,-0.59,-1.96,0.18,-0.79,-0.39,-1.27,-0.54,-1.29,-0.93
0.97,0.18,0.6,-0.34,-1,-1.18,-0.91,-1.17,0.64,0.67,2.12,1.32
0.22,-0.07,0.85,0.72,-0.73,-0.69,-0.43,0.47,1.6,0.16,0.83,-0.78
0.55,-0.72,0.51,1.07,2.55,0.36,1.44,-0.53,0.34,0.55,-1.22,-0.37
0.34,-0.32,-0.3,-0.73,-0.42,-1.46,0.29,1,1.15,1.28,0.4,2.14
1.86,1.38,-0.34,-1.17,-1.15,-1.64,0.65,0.54,1,0.62,-0.08,0.3
1.6,-0.2,0.24,-0.94,0.85,0.65,-0.84,0.09,-0.47,0.23,-0.67,-1.33
1.22,-0.76,0.05,-0.01,-0.03,-1.69,-0.73,1.4,-0.49,-0.03,0.07,0.72
0.88,-0.24,0.28,1.09,0.01,-1.87,-1.33,0.9,-0.37,1.22,2.99,0.53
0.1,-1.39,-0.85,-0.28,0.06,-0.25,0.54,0.79,0.29,-0.38,-0.42,-1.71
0.85,-0.52,0.46,1.27,1.35,-1.1,0.06,-0.81,-0.08,-0.7,-0.49,0.01
2.25,1.41,-3.03,-1.36,-1.09,-1.62,-0.21,-2.16,1.13,0.6,-0.96,-2.27
1.55,1.04,-2.35,-0.36,-0.08,-1.63,-0.36,0.51,1.31,-0.07,-0.2,0.11
1.78,0.08,-1.37,0.43,-0.01,-0.96,-0.31,-1.09,0.05,-0.84,0.02,-0.64
0.67,-0.99,-1.74,1.11,0.29,-0.55,0.25,0.59,1.26,-0.46,1.74,0.88
0.3,-1.16,-0.65,2.07,1.34,-0.74,0.36,-1.11,-0.62,-1.28,-0.71,-1.23
1.25,-0.5,-1.26,0.04,1.17,0.26,-0.07,-0.48,-0.02,0.39,-0.69,-1.32
0.59,-0.7,-0.35,0.87,2.27,1,-1.05,-0.85,-0.12,0.25,0.41,-0.95
0.8,-1.28,-0.5,1.71,1.58,0.56,-1.1,-0.32,-0.6,-2.03,-0.36,0.18
0.21,-1.84,-1.1,0.36,1.04,1.43,1.49,1.33,1.37,0.92,-0.83,-0.56
0.57,-2.02,-0.47,1.24,0.65,0.46,0.04,0.55,0.36,-0.58,0.54,0.46
0.26,-0.45,-0.33,2.05,1.18,0.02,-0.46,0.01,-0.11,-0.94,1.46,0.41
0.5,-1.61,-2.03,-0.47,-0.2,0.61,1.4,1.8,-1.12,-0.75,0.66,0.98
0.12,-1.22,0.31,1.63,1.49,0.13,0.47,0.23,-0.57,-0.55,-0.73,0.53
0.42,-0.91,-1.68,1.04,1.09,-0.62,-2.48,-1.19,-2.01,-1.02,0.79,0.02
