"V1","V2","V3","V4","V5","V6","V7","V8","V9","V10","V11","V12"
-0.47,1.35,1.18,-0.37,-0.78,-1.68,-1.43,-1.36,0.03,0.4,0.88,-0.28
-0.42,0.84,0.97,1,0.21,-3.01,-1.86,0.41,0.11,0.83,2.05,0.67
-0.75,0.68,1.03,0.27,0.83,-0.67,-1.04,0.75,0.35,-0.94,1.23,0.8
-0.67,0.88,1.04,-0.69,0.7,0.51,-0.4,0.48,0.2,-1.65,-0.76,0.44
-0.5,0.88,0.59,-1.3,0.21,1.17,0.64,1.35,0.47,-0.69,-0.61,-0.92
-0.39,0.62,0.31,-0.37,0.75,0.09,-0.67,0.84,0.89,-0.12,-0.35,-0.95
0.15,-0.68,-0.39,0.01,0.53,-0.13,-0.22,1.07,0.76,1.43,-0.78,-2
0.58,0.2,-0.34,-0.21,1.26,-0.68,-1.74,0.47,-0.19,0.08,-1.23,-1.02
0.37,-0.28,-0.27,1.07,0.7,-0.84,-0.87,-0.61,0.01,0.92,-1.65,-1.21
-0.06,-0.64,0.02,0.33,0.45,-0.69,-0.45,0.14,0.03,0.86,-1.22,0.08
-0.37,-1.26,0.42,0.71,1.17,0.66,-0.52,-0.6,-0.24,1.96,-1.47,1.31
0.3,0,0.43,0.63,0.74,1.13,0.19,-1.15,-1.4,-0.71,-2.71,0.7
0.62,0.45,0.11,0.54,0.77,-0.43,-1.78,-0.14,0.26,1.27,-1.8,2.3
0.49,-0.11,0.58,-0.18,-0.6,0.94,-1.35,1.08,1.69,0.8,-1.11,-0.15
0.04,-0.49,0.81,0.76,-0.2,1.08,-1.51,-0.06,1.14,0.38,-1.65,-0.4
-0.04,0.09,0.49,0.37,0.1,0.36,-0.09,0.04,0.65,0.88,-0.44,0.58
-0.01,-0.13,0.81,1.69,0.08,-0.14,0.26,-0.55,-0.07,0.49,-1.45,0.27
0.48,0.89,0.82,1.01,-0.44,-1.15,0.2,0.53,-1.9,-0.61,-1.44,-0.11
0.55,1.06,0.15,0.34,-0.53,-0.86,0.1,-0.82,-1.18,-0.36,0.29,2.31
0.91,1.41,0.04,-0.37,-0.86,-0.14,0.4,-0.67,-1.22,-1.27,0.77,1.04
1.38,1.7,-0.38,-0.64,-0.53,0.24,0.13,-0.66,-1.29,-1.23,-0.39,0.17
1.26,1.38,-0.95,-1.25,0.01,0.34,0.12,-0.95,-0.75,-0.84,0.18,1.78
1.23,1.2,-1.08,-1.85,0.82,0,-0.71,-0.43,-0.83,-0.23,0.89,2.11
0.85,0.72,-0.51,-1.55,-0.37,0.84,0.3,-0.02,-0.48,0.46,1.48,2.14
0.29,0.07,-0.77,-2.04,0.25,0.99,0.72,0.07,-0.62,-0.36,0.81,1.07
0.28,-0.3,-1.2,-1.7,0.61,1.08,-0.42,-1.34,-0.18,0.07,0.78,-0.3
-0.23,0.01,-0.44,-1.33,0.25,0.91,-0.6,-1.36,0.38,0.49,1.79,-0.25
-0.35,-0.23,0.06,-0.44,0.54,1.22,0.58,-0.44,0.2,0.29,0.65,-0.11
-0.05,-1.37,-0.3,2.08,-0.53,-0.18,0.69,-0.65,-0.11,0.4,0.82,-1.26
0.13,-1.27,0.09,2.74,-0.54,0.36,1.02,-0.77,-0.57,-0.24,0.72,-0.01
-0.18,-2.07,-0.14,1.9,-1.27,0.01,1.19,-0.43,0.12,-0.47,0.66,0.52
-0.23,-1.75,0,1.55,-0.98,0.54,0.89,-0.9,-0.99,-1.33,0.44,0.67
-0.58,-1.06,0.63,1.81,-0.43,-0.18,-0.01,-0.83,-0.83,-0.67,1.44,-0.02
-1.02,-0.94,0.49,0.6,-0.11,0.23,0.55,0.01,-0.08,-0.51,0.08,-0.66
-1.1,-1.18,0.44,0.6,0.02,-0.21,0.74,0.63,0.56,0.11,0.1,0.39
-0.66,-0.48,0.13,-0.58,0.35,-0.18,-0.03,-0.03,-0.28,0.11,0.24,-1.24
-0.76,-1.3,-0.57,-0.18,1.11,0,-0.36,0.33,0.52,0.55,-0.11,-1.53
-0.39,-0.81,-0.77,-0.32,1.56,0.54,-0.8,0.93,0.34,0.26,0.64,-1.64
-0.29,-0.52,-0.76,-0.36,1.81,0.01,-1.14,0.67,1.23,1.32,1.33,-0.95
-0.57,-0.44,-0.65,-0.89,1.92,0.51,-0.44,0.5,1.49,1.59,1.14,-0.88
-0.69,0.62,0.22,0.05,3.1,0.89,-0.94,0.14,1.1,0.37,0.62,-0.72
-0.67,0.81,0.16,-0.67,1.97,0.81,-0.74,-0.3,0.6,0.12,-0.57,-1.34
-0.74,0.19,0.22,-0.03,1.54,0.54,-0.77,-0.13,0.96,0.61,-0.18,-0.59
-0.66,0.37,0.39,-0.01,1.77,0.31,-0.77,-1.06,0.46,1.59,0.93,-1.74
0.09,1.26,-0.1,-0.57,0.94,-0.01,-0.69,-0.48,0.56,1.65,0.76,-2.06
-0.01,0.69,-0.54,-1.41,0.69,0.57,-0.55,-1.55,-0.69,0.56,0.19,0.28
0.32,1.05,-0.3,-1.18,0.79,0.79,-0.99,-1.84,-1.17,1.45,1.4,-1.03
0,0.2,-0.34,-1.06,0.66,1.01,-1,-1.36,0.5,1.97,0.82,-2.38
0.21,0.29,-0.32,-0.84,1.21,1.34,-0.84,-1.51,-0.28,1.44,0.89,-2.77
-0.28,-0.56,0.13,-0.23,0.16,1.66,0.14,-1.78,-0.2,1.24,-0.84,0.05
-0.33,-1.84,0.23,0.51,-1.33,1.36,0.92,-1.87,0.4,1.54,-1.3,0.3
-0.39,-0.92,0.69,1.93,-0.11,1.06,1.68,-0.82,1.03,1.51,-0.61,-0.16
-0.41,-0.93,0.54,1.34,0.01,0.23,1.01,0,-1.35,-1.21,-0.73,-0.6
-0.1,-0.61,0.57,1.66,-0.25,0.66,0.29,-2.06,0.23,0.84,-0.98,0.06
0.38,0.18,0.41,0.28,-0.97,0.42,0.77,-1.54,-1.27,-1.21,-0.62,1.07
0.79,0.91,0.05,-0.91,-0.8,0.17,-0.29,-1.79,0.11,2.91,-0.23,0.29
0.73,1.07,-0.26,-1.42,-0.5,0.08,-0.65,-0.88,-0.37,0.5,-0.78,-1.28
1.09,1.03,-0.41,-1.66,-1.86,-1.18,-0.14,0.42,0.45,1.51,-1.1,-0.48
1.18,1.61,-0.16,-1,-1.01,-0.07,0.73,0.44,0.56,-0.19,-0.45,0.75
0.84,0.55,-0.34,-1.17,-2.37,-1.08,0.19,0.57,1.22,0.06,-1.98,1.31
0.94,1.08,-0.49,-0.81,-0.87,-0.82,0.56,1.05,1.3,0.15,-0.08,0.87
0.43,0.32,0.01,0.17,-1.15,-0.07,0.45,-0.08,0.82,-0.56,-0.16,0.61
0.11,0.17,0.36,0.49,-0.97,-1.16,-0.27,0.44,0.56,-1.12,-1.33,0.17
-0.42,-0.16,0.75,1.21,0.41,-0.09,-0.3,-0.77,-0.17,-0.49,0.21,1.16
-0.8,-0.22,0.84,0.45,0.06,-0.04,0.05,0.3,-0.17,-1.61,-0.92,-0.21
-0.93,-0.92,1.03,0.32,-1.05,-0.45,-0.63,-0.76,0.04,0.08,-1.54,-0.12
-0.85,-0.69,1.16,0.93,-0.77,0.37,0.98,0.8,1.12,0.33,-1.87,-0.31
-1.38,-1.42,0.77,-0.2,-0.98,-0.97,-0.55,-0.55,0.37,-0.26,-0.54,-0.01
-0.74,0.45,1.6,1.27,0.22,0.84,0.64,-0.56,1.28,0.39,-0.06,1.97
-1.36,0.16,1.72,1.13,0.56,0.06,-0.03,1.32,2.09,1.22,0.66,0.83
-1.87,-0.24,1.38,0.66,1.53,0.69,0.49,0.03,1.24,0.94,0.96,1.64
-1.95,-0.56,1.55,0.08,0.36,0.47,0.76,1.61,1.29,0.86,0.27,-0.63
-1.71,-0.34,1.25,-0.21,0.41,0.12,0.37,0.77,1.41,1,1.3,0.47
-1.76,-0.53,1.48,0.44,0.75,0.02,0.04,1.1,1.75,0.65,0.14,-0.16
-1.62,-0.39,1.09,-0.09,0.19,0.06,0.57,1.46,1.34,0.26,-0.45,0.29
-1.5,-0.33,1.61,0.07,0.35,1.04,0.14,0.37,1.43,0.17,-0.27,0.83
-1.41,-0.24,1.39,-0.09,0.09,1.59,0.81,-0.66,-0.45,-1.02,-1.02,-0.34
-1.74,-0.63,1.45,0.78,1.18,1.57,1.07,0.78,0.58,-1.52,-1.44,0.18
-1.75,-0.38,1.52,0.29,0.22,1.03,0.32,-0.35,-0.34,-0.39,-0.72,-0.2
-1.48,0.3,1.4,-0.59,0.19,-0.38,-0.77,-0.31,-0.2,-0.16,0.11,-0.15
-1.39,0.13,1.38,0.07,0.57,-0.06,-0.61,0.3,0.93,-0.87,0.01,0.85
-1.59,-0.33,1.13,0.77,1.07,0.73,-0.53,0.39,1.49,0.7,-0.82,-0.17
-1.58,-0.73,1.03,0.62,0.68,0.43,-0.15,0.64,1.75,0.59,-0.14,-0.42
-1.57,-0.97,1.03,0.61,0.56,0.78,-0.65,-0.62,1.62,-0.15,0.36,-0.07
-1.83,-1.06,1.07,0.32,0.4,0.63,0.42,0.32,1.22,0.03,-0.03,0.72
-1.82,-1.25,1.33,1.16,0.31,-0.16,-0.36,0.36,0.98,-0.28,0.55,0.27
-1.25,-0.99,0.75,0.45,0.05,0.49,-0.29,-0.03,0.17,-1.97,-0.26,0.62
-0.79,0.63,1.44,1.3,0.34,-0.71,-0.52,1.38,0.92,-1.41,-1.2,0.03
-0.15,1.34,0.85,1.13,1.69,-1.78,-3.79,-1.25,0.84,-1.29,-1.16,-0.05
1.09,2.71,0.01,0.46,1.29,-2.59,-3.46,-1.72,-0.8,-1.55,0.23,0.53
1.82,3.16,-0.04,0.27,0.45,-2.28,-3.43,-1.49,-1.41,-0.69,0.56,-0.4
1.46,2.24,-0.48,0.65,0.69,-2.59,-2.69,-0.9,-2.58,-0.06,2.56,-0.52
1.54,2.06,-0.7,0.56,1.21,-2.12,-1.21,0.5,-2.05,-0.04,1.49,-0.48
1.95,1.91,-1.68,-0.43,1.72,-1.25,-1,0.52,-1.68,0.96,2.68,-0.04
1.63,1.29,-1.77,-0.88,0.49,-1.26,0.97,1.94,-1.67,-0.16,2.05,0.25
1.82,0.87,-2.12,-0.57,-0.71,-1.48,1.55,1.72,-0.41,1.5,2.15,0.65
1.43,0.56,-2.11,-0.73,0.2,-1.35,-0.15,0.45,-0.94,0.54,0.7,-1.11
1.47,0.69,-2.19,-0.77,0.2,-2.05,0.32,2.33,0.73,1.68,1.17,-1.86
1.03,-0.36,-2.26,-0.77,-0.82,-2.18,0.79,1.93,-0.21,0.78,-0.83,-1.97
1.3,0.55,-1.87,-1.07,-1.11,-1.2,0.97,1.92,0.31,0.14,-0.2,-1.73
1.3,0.95,-1.48,-1.68,-0.95,-0.33,0.94,1.62,0.31,-0.22,0.23,-0.44
0.98,0.61,-1.43,-1.32,-0.54,-1.33,0.36,1.04,-0.26,0.2,-0.05,-0.24
1.46,0.23,-1.43,0.18,-0.35,-1.24,1.34,1.37,-1.83,-1.21,-0.68,0.96
1.72,0.22,-1.83,0.19,-0.43,-1.38,0.9,1.21,-1.16,-0.67,-1.03,1.31
2.2,0.64,-2.36,-0.77,-0.7,-0.5,1.66,1.71,-0.43,-0.79,-0.35,1.82
1.48,0.64,-1.96,-1.06,-0.47,-0.45,1.63,1.14,-0.65,-0.14,0.14,0.82
1.5,0.61,-2.12,-2.66,-1.08,0.36,1.03,1.88,0.72,-0.41,-0.25,0.74
0.91,-0.68,-1.17,-1.46,-1.41,0.41,1.34,1.61,0.14,-0.86,-0.95,-0.76
0.82,-1.02,-1.35,-1.57,-2.16,-0.68,-0.24,0.55,-0.82,-1.45,0.08,0.88
0.75,0.25,-0.19,-0.59,-1.35,0.54,0.28,0.52,-0.79,-1.73,0.39,0.77
-0.22,-0.74,-0.24,-1.35,-1.43,0.38,0.7,0.75,0.13,-0.59,-0.21,1.49
-0.18,-0.51,-0.18,-1.04,-0.66,0.74,1.07,0.04,-0.39,-1.73,-0.83,-0.27
0.26,-0.02,0.21,0.65,-0.4,0.69,0.9,0.86,-0.9,-1.05,0.7,-0.38
0.43,0.52,0.09,-1.07,-1.18,-0.07,0.13,0.08,-0.55,-0.39,0.35,-1.1
0.41,-1.27,0.24,0.88,-1.26,1.57,0.28,-0.92,-0.35,-2.15,-0.62,-0.37
-0.32,-2.08,0.01,-0.16,-1.3,2.83,1.74,0.51,1.56,0.5,0.63,-0.08
-0.85,-1.34,0.26,-0.57,-0.7,1.21,0.44,-0.43,0.95,0.31,0.47,1.38
-0.83,-0.46,0.96,0.54,-0.18,0.45,0.43,0.27,0.35,-0.94,-0.62,0.45
0.12,0.05,0.04,-0.43,-1.52,-0.31,0.58,-1.15,-1.74,-1.14,0.25,-0.23
0.6,0.85,0.28,-0.43,-1.8,-0.56,0.05,-1.49,-2.3,-0.28,1.47,1.22
0.27,-1.25,0.15,0.73,-2.26,0.01,1.13,0.01,0.15,0.54,0.48,0.37
0.34,-1.73,-0.2,1.65,-1.93,-0.23,1.26,-0.92,-0.49,0.89,0.96,-0.32
0.43,-1.24,-0.76,1.2,-1.11,-0.18,0.76,-0.86,-1.79,-1.34,-0.03,-1
0.77,-1.49,-2,0.69,-0.35,-0.76,0.62,0.35,-1.25,-0.26,0.31,-0.26
0.8,-1.73,-1.65,1.42,0.29,0.24,1.09,-0.54,-0.75,0.21,1.13,0.52
0.8,-0.55,-1.04,0.92,0.35,0.98,0.69,-1.85,-2,-1.92,0.23,-0.23
0.07,-0.43,-0.48,0.68,1.61,1.57,0.39,-0.14,-1.4,-1.7,-0.79,-1.45
