"V1","V2","V3","V4","V5","V6","V7","V8","V9","V10","V11","V12"
-3.52,-2.59,-0.84,0.53,0.15,-0.03,0.32,-0.42,0.5,-0.09,0.26,-0.16
-1.93,-1.7,-1.1,1.43,-0.11,-1.49,-0.31,-1,0.52,0.01,-0.3,-0.5
-1.22,-1.66,-1.65,0.42,-1.52,-2.24,-0.49,-1.98,-0.75,1.14,1.25,-0.8
-0.79,-0.98,-1.66,0.64,-1.18,-1.81,1.46,-0.15,-0.55,2.52,-0.16,-2.01
-0.83,-0.54,-1.69,0,-1.8,-2.67,1.6,1.21,-0.31,1.09,0.21,-1.77
-0.78,-0.69,-1.74,-0.27,-1,-1.67,2.03,0.76,-0.85,0.06,0.13,-1.35
-0.6,-0.91,-2.69,-2.78,-1.81,-1.09,2.04,0.17,-2.8,-1.53,0.76,0.44
-0.76,0.15,-1.42,-1.53,-1.47,-1.97,1.11,0.5,-2.22,-1.09,1.42,1.67
-1.03,1.53,-1.12,-4.82,-2.91,-1.38,0.76,1.02,2.1,4.35,4.56,2.02
-0.84,0.82,-0.05,-0.67,-1.27,-0.88,0.06,0.01,2.21,1.58,1.28,0.72
-1.57,-0.76,-0.75,-0.66,-0.3,-0.92,0.21,0.03,1.38,1.54,0.93,0.22
-0.88,-1.31,0.29,0.26,-0.99,-1.26,-0.85,-0.07,-0.33,0.47,0.82,1.05
-1.15,-2.85,-0.43,0.97,-0.3,-1.19,-0.88,0.2,-0.21,-0.72,-0.16,0.45
-0.87,-1.73,0.17,0.65,-0.76,-0.58,-0.57,-0.23,-0.89,0.1,0.45,0.5
-1.54,-0.42,0.11,0.57,-0.22,-1.09,-0.43,-0.16,1.24,2.58,2.02,0.79
-0.85,1.41,1.27,-0.68,-3.63,-3.05,-1.34,-0.07,0.34,1.89,1.84,1.92
-0.89,0.15,-0.24,-0.12,-1.74,-0.82,0.59,1.17,1.02,0.51,0.92,1.29
-0.99,-0.75,-0.18,-0.54,-1.26,-0.51,-0.19,0.91,0.61,-0.05,0.7,0.62
-0.97,-0.41,0.34,-0.14,-0.97,-1.13,-0.41,0.71,0.8,-0.7,-0.97,-0.26
-2.33,-1.07,0.04,-0.39,0.08,0.42,0.37,0.19,0.74,0.5,1.26,0.44
-1.85,-1.5,-0.1,-0.37,0.06,0.55,0.25,-0.97,0.7,0.42,0.62,0.54
-1.73,-1.14,0.8,0.39,0.46,0.06,0.44,-0.56,0.36,0.43,1.07,1.26
-2.41,-0.96,0.45,0.16,1.58,0.34,0.14,-1.33,0.21,-0.33,-0.03,0.76
-2.21,-1.7,-0.01,0.29,0.68,-0.09,-0.4,-0.45,0.3,-0.54,0.35,0.77
-2.01,-1.35,-0.77,-0.23,0.63,0.75,0.89,-0.82,0.84,0.62,0.51,0.64
-2.02,-1.37,0.1,-0.05,-0.37,-0.23,-0.33,-0.73,0.97,0.47,0.71,0.17
-1.64,-0.65,0.3,1.01,0.77,-0.36,0.3,-1.24,0.31,0.63,1.04,1.37
-1.23,-0.55,0.13,0.58,0.01,0.14,-0.05,-1.42,0.25,-0.08,0.61,0.49
-0.97,-0.47,0,-0.25,-1.08,-0.37,-0.02,-0.52,1.06,-0.82,-0.5,-0.34
-0.6,0.11,0.1,0.98,0.31,-0.19,0.94,0.47,0.71,0.67,0.07,-0.52
-0.54,-0.57,-0.54,0.75,-0.74,-0.8,0.7,-0.28,0.7,0.21,0.47,-0.02
-0.54,-0.46,-0.48,0.77,-1.11,-0.74,1.16,0.37,0.09,-0.15,-0.08,-0.77
-0.48,-0.18,-0.95,-0.23,-1.14,-0.94,0.42,0.12,0.06,0.65,0.5,-0.83
-0.13,0.33,-0.27,1.05,-0.09,-1.55,-0.18,0.08,0.39,-0.35,-1.13,-2.07
0.2,0.24,-1,0.2,-0.32,-1.04,0.94,0.33,-0.56,-0.04,0.14,-1.44
0.82,2.11,0.24,1.82,0.1,-0.49,2.05,0.59,-0.38,-0.42,-1.78,-3.02
0.8,0.97,-0.91,0.22,-0.32,-0.65,1.47,1.74,-0.45,-0.9,-0.69,-1.86
1.09,0.27,-1.71,-1.03,-1.42,-0.86,1.25,0.7,-1.06,0.62,-0.47,-2.42
1.3,-0.26,-1.91,0,-2.63,-0.9,1.67,-0.23,-2.1,0.09,-0.05,-1.68
1.44,0.78,-1.96,-0.4,-1.73,-0.66,2.78,0.72,-2.14,-1.36,-0.91,-1.07
1.2,1.28,-2.76,-1.08,-1.71,-1.23,2.94,1.29,-2.41,-0.74,0.8,-0.5
0.76,1.59,-1.18,0.07,-0.86,-1.84,1.92,1.71,-0.59,-0.93,0.21,-0.55
0.81,1.09,-1.91,-1.02,0.05,-0.94,1.44,0.23,-1.78,-0.32,0.43,-0.68
0.83,0.66,-1.57,0.43,1.01,-0.55,0.55,0.98,-0.08,-0.92,-0.81,-0.62
0.65,0.78,-2.3,-0.34,1.51,-0.4,-0.06,-0.01,-0.27,0.5,-0.99,-1.49
0.39,1.3,-1.69,-0.7,1.36,-0.86,-1.04,-1.43,0.13,0.23,-0.21,-0.96
-0.18,1.13,-1.37,-0.71,0.67,-0.83,-1.28,-1.66,-0.37,-1.69,-1.34,-1
0.11,1.93,-0.82,-0.84,0.71,-1.34,-2.16,-2.96,-0.64,0.86,0.25,-0.13
-0.06,1.03,-0.7,-1.08,-0.1,-0.97,-0.57,-1.53,0.38,1.34,1.95,1.27
0.12,0.89,0.16,-0.62,-0.51,-0.53,-0.74,-2.17,0.63,0.5,2.46,1.45
-0.72,-0.21,-0.22,0.69,0.49,-0.08,0.27,-0.5,0.51,-1.35,-0.71,0.14
-0.45,-0.39,0.13,0.32,0.8,0.16,0.33,-0.66,0.66,-0.01,-0.38,0.22
-0.85,-0.6,0.3,-0.77,0,-0.11,0.19,-1.74,0.01,-0.24,-0.73,0.16
0.9,0.91,1.27,2.53,0.9,-1.06,-2.45,-3.7,-1.97,-2.62,-1.27,-0.17
0.11,-0.16,1.13,0.97,-0.46,0,-0.54,-0.86,-0.34,0.06,-0.35,-0.41
-0.16,-0.6,0.64,0.21,-0.73,0.1,1.32,-0.41,0.6,0.68,0.22,1.14
-0.65,-1.22,0.63,0.37,0.45,-0.36,0.09,-0.95,0.35,0.61,0.08,0.42
-0.55,-1.14,0.64,0.04,0.77,-0.56,0.45,-0.87,0.49,0.07,0.25,1.01
-0.42,-1.5,1.19,-0.03,1.24,0.06,0.95,0.52,0.34,0.05,-0.21,1.18
-0.69,-1.22,0.57,-0.49,0,-0.19,1.12,0.97,0.72,0.02,0.44,0.7
-0.59,-1.18,0.29,0.34,0.23,-0.45,0.5,0.36,0.82,0.59,0.57,0.82
-0.72,-0.48,0.76,0.3,0.69,-0.45,0.36,-0.37,1.18,0.6,0.79,0.89
-0.11,-0.65,0.2,-0.13,0.05,-0.33,0.22,0.52,0.45,0.42,-0.35,0.81
0.37,-1.22,-0.5,0.56,1.53,-0.33,-0.41,1.16,1.2,1.27,-0.14,0.86
0.6,-0.62,-0.31,1.04,0.92,-0.48,-1.01,0.17,0.74,1.29,-0.06,0.76
0.66,-0.29,-0.26,-0.43,-0.18,0.35,0,0.46,0.48,0.11,0.16,1.02
0.96,0.19,-0.41,-0.34,1.2,1.02,-0.65,0.58,0.67,-0.16,-0.62,0.46
0.74,0.65,0.42,-1.64,-0.62,0.36,-0.42,-0.22,-0.56,-0.43,-1.04,1.4
0.64,0.59,0.14,-0.26,0.78,1.13,-0.41,-1.99,-0.64,-0.56,-0.98,0.06
0.34,0.26,1.38,-0.86,-0.58,1.6,-0.49,-0.76,-1.13,0.5,1.05,0.35
0.06,-0.87,0.99,-0.39,-0.17,0.97,-0.85,0.42,0.59,1.47,1.73,0.41
0.28,1.05,0.83,-0.49,-0.48,0.68,0.02,-0.85,-0.47,-0.08,0.19,0.86
0,0.26,0.88,-0.1,0.4,0.71,-0.03,0.16,-0.98,-1.12,0.16,-0.12
0.13,0.52,0.24,0.02,0.72,0.36,-0.7,-0.04,0.01,0.09,-0.17,-0.74
0.15,1.63,0.47,0.04,-0.37,-0.91,-0.92,-0.83,0.05,-0.25,0.27,0.36
0.33,0.85,0.44,1.88,0.83,-0.21,-1.82,-1.95,0.21,-1.27,0.58,-0.18
0.35,0.03,0.94,2,0.5,0.08,-1.14,-0.7,1.2,-2.25,1.07,0.26
0.96,0.15,1.29,1.7,1.44,1.16,-0.58,-0.08,-0.35,-1.42,-0.94,0.48
0.36,0.2,1.04,0.57,0.44,-0.1,-0.06,0.06,0.1,-0.03,-0.73,0.85
0.57,0.41,0.77,2.22,0.93,0.55,-0.38,-1.08,1.32,-0.7,0.08,1.3
0.39,-0.26,0.78,0.89,2.13,0.93,-0.63,-0.06,-1.24,-0.96,0.04,1.68
0.77,0.08,0.35,-0.43,1.12,0.86,-0.44,-0.26,0.14,1.72,-1.05,1
1.48,1.28,-0.2,-0.44,1.15,-0.4,-2.06,-0.84,-1.11,1.17,-0.54,1.41
1.61,0.7,-1.52,-2.28,0.81,0.99,-0.7,-1.5,-1.62,0.46,-0.6,0.72
1.51,0.31,-1.99,-2.26,0.39,0.13,-0.78,0.02,-1.41,1.4,-0.48,1.86
1.78,0.83,-1.64,-2.9,0.78,0.38,-1.05,-0.22,-1.74,0.49,-0.52,2
1.94,2.63,-0.7,-0.35,1.15,0.27,-0.03,1.03,1.17,-0.3,-1.53,0.59
1.93,1.68,-0.27,-0.75,1.79,0.11,-1.83,0.95,-0.91,0.57,-1.24,0.01
1.48,1.08,-0.6,0.19,1.1,-0.6,-2.71,-0.78,-1.92,-0.27,-1.17,-1.12
1.06,0.7,-0.24,-0.74,0.85,0.08,-1.72,0.14,-2.41,-0.66,-0.98,-0.29
0.77,-0.77,-0.21,-1.58,-0.3,0.05,-1.41,1.38,-1.39,-0.78,-0.97,-0.04
0.2,-0.76,0.85,-1.11,0.12,0.19,-1.28,0.55,-1.12,0.61,0.33,-0.66
0.52,-0.06,0.28,0.43,1.58,0.71,-0.34,0.65,-0.78,0.12,0.2,-0.61
1.1,0.68,-0.01,0.16,0.8,0.72,-1.31,1.05,-0.13,-2.74,-1.61,-2.31
0.93,0.4,0.21,-0.83,-0.05,0.65,-1.45,0.85,0.81,-1.79,0.78,-0.91
0.48,0.04,0.44,-0.72,-1.01,0.3,-0.56,0.83,1.83,-0.89,0.1,-1.18
0.51,-0.21,0.57,-0.7,-0.79,1.35,0.22,1.7,1.21,-0.15,1.06,-1.16
0.41,-0.7,0.31,-0.53,0.09,1.5,-0.4,0.7,1.94,-0.42,0.49,-0.46
0.6,-0.29,0.96,-0.13,-1.46,0.72,-0.33,0.89,-0.28,-0.99,-0.03,-0.18
0.96,1.44,1.39,-0.28,0.16,1.04,-1.07,0.57,-0.51,-0.99,0.34,-0.59
0.61,-0.22,0.71,-0.62,-0.73,0.62,-0.25,2.03,-1.26,-1.45,-0.55,-1.45
1.25,1.28,1.05,-0.42,-0.45,0.11,-0.3,1.57,-0.44,-0.01,0.72,0.38
1.6,2.3,1.2,0.54,-0.35,0.23,-0.17,1.34,-0.19,1.67,1.05,0.11
0.71,0.66,0.29,-0.25,-0.41,1.44,0.45,0.48,-0.33,-0.14,1.32,0.37
0.69,-0.1,0.81,0.18,-0.68,1.58,-0.24,-0.02,0.5,-0.68,1.94,-0.03
0.58,-0.78,-0.05,0.31,-1,0.3,0.08,0.16,1.1,0.21,0.78,0.28
0.66,-0.6,-0.26,-0.13,-0.66,1.27,0.67,-0.28,1.66,-0.61,0.02,0.19
0.55,0.39,0.05,0.92,0.03,1.11,1.3,-0.26,1.72,-0.66,-0.66,0.59
0.32,-0.89,-0.09,-0.06,0.14,1.2,0.98,0.59,0.58,0.08,0.14,0.7
0.72,0.94,0.25,0.01,-0.6,0.36,1.31,-0.38,-0.21,-1.33,-2.05,0.35
0.1,-0.93,0.41,1.05,0.51,1.53,0.82,-1.27,0.29,0.04,-1.31,0.12
0.16,-0.46,0.1,0.55,0.19,0.83,1.05,-0.12,1.29,-0.73,-1.58,0.45
0.1,0.06,0.64,0.81,0.93,1.39,0.19,-0.25,0.5,-0.15,-1.35,-0.71
1.12,2.16,1.56,0.99,0.02,0.92,0.32,2.08,0.85,-0.24,-1.02,-0.4
0.36,0.09,0.59,0.21,1.34,1.5,0.27,0.96,0.13,-0.66,-1.03,-0.73
-0.1,0.61,0.71,0.18,1.2,1.05,-0.3,0.49,-1.1,-0.62,-1.32,-0.87
0,-0.14,0.81,0.27,1.37,1.7,0.18,1.38,0.22,-0.25,-1.47,-1.27
0.21,0.66,1.29,0.41,0.75,1.21,0.05,0.64,-0.41,0.31,-0.71,0.72
0.19,0.22,1.46,0.71,1.13,1.89,-0.67,0.38,-0.4,0.84,-1.39,-1.06
0.55,0.42,0.99,1.06,0.48,1.31,-0.6,0.71,0.06,0.32,-0.4,-1.62
0.24,0.41,0.69,0.18,0.36,0.98,0.02,-0.65,0.11,0.07,-1.54,-0.34
-0.32,0.01,0.51,0.71,0.39,0.92,0.5,-1.26,-0.02,-0.49,-1.64,-0.4
-0.38,0.06,1.14,0.31,-0.25,0.67,-0.19,0.14,0.42,0.77,-0.38,-0.96
-0.18,-0.84,1.13,0.53,0.4,1.71,0.86,0.56,0.86,0.21,-0.2,0.03
-0.02,0.29,1.98,1.05,0.14,0.78,0.2,1.11,-0.25,-0.87,0.03,-0.51
0.04,0.16,1.72,0.46,0.18,1.53,-0.18,0.43,0.28,0.32,0.63,-0.43
-0.38,-0.95,1.67,1.97,0.62,1.07,0.08,1.16,-0.51,0.31,-0.04,-0.6
