"V1","V2","V3","V4","V5","V6","V7","V8","V9","V10","V11","V12"
-0.77,0.11,0.51,-0.65,-0.36,0.67,-0.78,-0.54,0.62,0.36,1.12,0.31
-0.45,0.13,0.33,-0.47,-0.74,0.52,0.03,-0.09,0.03,-0.1,-0.17,-0.65
-0.64,0.04,0.55,0.06,0.17,0.46,0.91,0.05,-0.12,-0.7,-0.57,-0.94
-0.18,0.73,0.62,-0.47,-1.28,0.49,0.48,0.21,0.42,-0.32,0.33,0.56
-0.43,0.47,1.31,0.16,-0.69,0.17,-0.13,-0.31,-0.99,-0.11,-0.07,0.09
-0.39,0.23,0.62,-0.11,0.2,1.35,0.39,-0.51,0.32,-0.9,-0.1,-0.41
-0.37,0,0.53,-0.55,-1.02,1.39,0.14,-0.53,0.18,0.01,0.95,1.01
-0.51,-0.41,0.93,0.2,-0.75,0.73,0.25,-0.48,0.63,0.8,0.06,0.13
-0.25,0.11,1.03,-0.18,-0.19,2.02,0.92,-0.62,-1.3,-0.97,-0.68,-1.15
2.68,-2.97,-0.95,0.5,-0.58,0.27,0.96,0.51,-0.58,1.18,-0.01,-1.27
-0.2,-0.37,0.15,-0.7,-0.54,1.27,0.05,-0.23,-1,-0.36,-0.01,-0.6
0.02,0.34,0.85,0.21,-1.24,1.04,0.1,-0.38,-0.48,0.82,1.96,-0.61
-0.24,0.14,0.57,-0.2,-1.19,0.97,-0.15,-1.29,-0.45,0.92,1.66,-0.02
0.03,0.63,0.79,-0.4,-0.99,0.7,-0.31,-0.19,0.21,0.58,-0.76,-2.34
-0.25,0.21,0.69,-0.49,-0.83,1.07,0.82,-0.62,-1.11,-0.15,-0.31,-0.4
-0.12,0.21,0.62,0.1,-1,-0.04,0.06,-0.58,-0.89,-0.38,-0.08,-1.26
-0.16,0.32,0.91,-0.13,-0.6,0.92,0.01,-0.53,-0.37,0.28,-0.35,-1.46
-0.17,0.21,0.48,-0.64,-0.76,0.96,-0.21,0.07,0.83,0.44,0.47,-0.25
-0.25,0.58,0.83,-0.37,-0.98,0.19,-0.62,-1.06,-0.37,0.21,0.77,-1.31
-0.7,0.04,0.62,-0.62,-0.47,1.25,1.18,0.03,-0.19,0.22,0.39,0.48
-0.89,-0.21,0.89,-0.29,-0.36,0.82,0.31,-0.53,-0.53,0.74,0.58,0.11
-0.77,0.05,0.83,-0.02,0.55,2.08,1.41,-0.79,-0.26,0.27,-0.02,0.36
-0.69,0.98,1.06,-0.31,-0.13,0.61,0.34,-0.72,0.16,1.06,-0.33,-0.45
-0.46,0.93,0.97,-0.75,-0.93,1.09,-0.11,-1.29,0.06,-0.2,1,-0.24
-0.81,0.27,0.93,-0.49,-0.6,0.36,0.44,-0.33,0.76,0.73,-0.03,-0.78
-0.61,0.78,0.79,-1.03,-1.18,-0.19,-0.5,-0.96,-0.32,-0.99,-0.08,0.18
-0.94,0.14,0.44,-1.41,-0.78,1.16,0.53,-0.85,-0.29,0.44,0.4,-0.26
-0.08,0.35,0.6,-0.35,-1.53,0.49,0.73,-0.82,-0.53,1.68,0.57,-1.26
0.69,-1.21,-0.82,1.46,0.2,-1.34,-0.7,1.19,-0.7,-0.24,1.13,0.09
0.81,-1.26,-1.62,1.4,0.67,-0.5,-0.22,2.31,1.19,-0.71,-0.32,0.97
0.51,-0.5,-1.24,1.31,0.8,-1.13,-2.48,0.95,1.56,-3.4,-2.58,2.24
0.36,-0.02,-1.41,0.28,2.11,-0.01,-2.38,-0.29,0.78,-0.71,-1.97,-0.69
0.28,0.64,-0.91,-0.19,1.71,0.16,-1.96,-1.12,0.55,0.16,0.07,0.72
-0.37,0.36,-0.32,-0.33,0.15,-0.53,-0.55,0.21,0.04,-1.13,0.16,1.2
-0.45,0.37,0.08,-0.57,0.64,-0.14,-1.07,0.38,0.76,0.12,0.69,0.94
-0.59,0.18,0.08,-0.99,-0.77,0.29,0.35,0.44,0.47,-1.15,-0.59,-1
-0.45,0.78,0.34,-1.22,-0.59,0.16,-0.08,0.13,1.15,-1.36,-1.41,0.33
-0.73,0.96,0.94,-0.17,-0.35,-0.11,0.16,-0.59,-0.15,-1.06,-1.17,0.08
-0.98,0.46,0.48,-1.08,-0.29,0.46,-0.47,-0.68,-0.04,-0.45,-0.19,-0.06
-0.69,1.1,0.96,0.06,0.28,0.41,-0.15,-1,-0.37,-0.99,-0.38,0.28
-0.96,0.47,0.9,-0.79,-0.63,0.32,0.26,-0.15,0.67,-0.03,0.3,0.49
-0.93,0.19,0.88,-1.2,-0.49,1.48,-0.02,-0.58,-0.29,-1.27,-0.21,-0.04
-1,0.07,0.77,-0.83,-0.37,0.67,-0.6,-0.91,1.51,0.47,0.61,0.91
-0.66,1.12,0.89,-1.26,-0.86,0.06,0.88,-0.2,-0.52,-0.76,-0.48,-0.46
-1.21,0.41,0.66,-1.45,-0.75,0.5,0.11,-1.07,0.46,0.33,-0.96,0.57
-0.81,0.85,0.73,-1.45,-0.79,0.13,-0.38,-0.82,0.16,-0.98,-0.64,0.11
-0.69,1.06,1.03,-0.87,-0.75,0.04,0.21,-0.44,-0.01,0.32,0.13,0.24
-1.09,0.04,0.76,-0.92,-0.75,-0.28,-0.58,-0.89,-0.52,0.91,0.69,0.34
-0.6,0.15,0.57,-0.65,-0.91,0.06,-0.05,-1.14,0.54,0.45,0.33,0.16
1.58,-1.79,-0.45,1.76,-2.42,-0.81,1.13,-0.14,-0.79,2.77,-1.65,-0.62
3.31,-3.63,-0.67,3.05,0.55,-1.99,0.65,1.35,-2.6,2.55,-0.62,-1.11
3.02,-2.73,-1.4,2.9,1.54,-2.56,1.19,3.54,-2.17,0.98,0.39,-0.55
2.77,-2.45,-2.33,2.34,1.26,-3.56,-1.6,3.3,-0.26,-1.81,-1.51,3.34
2.08,-1.54,-3.16,1.79,2.25,-2.06,-3.78,1.26,1.47,0.05,-0.66,2.58
1.64,0.58,-2.77,0.63,2.91,-1.16,-1.8,1.68,1.24,-0.13,-1.21,-1.26
0.8,0.57,-1.64,0.44,1.26,-1.5,-0.23,2.09,0.36,-1.57,-0.36,0.49
0.25,0.58,-1.16,0.48,1.96,-1.44,-0.28,0.71,-0.33,-0.55,0.56,0.69
0.4,0.6,-0.96,0.15,1.12,-0.41,0.58,0.92,0.79,-0.06,-0.13,-1.37
0.49,0.92,-0.05,0.22,0.33,-0.31,-0.75,0.34,0.37,-0.46,-0.37,0.29
-0.02,0.57,-0.46,-0.49,-0.66,-0.21,-0.48,-0.19,0.62,-0.81,0.09,-0.48
-0.21,0.46,0.24,0.45,0.96,-0.01,-0.25,0.27,0.21,-0.74,-0.19,-0.46
-0.28,0.97,0.34,-0.04,-0.17,-0.75,-0.24,-0.64,0.16,-0.55,-0.19,0.65
-0.74,0.52,0.51,-0.53,-0.65,-1.14,-0.33,-0.65,0.14,0.34,-0.74,0.46
-0.62,0.14,0.13,-0.4,0.41,0.46,0.28,-0.48,-1.21,-2.24,-0.23,0.42
-0.75,0.13,0.35,-0.07,0.96,1.27,0.99,0.08,0.83,-0.06,0.25,0.71
-0.22,1.16,0.36,-0.32,0.12,0.3,-0.38,-0.51,1.28,0.46,0.93,-0.84
-0.84,0.12,0.81,-0.48,-0.36,0.15,0.06,-0.46,0.52,-0.68,0.46,0.93
-0.89,0.51,0.42,-0.92,-1.01,-0.84,-0.69,-0.97,0.05,0.13,0.17,1.22
-0.7,0.85,0.52,-1.06,-0.54,0.94,1.07,0.44,1.31,0.78,0.9,0
-0.59,0.58,0.52,-0.5,-0.22,0.72,1.06,-0.87,-0.77,-0.38,0.48,0.19
-0.54,0.36,0.93,-0.21,0.25,1.39,0.86,-0.66,-0.16,-0.36,1.18,-0.1
-0.6,0.5,0.67,-0.85,-0.66,0.4,0.78,-0.67,-0.23,0.26,0.41,-1.12
-0.58,1.17,1,-0.69,-0.43,0.86,0.87,-0.36,0.32,0.15,0.78,0.16
-0.58,0.87,1.26,-0.19,0.26,0.89,0.43,-0.55,-0.31,0.6,0.35,-0.73
-0.74,0.64,0.45,-1.19,-0.76,1.34,2.08,-0.01,0.53,-0.57,-1.25,-0.5
-0.45,0.59,0.37,-0.71,-0.84,0.02,0.75,-0.61,0.23,0.86,0.75,-0.01
-0.98,0.13,0.65,-0.68,-0.57,0.35,0.33,-0.83,-0.35,-0.47,-0.09,0
-0.46,0.02,0.02,-0.26,-0.8,0.05,1.15,-0.39,-0.82,0.21,1.92,-0.12
-0.34,0.36,-0.24,0.48,-0.01,-0.54,1.61,0.25,-0.53,0.35,2.27,-0.39
-0.6,-0.51,-0.77,0.6,0.81,-0.62,1,0.47,-0.51,-0.58,0.97,0.52
-0.32,0.22,-0.57,0.48,1.03,-0.77,0.21,0.35,-0.29,-0.68,0.13,-0.02
-0.04,-0.18,-0.46,-0.26,0.37,-0.04,-0.12,-0.22,-0.82,-0.67,-0.86,-0.76
-0.1,0.46,0.33,-0.47,-0.61,0,0.13,-0.15,0.13,0.07,-0.33,0.06
2.32,-3.45,-0.14,1.88,-1.31,-0.19,0.19,-0.45,-1.22,1.64,-2.89,0.82
2.15,-3.97,-0.36,1.85,-0.91,-1.77,1.14,1.29,-3.35,0.44,1.91,1.41
2.26,-2.49,-2.35,3,1.68,-1.3,-2.13,1.72,-0.68,1.87,-0.58,0.47
1.66,-1.26,-2.27,1.67,1.88,-0.49,-1.96,1.47,0.88,-0.76,-3.13,2.66
0.43,-0.64,-1.81,1.14,1.48,-0.87,-0.78,0.81,1.21,0.81,-1.05,-0.23
0.06,0.03,-0.44,0.36,0.75,0.02,-0.71,0.78,1.86,-0.98,-0.84,0.94
-0.26,0.05,-0.36,0.24,-0.19,-1.1,-0.81,0.65,1.76,-1.21,-0.78,0.44
-0.38,0.29,-0.16,-0.46,0.27,0.41,0.05,0.58,0.54,-1.29,0.28,1.32
-0.5,0.32,0.1,-0.2,-0.32,-0.53,1.33,0.44,1.13,0.49,0.3,0.53
-0.48,0.06,0.07,-0.43,-0.04,-0.12,0.01,-0.31,0.59,0.51,0.6,1.4
-0.39,0.8,0.78,-0.31,-0.73,-0.91,-0.2,-0.44,-0.3,0.55,0.96,0.08
-0.37,0.75,0.45,-0.39,0.1,0.35,-0.02,-0.18,0.68,-0.69,-0.26,-0.23
-0.73,-0.17,-0.49,-1.17,-0.88,0.24,-0.13,-0.4,0.33,-0.82,0.75,-0.51
-0.89,0.32,1.12,-0.05,-0.43,-0.05,-0.15,0.05,0.86,-0.87,-0.18,-0.01
-0.89,0.06,0.86,-0.7,0.38,0.97,0.46,-0.37,0.52,0.4,-0.54,0.58
-0.72,0.41,0.15,-1.51,-0.33,0.29,0.91,-0.02,0.92,0.61,0.1,0.13
-0.7,0.68,0.99,-0.33,-0.32,0.4,0.32,-0.93,0.1,0.06,0.27,-0.07
-0.79,0.46,0.74,-0.7,-0.36,1.1,0.6,-0.47,0.29,-1.06,-0.97,-0.49
-0.6,0.65,1.02,-0.87,-1.12,0.39,0.01,-0.37,0.46,-0.5,-0.97,-0.93
-0.82,0.06,1.14,-0.59,0.04,0.82,0.46,0.22,0.38,-0.41,-0.54,0.31
-0.43,0.52,0.7,-0.39,0.05,0.67,0.27,-0.99,0.04,0.34,-0.55,-0.7
0.6,-0.1,-0.93,1,-0.72,-1.26,2.19,-0.25,-0.23,1.66,-1.06,-1.15
2.67,-2.74,-1.93,2.4,0.98,-1.55,2.36,1.53,0.07,3.16,-3.01,-0.61
2.29,-2.32,-0.56,2.85,0.55,-3.13,2.34,2.94,-5.29,1.78,3.73,-2.05
2.64,-1.71,-1.94,2.85,1.98,-2.91,-1.35,4.11,-0.63,-2.06,1.02,3.95
2.39,-0.99,-2.99,1.87,3.35,-2.21,-2.95,1.88,2.7,-0.51,-0.71,2.37
1.18,0.15,-2.28,0.29,2.1,-0.81,-1.77,1.38,0.23,-0.6,1.65,0.48
0.64,-0.23,-2.18,0.83,2.41,-0.53,-0.77,1.07,1.42,-0.14,0.81,-0.07
0.22,0.1,-1.64,0.51,1.25,-1.57,-1.86,0.7,0.95,-0.97,0.55,-0.54
0.43,0.07,-0.4,0.61,1.08,-0.25,-0.95,0.35,-0.81,-1.35,-0.47,0.21
0.27,0.67,-0.64,0.37,1.36,-0.06,-0.68,-0.25,1.2,1.14,1.17,0.41
-0.29,0,-0.57,-0.02,1.01,-0.01,0.37,-0.23,-0.45,-1.38,-0.85,-0.28
-0.26,0.01,-0.12,-0.14,0.57,0.2,0.14,-0.18,-0.01,0.11,-0.57,-0.32
0.33,-0.18,-0.35,0.18,0.05,0.19,-0.68,-0.36,-1.31,0.95,0.63,-2.06
0.26,-0.18,-0.63,0.24,0.3,0.64,1.16,-0.08,-1.83,-0.72,0.44,-2.2
-0.22,0.07,0.05,0.02,0.05,-0.2,-0.41,-0.44,-0.75,-0.03,1.59,-0.45
0.72,0.36,0.55,-0.63,-0.49,0.07,0.65,0.88,-0.84,0.61,-0.1,1.27
0.08,0.32,-0.08,-0.07,0.96,0.6,-1.06,-1.7,-0.46,1.55,0.29,-0.95
0.05,0.56,0.24,-0.57,-0.66,0.43,0.51,-0.79,0.04,0.77,0.01,0.03
-0.37,0.2,0.29,-0.9,-0.75,0.32,-0.08,-0.55,0.38,1.03,0.66,0.05
-0.09,0.79,0.83,-0.22,-0.42,0.17,0.38,-0.23,-0.05,0.57,-0.02,-0.84
-0.3,0.4,0.15,-0.61,-0.51,0.74,-1.04,-1.7,0.63,1.67,0.82,-1.1
-0.28,0.29,0.11,-0.75,-0.02,0.92,0.34,-0.66,-0.35,0.64,0.28,-1.36
1.12,-1.05,0.17,1.24,-1.19,-0.05,0.47,-0.52,-1.72,1.74,-1.3,0.03
