"V1","V2","V3","V4","V5","V6","V7","V8","V9","V10","V11","V12"
-0.15,0.08,-1.44,-0.76,0.49,-1.16,0.37,0.35,-0.36,0.84,-1.8,-0.84
0.13,-0.12,-1.85,0.75,0.1,-2.56,0.27,-0.15,-0.54,0.67,-1.74,-0.8
-0.48,-0.75,-2.09,0.25,1.3,-1.52,0.58,0.21,1.27,1.57,-2.55,-2.23
-0.77,-0.23,-1.24,0.7,2.15,-2.28,-0.28,-0.35,-0.13,0.77,-2.08,-1.53
-0.76,-0.55,-1.04,-0.27,0.54,-1.84,-0.73,-1,0.01,0.77,-1.96,-1.01
-1.06,-0.55,-1.21,0.56,2.08,-0.56,0.17,0.02,1.07,0.51,-1.66,0.44
0.78,-0.62,-1.29,0.68,1.01,-0.19,0.24,0.31,0.08,1.11,-0.65,-2.19
-0.34,-0.15,-1.33,0.11,0.86,-0.66,0.83,-0.29,-2.35,-1.29,-1.05,-2.49
0.44,0.12,-1.5,-0.28,0.93,-0.65,1.1,0.84,-2.03,-0.33,-0.11,-2.91
0.28,0.54,-1.57,0.11,0.07,-1.46,1.22,0.36,-1.73,1.29,1.03,-2.56
0.8,-1.92,-2.65,0.78,-1.16,-1.3,1.79,0.74,-0.9,0.82,1.5,-1.61
1.18,-0.11,-1.85,-0.2,-0.47,-0.16,2.65,-0.82,-2.82,0.54,1.45,-1.72
1.38,-0.96,-2.46,0.06,-1.59,-0.06,2.4,0.04,-1.37,1.2,1.69,-0.93
-0.44,-1.88,-2.38,-1.04,-2.39,-1.98,1.86,-0.15,-0.63,0.67,-0.29,-1.73
0.04,-0.64,-2.48,-1.05,-1,-1.32,1.98,1.4,-0.15,1.26,0.65,-1.31
0.85,-0.47,-1.82,-0.39,-0.81,-1.75,0.57,-0.32,-0.41,1.69,0.2,-1.88
0.75,-1.39,-1.5,-0.36,-0.29,0.22,0.47,0.2,-1.12,0.76,0.51,-1.06
0.15,-2.25,-1.01,0.15,-0.85,0.61,1.5,1.49,-1.83,0.15,-0.45,-2.57
0.7,-0.36,-1.03,0.09,0.45,-0.49,-0.82,0.92,-0.08,1.16,-0.48,-2.31
0.16,-0.44,-0.89,0.43,-0.31,0.24,0.07,-0.92,-1.07,0.54,1.35,-1.55
-0.63,-0.44,-1.04,-0.79,-0.49,-1.02,1.45,0.91,-0.36,1.77,1.22,-0.63
1.24,-0.74,-0.41,-0.29,-1.22,0.29,0.12,-0.15,-1.02,1.09,2.08,-0.96
-0.27,-0.67,-0.4,-0.36,-1.29,0,1.25,-0.26,-2.14,-0.94,0.31,-1.14
-0.1,-0.15,-0.71,-0.79,-0.5,-0.13,1.49,0.5,0.21,0.39,-0.37,-1.27
0.18,-0.59,0.75,-0.46,-0.33,0.26,1.37,1.59,-0.88,1.77,0.95,-0.89
-1.53,-1.3,0.61,-0.47,-1.42,-0.02,-0.34,-1.69,-1.28,-0.57,0.91,-0.21
-0.2,-1.03,-0.51,0.09,-0.4,-0.07,-1.17,-0.58,-0.69,-2.56,0.02,-0.41
1.65,-2.2,-0.83,0.25,-1.29,0.44,-0.84,-0.06,0.32,0.97,0.67,-0.24
-0.56,-1.06,-0.66,-0.27,0.35,0.29,-0.96,-0.78,0.28,-0.18,0.05,-0.26
2.65,-3.22,-0.65,1.77,-1.57,-0.33,-1.55,1.37,1.49,1.27,-0.01,-0.74
0.3,-0.9,-0.58,0.18,-0.29,0.45,-1.61,-1.92,0.34,-0.07,0.91,0.17
-0.79,-0.25,0.36,0.01,0.38,0.28,-1.1,-1.05,-1.19,-1.04,-0.23,0.01
-1.68,-0.42,0.44,-0.53,0.54,-0.14,-0.96,-0.91,0.38,-0.12,0.09,-0.37
-1.8,0.38,0.4,-0.94,0.17,-1.19,-1.16,-0.97,0.32,0.47,-0.22,-0.24
0.02,-0.95,0.36,1,-0.6,-0.47,-1.6,-1.01,1.88,-0.75,-0.58,-0.15
0.55,-0.53,-0.32,-0.32,0.79,-0.77,-1.89,0.92,1.3,-0.59,-0.14,0.4
-0.94,0.23,-0.18,0.65,1.57,0.2,-1.02,-0.75,1.14,-0.19,0.06,0.67
-1.19,0.53,0.02,-0.83,0.54,-0.64,-0.12,-0.93,-0.03,0.25,0.99,0.91
-2.37,-0.65,-0.48,-1.05,0.45,-0.9,-0.02,-0.14,0.72,1.26,0.82,-0.1
-0.93,-0.88,-1.37,-1.18,-1.44,-0.68,0.97,-1.37,-0.57,1.17,2.13,0.39
1.07,0.37,-0.67,0.39,0.72,-0.79,-0.51,-0.05,0.71,0.04,1.62,1.53
-0.09,0.84,-0.75,-0.77,0.06,-0.17,1.44,0.4,-0.18,0.2,1.19,0.05
-1.06,0.05,-1.03,-2.12,-0.9,-1.2,0.7,0.9,-0.24,-0.24,0.91,0.29
-0.01,0.03,-0.48,-0.47,-1.86,-1.51,2.21,2.3,-0.08,-0.69,0.46,0.01
-0.5,0.49,0.5,-0.04,-0.31,-0.78,1.07,2.11,0.33,-0.91,0.22,0.43
-0.3,-0.84,0.47,0.45,-0.27,-0.02,0.64,2,-0.92,-1.16,1.37,1.1
-1.43,-1.61,0.04,-0.17,-1.36,-1.74,-0.77,0.87,-1.6,-1.2,-0.65,-0.96
0.19,-2.04,0.22,1.76,-1.27,-1.54,0.83,0,-0.25,0.05,-1.01,0.74
-1.56,-0.31,1.19,0.44,-0.41,-0.92,0.22,0.12,-0.29,0.7,1.32,1.07
-2.08,-0.58,0.94,-1.24,-2.39,-2.18,0.45,-0.61,-1.09,-1.9,-1.16,-0.08
-1.16,-0.22,0.67,0.36,-0.43,-0.4,1.43,1.68,-0.66,-1.67,0.19,0.54
-0.99,0.32,0.84,-0.76,-2.35,-0.52,0.17,-0.89,-0.18,0.72,0.65,0.7
-2.29,-0.8,0.53,-1.44,-1.36,-0.86,-0.9,-0.12,-0.01,-1.96,1.42,0.76
-1.58,-0.33,0.17,-0.56,-0.64,0.47,0.27,0.62,1.25,1.41,3.05,1.28
-1.56,-0.31,0.33,-0.31,-0.07,0.09,0.05,1.09,2.06,1.31,1.5,0.96
-1.72,-0.46,0.28,-1.29,-2.12,-0.83,0.4,-0.02,-0.13,-0.24,1.04,0.3
-0.25,0.59,0.18,-0.48,0.72,0.91,-0.62,-1.64,-0.4,1.02,0.1,0.87
-0.33,0.33,-1.16,-1.77,0.82,0.32,0.27,-1.06,-1.71,-1.78,0.02,0.15
0.27,0.44,-1.26,-1.28,1.13,1.79,-0.11,-1.86,-1.15,-0.11,0.37,0.72
0.06,1.45,-1.09,-2.99,-0.63,-0.26,-0.64,-1.3,0.02,0.06,1.02,1.2
0.05,0.58,-1.28,-2.19,-0.06,0.76,0.25,-0.88,-0.82,-0.79,-0.12,0.58
0.14,1.65,-0.02,-1.32,1.05,1,0.85,-0.82,-0.72,-0.93,0.67,1.51
0.32,1.2,-0.82,-2.12,-0.47,0.86,-0.24,-1.1,-0.89,-1.25,-0.31,0.77
1.48,2.24,0,-2.05,-1.11,0.73,1.12,-0.3,-2.18,-2.33,0.04,0.76
1.86,1.78,-0.04,-0.25,0.82,1.65,1.22,0.81,-0.23,-1.59,-1.49,0.27
0.51,1.57,-0.37,-1.24,0.77,0.47,-0.46,-1.39,-0.21,-0.92,-0.06,0.64
1.54,1.7,0.91,-0.83,1.02,1.26,-0.53,-0.76,-1.97,-1.39,-1.48,0.7
2.18,0.33,1.34,-0.71,-0.73,2.04,-1.07,-0.1,-1.02,0.6,-1.01,-0.06
1.39,1.16,1.11,-0.12,-0.78,1.95,-0.24,-1.56,-1.52,-1.18,0.22,-0.15
1.19,1.99,1.71,1.11,1,1.86,-0.25,-1.24,-1.04,-1.13,0.51,0.39
0.32,1.72,0.06,-0.59,0.59,-0.34,-1.17,-0.32,0.81,-0.74,-0.34,0.75
0.12,-0.07,-0.24,0.52,-0.28,-0.57,0.32,-0.62,-0.18,0.4,-0.01,-0.4
-0.14,0.33,0.6,1.92,1.02,-0.09,0.35,0.13,0.14,0.24,-0.74,1.02
0.71,1.09,0.56,1.39,-1.13,-1.29,0.82,0.14,-0.64,-2.77,-0.42,0.35
0.03,1.08,1.24,1.28,0.36,-0.64,-0.09,1.54,1.57,0.59,-0.1,-0.17
0.59,-0.44,0.91,0.44,-0.07,-0.07,-0.48,1.78,1.12,-0.22,-1.04,0.25
-1.49,-0.29,0.74,0.55,0.31,-1.48,-0.28,1.46,0.83,-0.9,-0.26,1.18
0.11,1.01,1.43,1.76,1.28,-0.13,-0.16,1.47,0.98,-0.21,-0.63,1.09
-0.26,0.4,1.29,1.07,0.57,-0.64,0.11,-0.02,-0.01,-0.01,-0.89,0.21
-0.35,0.85,0.89,0.59,0.25,-1.15,-0.04,0.11,-0.09,-0.8,-0.21,1.16
2.03,1.25,1.5,0.99,-0.72,-0.29,-0.21,1.74,0.73,0.33,-0.85,1.52
-0.17,-0.07,0.19,0.48,0.53,-0.68,-0.93,-1.42,-0.5,-0.87,-0.61,0.99
-0.28,0.61,0.83,0.53,0.72,0.44,-0.24,-0.47,0.31,0.58,1.34,0.78
0.82,1.11,1.1,0.9,-0.09,-0.19,-1.35,-0.64,1.22,0.99,0.43,0.28
1.18,-0.49,0.33,0.76,-0.37,-0.42,-1.72,0.1,0.91,-0.86,-0.3,1.31
1.58,-0.32,0.6,0.99,0.5,0.94,-0.98,0.57,-0.36,0.37,0.84,0.69
-0.2,0.53,1.03,0.62,0.6,-0.24,-1.2,0.62,0.54,-0.42,-0.43,-0.33
1.56,-0.93,0.51,0.86,0.88,0.82,-3.39,0.28,-0.06,1.33,0.22,1.66
0.72,-0.81,1.33,-0.31,0.13,1.85,-1.21,1.62,-0.64,1.35,-1.01,0.68
0.48,-1.09,0.68,-0.06,-1.37,0.55,-1.3,0.48,0.26,-0.67,-0.55,0.92
0.35,0.96,0.56,0.35,0.48,-0.14,-0.12,0.72,1.45,-0.61,-1.14,0.28
-0.54,0.64,0.28,-0.58,1.34,1.02,-0.38,-0.45,1.66,0.71,-0.73,-0.02
-1.18,0.91,0.51,-1.59,0.57,0.19,0,-0.53,-0.52,-1.24,-1.97,-0.23
-1.61,0.39,0.86,0.21,2.38,1.3,0.41,0.99,1.04,0.42,0.41,1.07
-0.65,0.04,-0.29,0.3,1.03,-0.78,0.35,0.25,0.27,-0.92,-0.59,-0.18
-0.22,0.91,0.29,-0.26,0.59,-0.08,0.24,-0.38,-0.29,-0.36,-0.94,-0.03
-0.74,1.52,0.26,-1.73,1.63,0.78,-0.28,-1.82,0.89,1.03,-0.46,-0.23
-1.2,1.23,-0.08,-2.08,0.39,0.06,-1.61,-1.73,0.47,0.14,-1.7,-0.79
-1.04,0.6,0.12,-1.52,0.6,1.23,0.21,0.65,1.74,1.06,-1.07,-1.58
-0.94,1.31,0.23,-1.3,0.83,0.86,-0.97,-1.04,0.7,0.05,-0.77,0.33
1.28,-0.15,0.83,0.45,0.41,1.4,-1.07,1.45,-0.08,1.53,-0.41,-1.09
-0.52,-0.19,2.04,1.49,0.25,-0.01,-1.1,1.78,0.58,0.42,-1.98,-0.6
0.85,0.27,0.28,2.12,0.5,0.4,0.5,1.06,2.29,0.19,0.62,0.62
0.53,0.69,0.87,0.94,0.35,0.34,-1.15,-0.21,0.57,-0.24,-0.8,0.11
0.34,-0.39,0.33,0.64,0.44,1.31,-0.62,1.27,1.06,0.28,0.28,0.55
-0.15,1.26,0.62,-0.41,0.16,-0.58,-1.04,-0.58,0.65,1.18,0.7,-0.2
0.16,1.4,0.57,0.23,1.18,-0.23,-0.08,-0.14,0.74,0.96,0.1,0.11
-0.31,1.44,-0.18,-0.41,1.67,0.76,-0.01,-1.13,0.66,0.56,-0.07,-0.11
0.17,0.59,-0.32,-0.49,1.43,0.96,-0.53,-1.62,-0.5,-0.81,-0.33,0.55
1.08,0.62,1.33,1.88,-0.24,0.95,0.28,0.93,0.47,-0.03,0.66,0.37
0.42,-0.19,0.83,1.05,0.12,1.01,0.33,-1.23,1.16,0.28,-0.27,1.14
-0.04,-1.32,0.65,0.32,-2.2,0.28,0.68,-0.07,0.1,-1.57,-1.14,-0.11
2.51,-1.24,1.39,1.34,-2.09,2.26,-1.91,1.9,0.29,0.53,1.66,1.12
0.93,-0.61,0.23,1.5,0.23,1.86,1,0.28,0.11,-2.04,-0.19,0.67
1.63,-0.49,-0.01,0.83,-0.49,0.84,-0.25,0.13,0.54,-0.16,-0.27,0.78
-1.02,-2.61,-0.37,0.69,-0.52,1.01,0.1,-0.57,1.46,-0.02,-0.64,1
0.57,-0.31,1.61,1.24,-0.87,1.37,0.68,0.47,0.26,-0.12,0.34,1.39
-0.01,0.12,1.53,1.4,0.07,0.52,-0.46,-1.12,0.68,0.33,1.12,1.2
-0.02,-0.29,0.52,0.31,-1.41,-0.42,-0.6,-0.87,0.36,-0.54,-1.34,-0.81
0.29,0.74,0.51,0.21,0.36,0.7,0.71,-0.5,0.12,0.45,1.09,0.68
-0.73,-0.34,1.26,1.45,0.92,0.73,0.74,0.92,1.44,0.98,0.44,0.38
-0.01,-0.63,0.18,0.12,-0.09,0.84,0.62,-0.03,0.1,-0.7,-1.03,0.11
-0.1,0.42,0.46,0.89,-0.11,0.63,0.27,-0.33,1.78,0.84,0.65,0.01
-0.36,1.25,0.88,0.49,0.48,0.95,1.18,-0.13,0.47,0.67,0.78,-0.07
-0.78,0.15,0.18,-0.68,0.75,0.05,-0.7,-1.39,-0.17,-0.04,-0.27,-0.75
0.06,1.68,1.15,0.92,1.33,1.78,1.03,1.04,0.99,0.16,1.19,0.51
1.06,0.01,-0.34,0.98,0.2,0.01,0.88,0.65,-0.45,-1.9,-0.2,0.66
