"V1","V2","V3","V4","V5","V6","V7","V8","V9","V10","V11","V12"
-1.15,0.37,1.53,0.04,0.78,0.78,0.46,-0.37,-1.69,-1.49,-0.28,0.74
-0.91,0.1,1.22,-0.4,1.08,1.24,0.48,-0.08,-0.69,-0.39,-0.47,-0.69
-0.8,0.53,1.2,-0.69,0.3,1,0.1,-0.13,-0.72,-1.12,-0.28,-0.35
-0.4,-1.13,-0.08,0.51,-1.1,-1.41,1.66,0.6,0.42,0.82,1.87,2.21
-0.64,-0.36,0.77,-0.08,0.73,-0.03,-0.22,-0.47,-0.65,-0.59,-0.19,0.14
0.76,0.08,-2.09,-0.6,-0.3,-0.42,0.33,0.3,0.9,0.35,-0.23,-0.11
1.43,-0.7,-3.04,-0.56,-0.98,-0.58,0.43,-1,-0.08,0.07,-0.6,1.33
0.48,-1.64,-2.13,0.31,0.2,-1.16,1.1,-0.1,-1.78,0.1,-0.72,-0.72
0.61,-0.94,-2.16,1.06,-0.8,-1.93,1.61,-0.07,-1.41,-0.53,0.69,0.69
0.16,-0.06,-0.84,-0.71,-0.68,-0.36,1.88,1.08,-0.21,0.08,1.18,1.05
0.3,-0.34,-1.43,-1.26,-0.19,-0.59,0.18,0.46,-0.13,0.6,1.65,1.38
0.19,-0.4,-0.62,0.97,1.08,0.13,0.68,-0.35,0.87,-0.26,-1.41,0.64
0.03,-0.7,-0.54,0.27,-0.2,0.24,0.97,1.22,1.18,1.11,-0.01,0.07
0.36,0.34,-1.13,-0.39,0.66,0.3,0.54,1.7,1.44,0.74,1.63,0.29
0.1,-0.33,-1.02,1.17,1.65,1.69,2.8,1.67,0.58,0.59,0.63,1.21
0.25,-0.13,-1.11,-0.6,-0.43,1.08,1.37,1.03,-0.24,0.67,1.06,0.31
0.54,0.58,0.01,-0.35,-1.18,0.61,0.66,-0.41,0.07,0.38,-0.75,-0.92
0.37,0.29,-0.05,0.66,0.18,0.68,-0.26,-2.33,-1.94,-0.24,1.64,1.45
0.66,0.32,-0.92,0.09,0.01,-0.18,-0.17,-0.53,-0.99,0.27,0.22,0.02
0.47,0.3,0.29,2.02,1.5,-1.06,-1.17,-1.52,-0.35,-0.28,0.14,-0.75
0.37,-0.25,-0.46,-0.11,0.46,0.4,0.2,-0.18,-1.11,-0.38,1.53,1.24
0.42,0.08,-0.26,-0.35,0.78,0.53,-0.55,-0.55,-0.95,0.02,-0.68,-0.89
0.21,-0.97,-1.05,-0.41,0.93,0.53,-0.36,-0.34,0.57,1.21,-0.99,-1.2
0.49,-0.62,-0.69,0.92,0.63,0.83,-0.75,-0.54,0.76,1.72,0.47,-1.24
0.71,-0.52,-0.86,1.35,1.27,0.25,-0.69,0.08,0.54,1.34,-0.01,-0.07
0.98,0.08,-1.03,0.06,-0.85,-0.12,-0.51,0.14,0.26,0.37,0.91,2.54
0.82,0.67,-0.7,-0.76,-1.45,-0.52,-0.83,-1.48,-1.17,-1.49,-0.59,1.45
0.74,0.42,-0.51,-0.19,-0.95,-0.63,-0.5,0.35,0.24,-0.24,0.18,1
0.79,0.34,-0.34,-0.6,-0.66,-0.73,-1.58,-0.03,-0.7,-0.27,0.53,0.12
0.44,-0.28,-0.23,0.94,-0.01,-0.08,-0.74,-0.89,-0.36,-0.35,0.02,0.52
0.53,-1.27,-1,0.54,0.38,1.47,0.04,-1.65,-0.97,0.03,-0.27,-0.89
0.46,-0.32,-0.51,1.07,1.92,2.24,0.38,0.16,0.1,-0.03,0.76,-0.16
0.36,0.53,0.32,1.68,0.13,-1.07,-0.64,-0.02,1.84,0.81,0.78,-0.58
0.55,0.3,0.37,2.32,0.31,-0.9,0.27,-0.14,1.39,0.63,-1.12,-1.13
0.54,-0.49,-0.12,0.75,0.33,-0.4,-0.53,0.52,1.28,1.24,0.29,-2.47
0.18,-0.69,-0.57,0.78,0.62,-0.13,0.54,0.31,0.97,1.64,1.43,-0.29
0.27,-1.28,-0.98,0.44,0.59,-0.73,-0.81,-1.13,0.99,0.92,0.52,0.51
0.06,-1.01,-0.94,1.57,1.3,-0.42,-0.19,-0.29,1.05,1.16,0.14,-0.87
0.09,-0.6,-0.49,1.4,1.82,1.24,0.28,-0.16,1.11,0.59,-0.68,-1.14
0.17,-1.05,-0.84,0.18,-0.99,-1.8,-1.21,-0.81,0.54,1.19,-0.59,-1.56
0.25,-1.3,-0.59,2.23,0.56,-0.87,-0.23,-0.8,-0.34,0.54,0.71,-0.2
0.33,-0.9,-0.9,0.69,-0.03,-0.79,-0.22,0.81,0.44,0.22,1.24,0.51
0.23,-1.5,-0.65,1.45,0.27,-0.88,-0.32,-0.23,1.01,1.16,1.52,0.99
-0.01,-1.41,-1.21,2.37,2.49,-0.06,0.14,-0.31,-0.63,-0.32,0.4,-0.49
0.34,-0.85,-1,1.68,0.34,-1.71,-1.45,-1.74,0.3,0.62,0.02,0.14
0.18,-0.73,-0.61,1.72,-0.01,-2.14,-1.93,-2.03,-0.36,0.11,-0.47,0.42
0.28,-1.05,-1.44,1.52,1.48,-0.22,-2.15,-2.87,-0.98,-0.01,0.37,1.03
0.24,-0.63,-0.66,1.29,0.52,-1.06,-0.87,-1.69,-1.62,-1.22,0.09,0.26
0.19,-1.15,-1.18,0.56,0.82,-1.29,-1.35,-2.19,-2.41,-1.91,-0.85,-0.9
0.02,-1.71,-1.31,0.34,-0.66,-1.77,-0.92,-1.51,-1.03,-0.51,-0.48,-0.89
0.35,0.39,0.09,0.37,-0.42,-1.16,-0.29,0.07,-0.03,-0.52,-0.18,-2.07
0.14,-0.89,-1.03,-0.69,-1.31,-1.15,-0.79,0.23,1.73,1.13,-0.23,-0.75
0.24,0.02,-0.5,0.4,0.45,0.25,0.65,0.35,0.07,0.69,-0.47,0.52
0.13,-0.97,-0.24,1.58,0.22,0.12,1.01,0.32,0,-1.23,-1.2,0.14
1.46,1.52,-0.99,-0.55,-3.05,-1.23,-1.74,-1.27,-0.54,-1.12,1.37,0.88
1.49,2.46,0.69,2.11,0.09,-0.33,-0.89,0.37,0.37,-2.54,-2.6,-0.87
1.52,2.66,0.27,0.66,-1.7,-1.53,-2.4,-2.75,-0.82,-0.56,0.26,0.02
2.03,2.54,-0.56,0.06,-1.17,-2.27,-2.89,-3.04,-0.97,-0.19,1.99,2.7
2.14,1.99,-1.16,1.39,-0.63,-0.96,-2.04,-1.5,-1.43,-1.98,-1.67,0.56
1.56,1.18,-0.73,1.36,-1.22,-1.92,-1.63,-1.55,-1.84,-0.9,0.92,1.71
2.49,1.67,-1.38,1.38,0.5,-0.52,-2.68,-0.89,-0.29,-1.68,-1.91,0.08
1.55,2.77,-0.37,0.92,-0.55,-1.11,-0.05,0.55,-0.21,-1.27,0.1,-0.98
2.49,-0.32,-0.62,-0.16,-1.89,-0.29,-1.29,0.08,-1.53,-0.86,-0.63,-0.15
2.83,0.42,-1.39,0.58,-1.39,1.75,-1.78,-0.83,0.24,1.19,1.19,-0.32
2.97,1.75,-1.17,0.26,-2.33,-0.1,-1.14,-0.68,-1.01,0.34,0.56,-1.4
2.25,1.89,-1.1,0.78,-1.58,-0.78,-0.91,0.61,-1.52,-1.65,-1.74,-1.27
1.66,1.94,-1.44,-1.15,-2.47,-0.57,-0.58,-0.24,-1.31,-0.76,-0.02,-0.63
1.24,2.19,-0.58,-0.45,-0.52,-0.13,-0.01,-0.76,-1.21,-1.37,-0.65,-1.17
1.09,2.65,-0.2,0.13,0.94,0.63,0.22,-0.67,-1.56,-1.31,-0.38,-0.23
1.15,1.8,0.14,-0.06,-2.04,0.17,1.09,0.77,-0.09,-0.53,-0.87,-0.82
0.73,0.8,-0.11,0.05,-0.51,-0.05,-0.75,-0.32,-1.05,-1.66,0.94,-0.47
0.26,1.02,-0.22,-1.31,-1.76,-0.03,0.98,0.96,-0.72,-1.42,-0.01,-1.3
-0.2,1.33,0.5,-1.19,0.3,0.69,0.51,0.78,0.1,0.3,-0.07,-0.74
-0.05,1.06,-0.18,-1.21,0.2,0.22,-0.32,0.75,0.31,0.65,0.34,-0.08
-0.25,0.54,0.84,-0.28,0.36,0.1,-0.99,-0.84,-0.9,-0.84,-0.84,0.56
0.46,-0.6,1.25,0.77,-1.48,1.83,-0.61,-0.08,-0.52,-1.69,-0.8,1.34
0.15,-0.26,0.39,0.58,0.05,2.63,0.58,0.91,0.52,-1.32,-0.95,-0.06
0.07,0.13,-0.48,-0.88,-0.45,1.36,-0.95,1.03,0.59,-1.43,1.4,1.24
-0.04,0.55,0.35,-1.64,-1.36,1.25,-0.01,-0.1,-0.41,-0.13,0.91,-0.4
0.02,-0.9,-0.31,-0.12,0.01,1.53,1.42,0.54,-0.05,0.18,-0.48,-0.6
-0.68,-0.93,-0.29,-0.64,-0.11,0.19,1.37,1,-0.26,-0.8,-0.88,0.33
-0.55,-0.01,1.08,-0.3,0.09,0.29,-0.33,0.89,-1.17,-1.84,-0.52,1.1
-0.76,0.46,0.91,-1.41,-0.45,0.88,1.12,0.51,-0.03,0.7,1.35,0.05
-0.84,-0.28,0.6,-1.23,0.38,0.59,0.5,1.15,0.38,1.98,0.72,-0.89
-0.7,0.59,1.28,-0.18,0.15,-0.67,-0.27,0.4,0.02,-0.11,-0.89,-2.74
-0.47,2.12,1.42,-0.74,0.48,-0.82,0.08,-0.11,-0.58,-1.04,-1.81,-0.51
-1.03,0.81,1.72,-0.9,0.52,0.71,0.97,0.68,0.1,0.74,0.21,-1.2
-0.86,0.4,0.75,-1.5,-0.25,-0.74,0.62,1.39,0.32,0.15,0.21,0.76
-1.28,-0.73,1.33,-0.24,-0.01,-0.04,0.6,-0.05,0.06,0.33,0.01,-0.65
-1.07,0.34,1.69,0.26,0.4,-0.31,0.46,1.57,0.7,-0.64,0.15,1.46
-1.35,-1.22,1.06,0.21,0.86,0.4,0.94,1.99,0.72,-0.29,-1.56,-0.03
-1.22,-0.2,1.81,-0.21,1.24,0.78,1.5,0.94,0.14,0.42,1.17,0.6
-1.04,0.06,1.23,-0.43,1.71,1.46,-0.05,0.25,-0.38,-0.39,-0.52,-0.68
-1.8,-1.49,0.4,-0.86,1.04,1.77,1.69,0.91,0.02,0.37,1.56,2
-1.19,0.02,1.8,0.23,1.14,1.31,1.03,0.72,0.3,0.61,1.62,-0.02
-1.34,-0.13,1.52,-0.65,-0.14,-1.43,-0.16,0.56,1.94,1.25,-0.91,-1.37
-1.02,0.15,0.69,-0.84,0.99,1.53,1.53,1.52,1.71,0.89,-0.8,-2.02
-1.37,-0.7,0.87,-0.02,1.19,1.9,1.45,1.45,3.07,2.97,2.55,0.76
-1.21,-0.68,0.76,-0.2,1.26,1.15,0.66,0.29,0.48,0.18,-0.32,-0.13
-1.31,-0.79,0.38,-0.37,1.14,0.21,0.05,0.62,1.54,0.44,-0.36,-1.04
-1.43,-0.88,1.53,-0.05,-0.07,-0.3,0.49,1.82,0.66,-0.1,-1.7,-0.48
-1.36,-0.74,1.01,-1.32,0.24,-0.01,0.73,0.58,0.54,0.8,0.26,1.82
-1.51,-1.64,0.37,-1.05,1.55,1.29,0.67,1.19,0.88,1.91,2.31,1.33
-1.47,-0.5,1.3,0.34,0.66,-0.58,0.76,1.07,-0.04,1.05,1.52,0.03
-0.9,-1.29,0.15,-1.69,-0.13,-0.64,-0.14,0.56,0.64,-0.14,1.61,0.27
-1,0.01,0.95,-1.38,-0.42,-0.4,0.43,0.6,0.23,0.31,-0.35,-0.53
-0.45,-0.24,0.18,-0.69,1.4,0.87,-0.7,-0.55,0.84,0.58,-0.76,-0.92
-0.37,0.59,0.09,-1.94,-1.12,0.42,0.69,1.01,1.06,0.22,-0.58,-0.65
-0.49,-0.16,-0.02,-1.03,-0.72,-0.6,0.01,0.71,1.05,0.85,-0.15,-0.37
-0.67,-0.68,0.32,-1.57,-1.41,-0.24,0.31,-0.57,-0.58,0.45,0.73,0.6
-0.62,-0.58,0.64,-0.91,-1.53,-0.87,-0.38,-1.07,-0.37,-0.38,-0.62,-0.52
-1,-0.62,1.23,0.83,0.32,0.56,0.36,-0.17,-0.4,-1.09,-1.25,-0.05
-1,-0.24,1.57,-0.04,0.16,0.52,0.09,-0.33,-0.47,0.61,0.21,0.95
-0.96,0.32,1.24,-0.44,-0.47,0.58,0.58,1.17,2.15,0.28,-1.19,-0.71
-1.16,-1.47,0.21,-0.13,-0.68,-1.03,-0.69,0.65,0.23,0.83,-0.42,0.88
-0.96,-0.46,0.47,-1.23,-0.51,-0.11,-0.57,0.03,2.24,1.7,1.25,2.14
-0.78,0.05,0.74,-1.36,-0.58,0.7,0.02,0.64,0.85,-0.86,-1.39,0.34
-0.83,0.17,0.65,-1.93,0.01,0.83,0.51,-1.05,-0.34,0.82,0.34,0.8
-0.95,0.17,0.52,-2.41,0.23,1.05,0.49,1.4,2.87,2.59,-0.05,-0.35
-0.79,-0.27,0.3,-0.8,-0.68,-1.12,0.2,0.05,-0.39,-0.85,-1.25,0.78
-0.86,0.44,1.49,-0.62,0.39,1.83,1.93,-0.51,-0.91,-1.04,-0.89,0.17
-0.9,0.09,1.41,-0.1,0.16,-0.56,0.59,1.16,0.4,-0.1,-0.88,-0.81
-1.21,0.44,1.69,0.6,1.33,0.03,0.66,0.09,-1.06,-1.39,-1.94,-0.77
-0.96,-0.08,1.3,-0.15,0.18,0.02,0.44,0.07,-0.51,0.14,0.82,0.04
-0.88,0.17,0.82,0.2,1.24,0.64,1.14,0.19,-0.49,-1.18,-0.33,0.58
-0.67,0.13,0.95,-0.6,0.1,-0.65,-0.72,0.62,-0.31,0.29,-0.68,0.34
-0.73,0.15,0.65,-1.11,-1.21,1.02,0.66,-0.32,0.91,0.64,-0.81,0.13
