"V1","V2","V3","V4","V5","V6","V7","V8","V9","V10","V11","V12"
-3.57,-3.24,0.7,1.45,-0.41,-0.01,-1.4,-0.99,-0.86,0.2,-1.1,0.09
-1.62,-1.3,1.55,2.2,1.64,-0.14,1.04,0.3,0.59,0,-1.05,-0.49
-1.03,-1.69,1.2,2.13,0.29,1.24,0.65,-1.42,-1.01,-1.11,-0.4,-1.38
-0.7,-0.89,1.27,1.11,-0.47,-1.72,0.55,0.49,0.8,0.36,-0.14,-0.14
-1.57,-1.16,1.19,0.2,0.89,-0.5,0.37,0.39,1.09,1.56,0.36,-0.64
-1.55,-0.7,0.71,0.11,1.03,-2.65,-2.07,-2.36,0.65,2.54,0.11,-0.48
-1.55,0.02,0.74,-1.56,1.25,-0.19,0.57,-0.95,-0.1,0.22,-0.3,-0.85
-1.08,-2.24,1.11,0.38,-1.54,0.44,-1.52,-0.81,-1.17,-0.13,-0.74,0.27
-0.99,-1.82,0.97,0.96,-0.19,-0.56,-0.24,-1.05,-0.19,1.37,0.31,-2.39
-1.87,-0.99,1.19,0.47,0.61,-0.62,1.7,1.03,0.78,-0.28,-1.74,-0.49
-1.34,-1.46,1.04,1.28,0.82,-0.78,0.52,-0.29,1.31,0.34,-0.95,-0.07
-1.31,0.29,1.04,-0.99,0.42,0.44,2.16,-0.04,0,1.95,1.17,0.31
-1.13,-1.86,0.88,0.2,1.48,0.64,0.18,-0.85,-0.7,-0.06,0.33,-0.49
-1.41,-1.31,0.73,0.62,1.74,-0.68,0.47,1.27,0.65,0.4,1.72,-1.14
-1.34,-0.77,1.56,1.39,0.3,-0.91,-0.43,-0.14,1.16,0.92,-2.35,-1.93
-1.67,-0.72,1.48,1.2,1.79,-0.48,0.93,0.48,1.01,0.26,0.28,0.52
-1.29,0,1.37,0.72,1.76,-1.07,1.95,2.53,0.81,0.43,-0.49,-2.29
-0.65,-0.54,0.56,0.93,0.79,-0.62,0.08,-0.34,0.32,-0.07,-0.44,-0.22
-0.91,0.27,2.03,1.33,-0.43,0.66,1.43,0.03,0.12,1.11,0.26,-1.24
-1.14,0.32,1.38,1.31,1.17,-0.27,0.5,0.11,-0.41,-0.55,0.21,-0.71
-0.86,-2.3,0.52,1.68,0.64,1.27,0.36,1.11,1.19,0.15,-1.15,-0.74
-0.85,-1.03,1.03,1.02,-1.27,-1.25,0.03,0.8,0.51,-0.2,-0.36,0.18
-1.18,-1.09,1.51,1.45,1.46,-0.98,0.69,1.07,-0.2,0.91,-0.83,-0.72
-1.16,-0.91,1.13,1.46,1.04,1,0.11,0.56,1.69,0.47,-1.01,0.67
-0.89,-0.97,1.5,1.08,-0.67,-0.51,1.42,0.92,-0.74,-0.26,-0.42,-0.34
-1.02,-0.21,1.01,1.15,2.35,0.28,-0.09,0.14,2.02,0.56,0.97,0.02
-1,0.02,1.09,-0.19,-0.02,-0.04,2.27,0.29,0.73,1.3,-0.36,0.9
-1.05,-2.09,0.72,1.23,-0.68,-0.44,0.08,0.74,0.35,-0.52,-0.6,0.02
-1.1,-0.66,0.91,-0.11,0.37,1.02,2.22,1.64,1.44,-1.71,-1.12,1.15
-1.22,-1.84,0.42,1.35,0.6,0.41,0.56,-0.11,1.93,-0.27,-1.6,1.46
-0.75,-2.25,1.55,2.54,0.38,1.35,-1,-1.72,0.44,0.82,-0.48,-0.83
-0.94,-1,1.42,0.92,0.12,0.13,-0.42,-0.76,0.73,0.05,-0.37,-0.43
-1.13,-0.64,1.25,1.47,2.35,2.63,0.09,1.42,0.15,-3.16,-0.21,0.7
-1.13,-1.25,0.71,0.69,1.58,1.1,-1.31,-1.42,0.75,-0.5,0.2,1.4
-0.58,-1.27,1.01,1.93,0.67,0.46,0.3,-0.52,-0.29,-0.17,0.1,0.56
-0.44,0.6,0.74,-0.38,0.27,-1.12,0.81,0,-0.65,-0.83,1,2.43
-0.4,0.03,1.11,-0.02,-0.87,-0.86,0.16,0.12,1.17,0.45,-0.81,1.19
-0.1,-0.46,1.33,0.85,-0.84,-1.37,-2.28,-0.74,-0.11,-0.06,-0.45,-0.29
-0.6,0.79,0.69,-0.06,0.3,-1.18,0.07,0.69,0.97,1.85,2.06,1.64
-0.94,-0.41,0.06,1.05,1.62,-0.68,-0.36,0.35,-0.68,-0.9,0.3,1.12
-0.76,-0.81,0.3,-0.58,0.27,-0.27,-0.95,-1.07,-1.06,-1.11,-1.49,-0.58
-0.81,-0.22,0.63,-1.63,1.01,1.95,0.29,-2.15,0.48,1.34,-0.51,-1.05
-0.46,-0.93,0.09,0.56,-0.16,-1.22,-1.38,0.88,0.3,-0.21,1.31,1.87
-0.57,0.16,0.54,0.09,-0.35,-2.45,-0.27,0.34,1.09,0.22,0.68,0.74
-0.37,0.05,1,0.26,0.96,0.08,0.08,0.22,-0.87,0,-0.74,-0.69
-0.71,-0.87,0.62,1.22,2.4,0.2,-0.84,0.7,0.3,0.08,-0.28,-0.3
-0.13,0.35,0.62,-0.81,0.35,-0.66,-1.71,0.2,-1.96,-2.67,-1.55,-1.35
-0.95,0.12,0.85,-0.39,1.08,-1.1,0.02,1.67,2.63,1.01,1.14,1.45
-0.19,0.13,0.02,0.17,0.44,-0.43,1.42,1.95,-0.51,1.21,1.34,-0.65
-0.27,-0.49,0.6,0.29,-0.49,0.23,-0.16,0.99,0.15,-1.34,-0.97,1.37
-0.11,0.72,0.72,-0.15,0.58,0.42,0.02,0.86,-1.2,-0.12,-0.85,0.01
-0.45,-0.14,0.43,0.81,0.6,-1.97,0,-0.2,-0.37,-0.92,-0.12,0.64
0.03,0.44,0.56,0.03,-0.53,-0.18,0.27,0.13,-1.31,-0.25,1.59,2.62
-0.38,-0.17,0.54,0.33,-0.2,0.17,1.1,2.31,0.03,-0.02,-0.51,-0.59
-0.19,0.17,0.41,-0.19,0,-0.08,-0.03,0.43,-0.23,-0.69,0.56,0.3
0.29,-0.2,0.45,-0.2,-1.84,-0.67,-0.57,0.9,0.34,-0.88,-0.34,0.21
0.08,0.36,0.73,0.63,-0.08,0.21,0.86,0.17,-0.95,-0.29,0.68,-0.47
-0.29,0.87,0.1,-0.88,0.56,-1.33,-0.66,-0.46,-1.01,0.24,1.77,1.23
0.1,-0.26,1.32,1.24,-0.7,0.41,-1.55,-1.24,-0.55,-1.04,-0.48,0.27
-0.34,-0.07,0.45,0.31,0.39,-0.46,0.35,-0.83,-1.15,0.11,0,-0.47
0.09,-0.43,-0.19,-1.28,-1.86,-0.52,0.22,0.15,-0.88,-0.97,-0.07,0.95
0.29,0.58,0.27,-0.73,-0.54,-0.23,-0.6,0.21,-1.1,-0.46,1.37,-0.66
0.3,-0.79,0.41,-0.56,-1.12,0.2,0.25,-1.5,-3.32,-1.41,0.26,1.28
-0.06,-0.36,-0.09,0.91,-0.08,-0.24,0.89,-0.73,-1.7,-0.75,1.22,0.94
-0.11,-0.3,0.02,-1.17,-1.2,0.03,-0.64,-1.42,0.24,-0.57,0.64,1.21
-0.03,1.99,-0.08,-0.03,0.54,-0.91,1.8,-0.21,0.36,0.87,0.09,1.31
-0.12,1.44,0.41,-0.87,0.2,-1.23,-0.85,-1.27,1.02,1.31,0.19,0.13
-0.08,-0.3,-0.11,0.48,-0.41,-0.52,0.92,-0.13,-0.34,0.81,0.16,-1.22
0.14,-0.6,0.05,-0.73,-1.01,0.27,-1.18,-1.58,-0.95,0.22,-0.21,0.13
0.24,-0.14,-0.49,-0.63,-0.87,0.97,0.24,-0.17,-0.73,-0.14,0.27,-0.69
0.21,1.25,0.09,-1.38,0,1.32,-0.82,-1.87,-0.28,-0.26,-1.24,0.35
0.09,0.25,-0.52,-0.5,-0.63,0.38,0.7,-0.79,0.44,1.39,-0.13,-0.57
0.32,-0.05,-0.62,0.84,0.9,0.23,-0.36,-0.66,-1.06,0.36,0.56,0.06
0.33,1.96,0.58,0.08,0.71,-0.97,-0.77,-0.44,0.69,0.47,-1.17,0.58
0.68,1.29,-0.56,-0.71,-0.46,-0.02,-0.19,-0.79,-0.56,1.17,0.49,-0.53
0.33,0.07,-0.27,-0.15,0.38,2.18,0.5,0.68,1.04,0.38,0.14,0.3
0.25,0.72,-0.33,-1.74,-1.7,-0.04,0.82,-0.09,-0.11,0.52,0.01,-1.34
0.16,0.63,-0.99,-1.6,0.24,0.56,1.79,2.2,1.51,1.2,1.82,2.07
0.63,0.59,0.14,0.11,-0.01,-0.03,-0.48,-1.3,-0.99,-0.05,-0.33,1.49
0.69,1.01,-0.67,-1.04,0.07,0.2,1.02,1.2,-1.31,-1.13,0.08,-0.26
-0.06,0.53,-0.91,-2.33,-0.96,0.72,0.24,0.06,-0.05,0.7,-0.83,0.33
0.44,-0.23,-0.91,-0.9,-1.63,-0.95,-0.84,-1.78,-0.73,-0.76,-0.42,0.95
0.29,1.01,-0.37,0.47,1.32,1.59,2.53,1.17,-0.22,0.16,0.19,0.09
0.52,0.12,-0.39,-0.91,-0.92,-0.06,-0.86,-1.09,-0.14,0.53,-1.58,-2.06
0.23,1.31,-0.9,-0.83,0.83,-0.63,0.33,1.35,-0.11,-1.21,-0.24,-0.33
0.45,0.59,-1.28,-1.17,0.13,-0.44,1.19,0.65,-0.92,0.04,-0.09,-0.04
0.29,-0.43,-0.45,-0.96,-1.67,1.23,0.26,-1.03,0.87,1.01,-0.2,2.65
0.63,0.39,-0.67,-1.51,-0.51,0.57,0.13,0.45,0.95,1.02,-0.63,-1.09
0.65,1.08,-0.51,0.24,1.57,-1.39,-0.6,1.49,-0.02,0.27,3.3,1.85
0.42,0.56,-0.3,0.14,1.54,0.92,-0.96,-2.26,-2.16,-1.4,-1.86,-1.3
0.22,0.65,-0.86,-1.37,0.13,1.15,0.63,-1.22,-0.11,0.71,0.25,0.54
0.74,-1,-1.3,-1.77,-1.15,0.45,-1.47,-0.56,-1.23,-0.38,0.03,0.68
1,1.5,-1.2,-1.23,-1.44,-2.06,-0.57,0.2,-1.35,0.47,1.06,-0.6
0.6,-0.02,-1.47,-0.6,-0.3,-1.47,0.01,-0.16,-1.9,-0.86,1.91,0.79
0.56,1.52,-0.73,-0.56,-0.07,-2.02,-0.81,-1.27,-0.83,-0.07,0.17,-0.13
0.82,0.37,-0.62,-0.95,-0.94,-0.55,-0.79,-1.5,-0.08,0.6,1.05,0.65
0.64,0.38,-0.97,-0.25,0.11,0.71,0.37,0.38,-0.01,0.48,-0.63,-0.67
0.83,-0.07,-1.11,0.31,-0.24,0.59,-0.09,-0.42,0.56,1.03,0.22,0.16
1.4,0.54,-0.94,-0.66,-0.47,0.43,-1.09,1.29,-1.1,-1.43,0.21,-0.82
0.8,1.09,-0.44,-0.22,-0.53,0.14,-0.43,-0.98,-0.36,-0.12,-1.38,-0.85
1.13,0.52,-1.44,-1.62,-1.19,-1.25,-1.99,0.56,1.35,0.32,-0.83,0.5
0.58,0.89,-1.26,0.39,1.79,0.47,1.42,0.33,-0.19,-0.14,0.55,0.03
1.18,-0.05,-1.4,-0.36,0.04,0.37,0.57,0.85,-0.41,-1.02,-2.5,-0.85
1.02,-0.3,-1.12,-0.46,-1.04,-0.07,-0.91,1.29,-0.37,-2.56,1.68,1.48
1.17,0.11,-1.59,-1.82,-0.75,-0.67,-2.57,-0.64,1.16,1,0.24,-0.38
1.27,0.62,-1.15,-0.89,-1.22,-0.4,-0.49,0.21,-1.44,-0.93,0.36,-1.97
1.3,-0.35,-1.6,-0.4,-1.3,0.94,-1.92,-0.61,-0.3,-0.97,0.14,-0.53
0.96,0.5,-1.06,-0.81,-0.67,0.19,-1.09,-0.25,-0.87,-0.31,0.67,-0.22
1.39,0.43,-1.25,0.52,-0.37,1.45,-0.79,-0.02,1.65,-1.57,-1.06,-1
1.21,0.53,-1.12,-0.81,-1.18,0.48,-0.11,1.11,0.85,1.1,2.73,-0.24
1.34,0.19,-1.17,0.75,-0.6,0.03,-1.17,0.97,3.37,3.09,1.05,0.23
1.01,-0.04,-0.68,0.79,-0.21,1.33,0.07,-0.77,-1.13,-2.37,-0.09,-0.76
1.49,-0.02,-1.73,-1.94,-1.48,1.38,-0.72,-0.33,0.58,0.21,0.11,-1.94
1.49,0.37,-1.49,-0.01,-1.07,0.37,0.36,0.98,1.3,0.23,-0.86,-0.59
1.6,1.06,-2.15,-1.04,-0.84,1.8,-0.16,1.15,0.57,0.03,1.69,-0.68
1.49,-0.33,-1.16,-0.01,-1.72,1.97,-0.69,0.71,0.83,-0.04,0.95,-0.41
1.43,0.08,-1.57,0.26,-2.04,0.52,2.4,0.58,0.53,0.43,-1.86,-0.41
1.76,1.38,-1.81,-0.66,-0.33,0.69,0.39,0.15,0.15,-0.96,-0.88,-0.46
1.31,1.02,-0.93,-0.2,0.79,2.78,-0.18,0.79,0.42,-0.72,1,-0.17
1.48,2.14,-1.69,-0.31,0.92,-0.07,-0.6,-0.32,0.59,-0.92,0.36,0.57
1.47,1.02,-1.21,1.06,-0.78,-1.12,1.03,-0.16,-0.46,1.48,0.57,-0.55
1.14,1.68,0.06,0.11,0.07,-0.52,-1.12,-0.11,-0.61,-1.5,-1,-0.26
1.53,1.89,-0.38,0.83,-1.21,-0.76,-0.47,-1.13,0.08,-1.41,-1.09,-0.99
1.39,1.64,-1.2,-0.81,1.06,1.69,1.09,-0.43,-0.85,0.72,-0.51,0.27
1.5,1.19,-1.55,-1.39,-0.14,0.85,0.23,1.21,0.06,0.4,1.21,-0.06
1.5,0.96,-1.43,-1.06,-0.4,0.56,-0.18,0.8,0.13,-0.33,0.77,1.68
1.6,1.7,-1.02,0.01,-0.69,0.15,-0.25,-0.94,-0.42,0.96,0.81,0.42
