"V1","V2","V3","V4","V5","V6","V7","V8","V9","V10","V11","V12"
-6.41,-3.24,0.94,2.32,0.46,1.97,0.41,1.18,0.5,-0.08,-1.38,0.07
-1.49,-2.45,-0.42,0.8,0.06,0.1,0.01,-0.3,-1.56,-1.38,-2.61,-1.39
-0.87,-1.17,-0.25,0.86,0.87,0.45,0.1,0.98,1.23,-0.16,-0.06,0.18
-0.87,-0.98,1.04,1.21,0.63,1.82,0.14,-0.5,0.25,-1.87,-1.04,1.37
-0.68,-0.54,1.49,1.21,0.52,1.55,1.62,0.99,0.12,-0.62,-0.02,-0.73
-0.59,-1,0.17,1.02,-0.11,0.31,0.78,1.11,2.43,0.86,0.12,-0.48
-0.63,0.16,1.24,-0.12,0.87,-0.5,-0.73,0.13,-0.11,-0.63,0.71,-0.26
-0.6,-0.24,2.02,0.96,-0.67,0.32,0.72,1.72,0.56,-0.49,-0.53,-1.47
-1.17,-0.37,1.68,0.08,0.19,-0.19,-1.71,0.29,1.25,1.22,0.23,0.73
-0.51,-0.87,0.82,0.14,-0.51,-0.94,-0.35,-0.68,-0.21,-0.86,-0.87,-0.59
-0.91,-0.18,0.59,0.59,0.2,-0.74,0.9,-0.3,0.01,0.21,-0.28,-0.24
-0.46,-0.56,0.31,0.98,0.69,-0.65,0.79,1.64,0.51,-0.26,-0.3,0.2
-1.82,-2.19,-0.6,-0.08,0.77,0,0.23,2.17,3.32,1.16,0.16,-0.63
-0.83,0.24,1.58,0.96,0.51,0.06,0.77,-0.24,1.17,1.14,2.46,0.89
-0.48,-1.57,-0.37,0.54,-1.11,-0.77,-0.15,-0.72,0.84,1.09,0.08,0.49
-0.38,-0.3,-0.04,1,0.33,0.25,1.1,1.06,0.7,1.24,0.93,-0.18
-0.58,-0.75,0.89,0.48,-0.11,-1.5,-0.44,1.19,0.99,1.98,0.46,-0.81
-0.68,-0.57,0.91,0.49,-1.23,-0.87,-0.5,0.24,1.51,0.78,0.45,0.38
-0.94,-1.02,-0.07,1.38,1.29,0.66,2.17,1.4,-0.08,-0.02,0.42,-0.18
-0.5,-1.13,0.45,1.25,-0.27,-1.72,-1.81,-1.44,-1.28,-0.72,0.55,1.59
-1.14,-1.07,1.39,1.21,1.95,0.76,1.05,0.67,-0.3,0.74,0.36,-0.6
-0.67,-1.05,0.67,1.31,0.2,-1.37,-0.37,0.67,0.48,0.05,0.04,-1.11
-0.68,0.12,-0.23,0.39,2,-0.59,0.55,0.93,0.15,-0.68,-0.65,-0.63
-1.01,-1.19,0.93,1.1,1.43,-0.47,-0.81,-0.1,0.38,1.31,0.08,-1.03
-0.68,-0.08,0.35,0.61,0.92,-0.38,0.05,0.1,0.2,-0.41,-1.61,0.6
-0.77,-1.41,0.37,1.62,0.62,-1.01,0.24,0.32,-0.89,0.71,-1.05,-1.31
-0.54,0.02,1.23,0.09,0.63,-1.03,-1.84,0.6,-0.46,-0.12,-1.18,-0.43
-0.51,-2.16,0.4,0.19,-0.47,0.04,-0.05,0.68,-0.23,-1.57,-3.51,-1.74
-0.36,-1.38,0.72,1.1,-0.08,-0.24,-0.76,-1.06,-1.95,-0.64,-0.43,-0.32
-0.84,0.27,0.72,1.25,2.76,0.18,-0.03,-0.39,-0.14,-0.75,-1.52,-1.42
-1.07,-0.83,0.6,0.99,0.03,-1.05,0.26,-0.43,0.66,0.22,-1.18,0.22
-0.73,-1.06,0.25,1.93,1.29,0.55,0.45,-0.4,-0.74,-1.61,0.62,0.47
-0.78,0.37,1.03,-0.5,-1.59,-1.3,1,0.03,1.03,1.12,-1.36,-1.37
-0.89,-1,0.75,1.89,1.73,-0.14,0.53,1.68,-0.69,-1.25,-0.59,-1.45
-0.43,-0.32,-0.14,0.55,0.55,-1.51,-0.31,-0.05,-0.38,-0.15,0.07,0.12
-0.46,-0.08,1.57,1.58,1.13,-0.9,-0.17,-0.32,0.16,-0.63,-0.29,1.23
-0.94,-0.31,1.79,0.1,-0.85,-0.06,-0.8,-0.11,0.94,0.88,-1,0.24
-0.17,0.29,1.17,-0.35,-0.44,-0.41,0.84,1.07,-0.14,-0.81,-0.51,-1.02
0.09,-1.2,-0.48,0.35,-0.5,-1.08,-2.39,-1.1,-0.9,-1.35,-1.81,-0.08
-0.7,-1.34,-0.2,1.23,0.35,-0.54,-1.31,-2.04,-1.01,1.12,1.21,-0.59
-0.97,-1.27,0.38,1.41,1.86,0.05,-0.25,-0.69,1.45,1.48,0.48,1.48
-0.21,-0.64,-0.2,1.11,-0.98,-0.94,-1.2,-0.57,-0.8,-0.38,0.42,0.06
-0.07,0.35,1.35,0.39,0.74,1.07,0.64,-1.19,-0.63,0.98,0.4,0.27
-0.44,-1.66,-0.63,1.07,1.75,0.03,0.49,1.68,0.51,0.09,0.49,0.4
-0.81,-0.89,1.26,1.47,-0.2,-1.01,-0.75,-0.42,-1.03,0.11,0.71,1.51
-0.3,-0.69,0.62,0.45,1.41,2.35,1.42,-0.52,0.84,-0.27,0.67,1.25
-0.28,-0.52,0.02,2.01,1.85,-0.15,0.69,1.79,-0.15,0.77,1.19,1.48
-0.98,-0.53,0.7,0.2,0.8,0.34,-1.49,0.24,1.71,-1.05,0.7,1.45
-0.62,-0.29,1.68,1.1,-0.89,-0.82,-0.32,-1.66,0.31,-0.28,0.37,0.19
-0.72,-0.44,1.2,1.14,-0.39,0.01,0.92,-0.54,0.03,-0.01,-0.93,-1.28
-0.36,0.33,1.28,0.94,1.53,-1.54,-2.14,-1.11,-2.02,-2.49,-0.5,0.43
-0.19,0.91,0.75,-0.11,1.75,0.07,1.1,0.77,0.68,-0.63,-0.36,-0.14
0.3,-0.93,0.11,0.96,-0.3,-0.94,-0.54,-1.68,-2.17,-0.67,1.14,0.84
0.01,0.4,0.5,0.37,0.14,-1.01,-1.71,0.74,-0.78,-2.89,0.37,1.96
-0.12,0.2,-0.12,-0.13,-0.51,-0.82,0.65,-0.77,-1.25,0.06,1.2,0.38
-0.17,0.39,0.69,1,1.29,-0.18,-0.02,0.23,0,1.36,1.09,-0.21
0.21,-0.87,-0.3,0.01,-0.71,-1,0.05,0.84,1.37,2.33,0.91,0.84
-0.22,-0.16,-0.05,-0.12,1,0.26,0.4,2.75,1.91,-0.27,0.74,0.44
-0.75,0.11,0.32,-0.3,1.69,0.49,1.01,3.14,1.04,-0.46,0.16,0.82
-0.2,-0.15,-0.06,0.05,0.78,0.23,-0.36,-0.15,-1.27,-0.52,0.32,0.21
-0.65,-0.5,0.28,0.4,0.04,-1.16,-1.01,0.59,0.18,-0.1,0.58,1.46
-0.37,-1.16,-0.46,0.04,0.54,-0.63,0.45,0.81,-0.24,0.21,-0.63,0.79
0.34,0.37,-0.15,-0.01,-0.18,0.74,1.19,0.35,-0.94,0.4,0.67,0.79
-0.04,-0.59,0.62,-0.35,-1.03,-0.36,-1.34,-0.53,-0.95,-0.69,-0.95,-0.47
-0.32,-0.54,0.21,0.37,0.38,-0.78,-2.23,0.78,1.08,-1.99,-1.01,-0.67
-0.71,0.09,1.76,0.4,0.13,-1.12,1.14,1.03,-0.42,-1.17,-0.2,1.28
-0.32,-0.77,-0.5,0.31,-0.3,-0.96,-1.11,0.16,-0.17,0.36,0.34,0.28
-0.53,0.67,0.38,-1.67,0.12,-0.41,0.07,0.35,0.86,1.32,1.72,1.37
-1.22,-0.59,-0.44,-0.42,0.13,-1.58,-0.28,-0.5,-0.2,1.37,1.22,1.08
-0.92,-0.31,0.84,0.18,1.13,-0.45,-0.79,-0.42,0.62,1.41,0.64,-0.47
0.23,1.38,1.01,0.09,0.45,-0.79,-0.38,0.29,-0.09,-0.57,-0.13,-1.09
-0.43,0.35,-0.1,-0.51,1.31,1.49,0.45,0.34,-0.72,-1.52,1.85,1.24
0.26,-1.07,0.72,1.27,0.54,0.11,-0.39,-0.28,-1.28,-1.84,-1.01,0.07
0.24,0.39,0.86,-0.69,-1.08,-0.45,-0.77,0.06,-1.88,-1.85,-0.07,0.93
0.94,-1.17,-0.4,0.42,-2.12,-1.23,0.17,0.76,-0.45,-0.6,0.36,1.31
0.25,0.46,0.75,-0.21,-0.57,-1.13,-0.8,0.5,-0.63,-0.61,-0.22,0.57
-0.02,1.29,1.76,0.02,0.04,-0.19,0.1,0.34,-1.07,-0.79,1.17,-0.08
0.7,0.3,0.9,-0.28,-2.22,0.47,0.28,0.19,-0.15,-1.87,-0.9,0.95
0.12,0.26,0.56,0.18,0.12,0.73,0.17,-0.34,-0.79,0.89,2.48,1.19
0.65,0.67,0.05,-0.64,-0.68,-0.69,-1.04,0.49,-0.47,0.8,-0.49,-0.04
0.44,1.31,-0.56,-1.52,-0.44,-0.96,-0.81,-0.15,-0.87,-0.12,1.7,0.91
0.21,1.16,-0.25,-0.66,0.75,-2.46,-2.08,-1.36,0.02,1.03,0.42,0.66
0.53,0.14,-0.66,-0.51,-0.92,1.37,1.75,0.56,1.25,0.71,-0.07,-0.18
0.58,0.92,-0.27,-0.74,-0.52,-0.29,-0.75,-2.17,-0.05,1.43,0.74,0.17
0.83,1.18,-0.03,-0.29,-0.84,-0.55,0.8,-0.48,1.38,0.2,-0.8,0.19
1.36,-0.26,-0.62,-0.93,-2.2,0.26,-0.8,-0.38,-0.16,0.47,1.59,-0.12
0.88,0.21,-0.02,-1.14,-1.63,1.63,-0.04,1.56,-0.14,0.23,0.64,1.28
0.49,1.64,-0.19,-0.81,-0.41,0.11,0.11,-0.86,-0.41,0.18,-1,-2.48
0.6,-0.71,-1.64,-0.27,-0.28,0.24,0.02,-0.2,-1.13,-0.47,-2.06,-2.4
1.33,0.61,0.51,-0.31,-2.22,-0.97,0.18,0.02,-1.35,-1.16,-0.03,-0.84
0.94,1.01,0.05,-0.81,-0.76,-0.76,-0.87,0.15,-0.38,-0.52,-1.21,0.72
1.01,1.41,-0.8,-0.46,0.52,0.14,-0.87,0.06,0.65,0.69,-0.81,-1.29
0.85,1.42,-0.3,-1.07,0.44,1.65,0.18,-0.16,-0.11,0.1,0.77,1
0.69,-0.43,-1.81,-1.18,-1.1,-0.16,-0.73,-0.56,-1.23,-0.98,-0.06,0.05
0.07,-0.56,-1.08,0.18,-0.65,-0.27,-0.4,-0.61,-0.04,-0.13,-0.58,0.79
0.79,-0.02,-0.76,-0.3,0.59,1.44,0.53,0.28,-1.25,-1.3,-1.69,-1.93
0.72,0.91,0.01,-0.88,-0.89,0.96,-0.09,1.2,2.43,0.58,-0.67,-2
0.03,1.1,-1.3,-1.25,0.3,0.28,1.17,-0.06,0.1,1.19,1.77,0.23
0.46,1.38,-1.24,-2.07,-1.13,-0.14,1.08,0.22,0.7,0.82,0.88,1.3
0.23,1.31,-0.19,-1.8,-1.03,-0.15,-0.36,-0.08,1.08,0.57,0,-0.88
1.19,0.45,-0.8,-0.66,-1.57,-0.38,-0.62,-1.23,-0.08,0.75,0.83,0.35
1.35,-0.44,-1.16,-0.1,-0.62,1.91,1.77,-1.4,-1.81,-1.39,-1.43,0.93
1.29,0.92,-0.11,-0.77,-2.03,1.17,-0.26,-1.72,0.56,0.5,-0.37,0.21
0.36,0.47,-2.39,-1.03,1.18,2.75,2.61,0.37,1.39,-0.76,-0.57,0.05
0.64,0.69,-0.31,-0.44,-0.57,0.73,-0.31,-1.12,-0.16,0.16,-1.4,0.36
1.11,1.02,-0.13,-1.34,-0.98,0.55,-1.11,-2,-1.2,0.27,1.66,-0.98
0.91,0.37,-1.01,-0.33,-1.09,-0.86,0.08,-1.08,0.43,2.43,0.45,-1.06
1.31,0.96,-0.02,-0.81,0.16,2.02,-1.03,-0.27,0.42,-0.06,0.16,-0.37
0.59,1.41,-1.62,-1.88,-0.64,-0.75,0.67,0.91,0.91,0.57,1.13,0.45
1.03,1.93,-1.38,-1.36,-0.38,-0.07,0.59,-1.81,-0.81,-0.63,1.75,1.72
1.91,0.97,-0.67,-0.56,-0.82,1.9,0.71,-0.68,-0.78,0.38,-0.62,-1.19
1.08,0.7,-1.04,0.17,0.56,1.17,-1.36,-1.6,1.93,1.93,0.53,-0.69
1.45,0.09,-1.18,-0.49,-0.81,1.24,0.04,0.37,0.14,0.57,-0.38,-1.84
0.87,0.77,-2.3,-2.3,-0.88,1.86,1.74,-0.34,1,0.74,-0.43,-0.38
1.62,1.02,-1.86,-1.51,-1.25,0.25,-1.23,-2.42,-1.19,-0.96,0.63,-0.59
1.21,0.68,-0.88,-0.54,0.25,1.07,1.32,0.41,0.22,0.67,1.06,-0.55
0.16,0.74,-1.95,-1.19,0.22,0.45,0.97,0.97,1.12,0.36,-0.25,0.78
1.11,0.43,-1.82,-1.73,-1.16,0.71,-1.45,-0.75,1.16,0.04,-0.67,-0.41
1.18,2.01,-1.9,-1.58,0.48,-1.29,0.27,-1.81,-1.34,0.83,0.02,-1.46
1.2,1.96,-1.17,-1.78,-0.3,0.78,-0.03,-0.13,-0.18,0,0.08,1.55
1.15,1.45,-0.57,-0.38,0.46,0,0.75,0,-0.97,-0.17,0.36,0.8
1.36,1.93,-0.29,-0.77,-0.35,0.45,0.63,-0.31,-0.49,0.1,0.47,-1.16
1.63,-0.01,-1.55,-0.43,-0.03,1.21,-0.84,-1.07,-1,-0.64,-1.68,-2.16
1.52,1.37,-0.6,-1.34,-1.2,0.84,1.29,0.45,-0.61,-1.08,-1.42,0.67
1.27,1.49,-2.82,-2.45,0.22,2.67,3.36,1.29,1.03,1.34,0.5,-2.27
1,0.56,-2.05,-1.2,-1.56,0.49,0.49,-0.87,-1,0.63,0.43,0.14
0.82,1.34,-0.65,-1.03,0.78,0.58,0.27,0.33,0.5,0.68,-0.53,0.33
