"V1","V2","V3","V4","V5","V6","V7","V8","V9","V10","V11","V12"
-3.98,-3.6,1.22,0.76,1.06,0.69,0.83,1.65,-1.18,-0.78,-0.29,0.77
-1.56,-0.84,2.37,0.75,1.13,-0.28,0.3,0.32,-1,0.44,0.55,-0.55
-1.29,-0.66,1.65,0.76,1.23,-1.81,0.94,1.02,-0.87,-0.75,1.33,2.53
-1.17,-1.51,1.22,0.96,1.73,-0.97,0.01,-0.33,-1.82,0.85,0.04,-0.33
-1.11,-2.65,1.08,-0.5,0.42,-0.93,1.16,1.58,-1.38,0.12,0.89,-1.16
-1.09,0.36,2.17,-0.51,0.31,-1.53,1.65,2.08,-0.85,0.06,0.31,1.06
-1.52,-0.76,0.25,-0.58,2.56,-0.86,1.01,-0.15,-0.66,0.63,1.59,0.62
-1.6,-1.28,0.99,-0.02,3.26,0.82,0.86,-0.03,-0.58,0.96,1.14,0.48
-1.29,-0.13,0.69,0.9,1.57,-1.29,1.27,-0.45,-0.89,0.36,0.93,0.64
-1.05,-1.31,0.53,-1.78,0.56,-0.6,-0.21,-0.48,-0.56,0.12,-0.38,0.47
-1.24,-0.74,1.7,-0.53,1.03,-0.56,-0.07,0.03,-1.31,-0.88,-0.03,1.31
-1.48,-1.86,1,-0.52,1.18,0.16,2.35,2.66,0.95,0.71,0.68,0.51
-0.85,-2.05,0.83,-1.04,0.8,-0.22,-0.66,0.32,-0.99,0.45,0.01,-0.46
-1.14,-0.53,1.88,0.04,1.37,-0.41,-0.46,-0.01,-0.45,-0.84,0.77,-0.24
-0.9,0.57,1.14,-0.62,0.55,-0.33,1.16,1.16,-0.88,-0.69,-1.84,0.05
-0.98,-0.55,1.36,-1.02,1.3,-0.73,0,0.05,-0.65,-1.5,0.15,-0.13
-1.01,-0.12,0.94,0.02,2.69,0.34,0.6,0.22,0.3,0.01,-0.94,-0.16
-1.01,-0.55,1.89,-0.03,1.32,0.02,0.25,0.65,-1.51,-0.83,-0.49,0.54
-1.29,-2.19,1.03,-0.75,0.43,0.01,1.55,0.18,-0.83,0.37,-0.96,-1.79
-1.19,-2.15,1.02,-0.63,0.84,0.49,0.9,0.49,-0.88,-0.45,0.35,1.44
-0.92,0.73,0.65,-0.38,1.83,-0.09,1.51,1.33,0.49,0.13,-0.27,-1.25
-1.21,-1.03,1.05,0.88,0.58,-1.2,0.75,-1.53,1.38,1.61,-0.5,1.45
-0.74,-1.6,0.46,-0.45,-0.05,-0.85,2.06,0.98,0.35,0.63,-1.65,0.25
-0.89,-0.48,0.37,-0.99,2.09,1.61,2.37,0.04,-1.81,0.56,-0.44,-0.51
-1.29,-1.17,0.58,-0.35,1.88,0.64,1.44,0.21,-1.31,-0.59,0.87,2.11
-1.08,-0.16,0.47,-1.63,1.06,0.36,1.48,0.58,-1.08,-0.63,-1.91,-0.1
-1.34,0.18,0.16,-1.12,0.43,-2.29,0.39,0.19,0.73,0,0.25,1.25
-1.04,0.04,-0.27,-1.6,0.75,-1.51,-0.72,0.6,-1.26,-1.06,-0.66,0.11
-1.21,1.09,1.12,-0.86,1.52,-1.19,1.47,0.58,1.22,1.97,0.5,0.72
-0.81,-1.16,0.64,-1.21,1.24,-0.33,-0.73,0.61,-0.39,1.48,0.07,-0.23
-0.89,0.57,0.39,-1.17,1.46,0,-0.17,-0.68,-0.7,1,1.01,1.74
-1.08,1.08,1.1,-1.71,1.39,-0.48,-0.56,-0.13,0.36,1.31,-0.33,-1.03
-0.55,0.33,0.64,-0.5,0.68,-1.5,-0.76,-1.16,-1.4,0,-0.6,-0.07
-0.9,-0.11,0.91,-1.89,-0.12,-1.65,-0.12,-0.53,-0.91,0.14,1.8,2.06
-0.92,0.66,1.27,-1.26,0.91,0.03,-0.5,-0.85,-0.17,0.58,1.09,0.53
-0.91,-1.07,0.7,-0.67,0.11,-2.25,-2.44,-1.38,-0.13,0.29,-0.27,-0.04
-0.54,-0.57,1,-2.39,-0.48,-0.02,-1.23,-1.2,-0.68,-0.74,-2.77,-0.04
-0.89,-2,-0.03,-1.45,-0.37,-0.87,0.39,-0.02,0.23,-0.58,0.27,0.74
-0.44,0.81,0.6,-0.76,0.13,-1.24,0.98,0.88,-1.05,-1.35,0.94,-0.64
-0.6,1.23,1.47,0.25,0.22,-0.54,-0.57,-0.29,0.17,-1.13,0.68,0.75
-0.79,-0.63,1.22,0.32,0.22,-1.58,-2.24,-1.83,0.03,-0.72,0.61,1.72
-0.41,0.32,0.49,-1.13,-0.58,-1.57,-0.7,-0.08,-0.71,-1.39,0.05,-0.25
-0.6,0.33,1.67,0.49,0.32,-1.51,-0.48,0.09,1.48,1.16,1.25,1.04
-0.16,1.14,-0.11,-0.57,0.99,0.88,-0.3,-0.33,-0.49,-0.04,1.24,-0.51
-0.5,0.94,0.9,-0.32,0.6,0.04,0.66,0.84,-0.06,0.45,0.5,-0.03
-0.69,-0.94,-0.02,-0.16,0.74,-0.26,-0.71,-1.31,-0.99,-0.47,0.51,0.83
-0.35,1.15,0.07,0.1,0.54,-0.79,1.11,0.23,-0.73,-0.12,1.87,0.2
-0.28,1.08,0.6,-0.76,0.28,-1.08,-0.91,-0.32,-0.19,-0.31,0.7,1.33
-0.27,-0.62,0.63,-0.62,0.23,-0.32,-0.13,1.59,-1.37,-1.31,-0.16,-0.23
-0.24,-0.25,-0.46,-1.24,-0.13,0.36,0.89,1.07,0.01,-0.46,0.48,0.52
-0.25,0.48,0.38,-0.42,-0.39,-0.79,0.4,1.63,0.66,-1.69,-0.46,0.34
-0.27,-0.79,-0.32,-1.23,-0.47,-1.1,-0.97,-1.98,-1.35,-1.1,-0.72,-1.56
-0.43,-0.8,0.33,-0.37,0.17,-0.66,-0.94,0,-0.08,-0.48,1.57,1.63
-0.24,1.32,1.43,0.99,0.3,-0.57,-0.73,-1,0.38,-0.64,1.27,1.34
-0.05,-0.07,-0.1,0.28,-0.23,-1.94,-0.88,0.43,0.89,0.3,0.57,1.4
-0.3,0.63,1.09,0.42,0.92,0.35,0.18,0.33,-0.12,-0.77,-0.61,0.27
-0.32,0.45,0.62,-1.23,-1.34,-1.51,0.88,0.36,-0.59,0.35,-0.23,-1.05
-0.31,-0.51,-0.05,-1.35,-1.17,-0.77,0.83,2.3,-0.08,-0.05,2.86,2.03
-0.09,0.21,1.13,0.56,0.13,-1.34,0.24,0.76,0.65,0.39,-0.42,1.07
-0.14,0.29,0.04,-0.07,-0.16,-0.13,0.15,1.76,1.82,1.07,-0.56,-1.9
-0.01,0.72,0.17,-0.2,0.01,-1.07,-0.91,-0.12,-1.81,-0.81,-0.93,0.45
-0.05,-1.04,-0.4,-1.32,0.1,-0.09,-0.41,1.08,0.11,-0.49,-0.22,-0.15
-0.22,-0.37,-0.68,-1.64,-0.02,1.1,1.41,0.96,-0.95,-1.24,-0.89,-2.4
-0.05,0.02,-0.12,-0.73,0.52,-0.62,-0.56,-0.26,-0.03,0.77,-0.07,0.15
-0.52,-1.32,0.46,0.01,0.51,-0.39,0.83,0.61,0.69,2.51,0.85,-0.73
-0.32,-0.93,-0.42,0.4,0.37,0.16,-0.05,2.06,2.37,1.67,0.06,-0.16
-0.02,1.15,0.67,0.06,0.05,0.52,1.72,1.18,-0.45,-1.2,0.93,0.62
-0.18,-0.2,-0.4,-0.91,0.61,0.95,1.7,0.88,-0.09,-1.14,-0.34,-0.17
0.37,0.3,-0.69,-0.31,-0.65,0.78,0.62,0.18,-0.69,-0.62,0.6,-0.22
-0.15,0.19,-0.23,0.99,0.35,0.05,-0.15,-0.69,0.77,0.16,-0.06,0.55
-0.07,0.17,-0.52,-1.54,-0.14,-0.55,-0.52,-0.86,-1.21,-1.43,0.34,-0.39
0.19,-0.45,0.44,0.85,-0.2,0.02,0.21,0.18,0.61,0.6,0.16,0.9
0.17,0.15,-0.13,0.65,0.45,0.51,-1.15,-0.97,0.21,1.91,1.71,-0.3
0.32,0.91,0.38,0.24,-0.6,-0.03,0.77,1.36,0.92,-0.04,-0.39,-0.05
0.19,-0.03,0.42,0.16,-0.56,0.54,1.05,1.39,-0.01,-1.19,-0.86,0.21
0.22,-0.14,-0.41,0.74,-1.03,0.9,1.17,1.08,1.11,0.11,-1.17,-0.88
0.43,-0.33,-1.03,-1.34,-1.11,-0.17,-0.03,1.02,0.58,-0.78,-1.14,-0.35
0.36,1.04,0.7,0.83,-1.47,-0.65,0.71,-0.8,0.45,0.28,-0.38,-0.61
0.44,0.2,-1.03,-1.57,-1.21,0.45,0.24,-0.11,0.52,0.93,0.75,0.09
0.48,0.17,-0.41,-0.04,0.19,1.53,0.17,-0.35,0.16,-0.55,-1.36,-0.68
0.6,0.84,-0.38,0.75,-0.22,1.04,-0.09,-1.01,0.08,-0.56,0.9,-0.68
0.64,1.2,-0.5,0.23,-0.39,0.28,-0.94,-0.46,1.07,0.46,0.63,-0.78
0.58,-0.73,-0.48,1.44,-0.5,1.84,0.22,-1.74,-0.11,0.15,-0.32,-1.07
0.62,0.7,-1.74,-1.23,-0.67,0.49,-0.1,-1.03,-0.54,-0.74,0.45,-0.74
0.44,-0.7,-1.03,1.79,0.41,0.49,-0.06,0,2,1.04,0.6,0.31
0.4,-0.8,-0.98,1.34,0.04,0.71,0.38,-0.22,0.57,-0.06,-1.39,-0.72
0.54,1.06,0.39,0.32,-1.63,-0.45,-0.78,-0.4,0.84,0.22,-1.42,-0.55
0.74,0.53,-0.06,0.65,-0.96,0.18,0.87,-0.95,-0.43,0.02,-0.13,-0.66
0.99,1.74,-1.11,0.09,-0.78,-0.43,-0.67,-1.72,-1.54,-1,1.27,-0.1
0.71,-0.64,-1.1,-0.41,-0.43,0.78,-0.69,0.49,2.49,1.4,-0.29,0.41
0.78,1.27,-0.45,1.24,-1.29,0.72,1.08,-0.17,1.11,0.88,-0.26,0.72
0.98,1.03,-1.16,0.27,-1.03,0.13,0.39,-0.68,-0.98,-0.82,-1.68,-0.32
0.75,0.32,-1.21,0.3,-1.01,0.86,0.44,1.17,3.02,2.47,-0.4,1.89
0.85,1.75,-1.02,0.43,-0.94,0.27,-0.52,-0.41,1.41,-1.39,-0.42,0.21
1.06,1.41,-1.28,0.11,-1.75,-0.3,0.45,-0.05,0.51,-0.2,0.7,-0.78
0.98,0.46,-1.54,0.28,-0.34,1.42,0.92,-1.47,-0.24,-1.88,-0.69,0.85
1.09,1.52,-0.9,0.22,-1.93,-0.79,-0.99,-1.44,1.99,1.01,-0.43,-0.12
1.1,0.79,-0.93,1.11,-0.15,1.29,-0.77,-0.49,0.94,0.34,-0.27,-0.23
1.15,0.55,-1.11,0.44,-0.94,0.55,0.33,0.34,0.01,0.33,1.27,0.8
0.83,1.18,-1.54,-1.1,-1.41,-0.18,-0.12,1.13,1.23,1.73,0.46,-0.01
0.89,0.54,-0.51,-0.02,-1.13,0.12,-0.77,-0.79,1.66,2.35,-1.2,-0.35
0.94,0.92,-0.95,-0.47,-1,0.92,0.17,-0.04,1.03,-0.33,-1.72,-1.72
0.8,0.41,-0.42,0.91,-0.94,0.17,0.94,0.49,1.36,-0.32,-0.23,-1.2
0.78,-0.33,-0.54,1.35,-0.38,1.42,-0.42,0.69,-0.48,-2.17,-1.51,-0.39
1.09,0.76,-0.88,1.21,-0.11,2.22,1.14,-0.73,-0.35,-0.51,-0.33,1.01
0.98,0.73,-0.75,1.39,-0.75,-1.71,-2.11,-1.04,1.45,1.48,0.93,0.75
0.84,-0.43,-0.79,0.71,-0.53,1.97,-1.01,-1.58,1.07,-0.01,0.06,-0.11
1.08,0.8,-0.75,0.45,-1.25,-0.81,-0.93,0.38,-0.39,-1,0.35,1.35
1.18,0.22,-0.74,1.07,0.14,0.96,-1.06,-1.21,0.12,-0.57,-2.33,-0.85
1.37,1.17,-0.85,0.13,-0.86,0.79,-0.25,-0.69,-0.25,-1.56,-1.68,-1.65
1.14,1.31,-1.55,-0.07,-0.64,0.29,-0.91,-1.59,1.13,0.63,-1.01,0.12
1.37,1.99,-0.1,1.52,-1.23,-0.46,-0.95,0.32,0.38,0.48,0.91,-1.02
1.26,-0.12,-1.47,-0.03,-0.64,1.19,-1.74,-0.55,-0.46,-1.23,-0.08,-0.4
1.22,0.95,-0.65,1.31,-0.15,1,-1.35,-1.32,-0.59,-0.18,-0.72,0.96
1.19,0.68,0.18,0.87,-1.18,0.3,-0.76,-1.9,-1.79,-0.37,1.68,0.14
1.35,-0.24,-1.95,0.12,-0.96,0.32,-0.21,1.16,1.59,1.29,-0.51,-2
0.87,-1.24,-0.85,1.24,-1.04,1.57,-0.14,0.86,0.78,-0.04,1.46,0.72
1.24,0.18,-0.13,0.39,-0.94,0.71,-1.5,-0.69,-0.59,0.67,0.17,-0.84
1.75,-0.4,-0.89,2.56,-0.67,0.71,-1.08,1.26,0.88,1.26,0.88,-0.8
1.43,0.14,-0.16,2.35,-1.04,0.91,-1.64,-0.84,-0.21,-0.61,1.44,0.39
1.68,-1.59,-2.36,0.91,0.02,1.79,-2.8,-1.12,-0.74,-0.95,-1.99,-2.05
1.42,-0.98,-1.05,0.89,-1.85,2.36,-0.06,-0.07,-0.18,-0.56,-0.81,-2.79
1.47,-0.55,-0.79,2.9,-0.93,2.02,-0.97,-1.69,0.53,2.64,0.97,-0.39
1.71,0.88,-1.6,1.59,-0.28,1.26,-0.8,0.75,-0.66,-0.88,0.31,-0.53
1.5,-0.28,-2.38,0.41,-1.16,1.93,0.73,-0.03,-0.54,-1.2,-2.11,-2.31
1.92,0.97,-1.55,1.17,-1.41,0.45,-1.74,-2.05,-0.27,0.66,-1.45,-0.7
1.77,1.25,-1.99,1.48,-0.89,0.38,-0.76,-0.45,1.72,2.03,0.18,-1.23
