"V1","V2","V3","V4","V5","V6","V7","V8","V9","V10","V11","V12"
-6.05,-2.51,1.38,0.93,0.35,0.23,-0.89,1.04,0.81,1.41,0.45,0.72
-2.48,-0.32,0.98,0.6,2.14,0.27,-1.07,-0.7,0.02,0.26,-0.49,-0.45
-0.89,-0.12,0.09,-0.05,0.13,-1.5,-1.4,-0.23,0.37,0.24,1.85,-0.19
-0.85,-1.02,0.38,-0.17,0.41,-0.8,-1.24,-0.1,-1.75,-0.03,0.63,-0.5
-1.33,-2.15,1.27,0.7,0.49,-0.84,-1.34,-2.57,-2.01,1.8,1.23,-2.07
-0.36,-1.7,-0.42,0.68,-2.56,0.48,0.63,-2.07,1.06,-0.25,-0.18,1.96
-0.96,-1.21,0.62,1.25,-2.91,0.68,1.26,-2.75,2.12,-0.22,-1.24,1.31
-0.71,-0.73,0.91,2.34,-0.01,1.46,0.09,-1.63,1.18,-0.29,0.34,0.3
-2.03,-1.35,1.29,0.85,0.6,1.17,1.36,0.7,0.84,0.88,1.07,0.99
-1.15,-1.13,1.06,0.48,0.14,-0.38,0.04,0.14,-0.14,0.93,-0.08,-0.67
-1.24,0.13,0.4,0.47,0.64,-1.36,-0.13,-0.44,0.26,-0.08,0.42,0.16
0.29,-2.44,0.92,0.85,-3.46,1.97,0.47,-0.51,0.84,-1.14,0.24,-1.76
-1.04,-2.31,0.79,0.63,-2.55,1.12,0.4,-1,3.54,0.26,-0.45,2.54
-1.12,-3.13,0,2.94,-1.07,3.19,3.6,-1.13,2.97,0.13,-1.26,2.47
-0.25,-1.03,1.04,3.17,-2.24,2.02,2.04,-2.33,2.96,0.16,-2.42,2.86
0.38,-1.39,-0.22,3.27,-1.72,0.19,1.76,-2.09,2.29,0.24,-0.57,1.5
-0.84,-1.26,-0.64,0.9,-1.39,-0.62,0.9,-1.48,-0.56,1.98,1.25,1.44
-0.5,-0.28,0.63,1,-0.55,-0.81,0.27,-1.28,0.08,1.06,-0.46,-0.47
-1.49,0.98,2.64,0.2,0.51,0.54,0.64,-0.29,0.37,-1.04,1.01,0.37
-0.13,-2.3,-0.85,2.83,-0.22,0.26,2.91,-0.84,1.34,1.75,-0.74,0.36
-0.46,-1.68,0.52,0.76,-2,-0.04,-0.48,-1.58,0.09,-0.09,-1.88,-0.99
-0.64,-0.57,0.92,0.16,1.28,1.92,0.43,-0.6,-0.91,-1.06,-1.33,-0.51
-0.11,-0.19,1.62,0.47,-0.53,1.35,0.09,-0.53,-0.83,-0.73,-1.32,-1.11
-0.47,-0.39,0.41,0.7,-1.4,-0.9,1.59,-1.55,-1.12,1.6,-0.28,-0.59
-1.49,-2.03,-0.99,0.75,0.72,-0.36,0.66,1.79,1.24,0.88,0.22,-0.77
-1.42,-1.39,0.13,-0.33,0.55,1.13,1.81,1.46,-0.06,0.25,0.44,1.71
-0.82,-0.66,0.59,-0.66,-0.43,0.65,0.58,-0.02,-0.28,0.79,-0.23,-0.33
-0.82,0.08,1.39,0.4,-0.7,0.51,1.74,-0.73,-1.24,-1.07,-0.53,0.1
-0.97,1.48,1.96,-0.23,0.97,-0.92,-0.73,-0.21,-0.13,-0.34,-0.55,-0.66
0.32,-0.66,1.87,1.69,-1.13,2.23,1.85,-1.76,-0.49,-0.71,-1.81,0.2
0.24,-1.36,0.47,1.92,-2.75,0.31,0.71,-1.3,1.47,-1.82,-2.46,2.15
-0.28,0.06,2.11,1.62,-0.04,0.15,-1.35,-2.58,-0.25,0.44,1.26,1.52
-0.99,-1.53,0.81,-1.16,-0.64,0.65,-0.78,-0.73,-0.65,0.73,0.36,-0.02
-1.2,0.38,1.1,0.74,1.49,0.61,1.45,0.33,-0.5,-1.76,-1.59,-1.17
-1.63,-0.37,0.45,-0.92,0,1.14,0.71,-0.85,-0.26,1.46,1.19,0.83
-1.24,-0.17,0.46,-0.04,-0.29,-1.39,-0.18,-0.68,-0.37,-0.54,-0.96,-1.54
-1.17,0.35,0.1,-1.15,0.57,-0.02,0.01,0.72,-0.48,-1.13,2.08,-0.29
-1.1,1.29,0.91,-1,0.39,0.35,1.6,-0.08,-0.49,-0.88,-0.7,-1.61
-0.68,0.09,-0.12,0.49,0.75,-0.38,0.8,0.3,-1.68,-2.48,0.78,-0.59
-0.99,0.27,0.78,-0.26,-0.2,-0.57,-0.96,-0.26,0.19,0,0.76,0.77
-1.03,-1.55,-0.11,-0.33,-0.05,-0.63,-0.43,-0.24,-0.89,-0.57,0.98,-0.08
-0.58,0.38,1.12,1.34,0.46,-1.09,0.03,0.28,-0.14,-1,0.16,-1.08
-0.61,0.47,0.5,-1.06,0.3,-1.01,-0.54,1.14,0.5,-0.7,-0.18,-0.44
-0.26,-0.32,0.54,0.02,-0.66,-0.8,-0.68,0.84,0,-0.28,0.47,-0.88
-0.89,0.21,-0.19,-0.06,0.45,-0.45,0.61,0.33,-0.56,-0.86,-0.92,-1.04
-0.12,1.28,1.41,-0.62,-0.08,-0.62,-0.43,0.67,-0.81,-1,1.63,-0.48
-0.47,1.08,0.12,-0.48,0.81,0.29,0.94,1.26,0.1,-0.2,1.73,0.36
-0.32,-0.17,1.12,0.3,-0.26,-0.8,0.02,0.78,-1.41,-2.7,-0.62,-0.48
-0.12,0.16,-0.85,-1.18,0.67,0.4,0.16,0.72,0.05,-0.55,0.24,0.31
0.1,-0.49,0.69,-0.24,-0.45,0.04,-1.29,0.66,0.58,-0.48,0.41,-0.85
0.17,0.49,0.03,1.07,1.83,1.92,0.93,0.6,-0.22,-0.41,-0.9,-1.91
-0.42,1.17,-0.07,-0.51,1.81,0.92,-1.09,0.41,0.77,0.82,-0.44,-0.39
-0.15,-0.87,-2.02,-0.03,1.62,-0.56,-0.89,-0.09,0.57,0.75,-0.78,-1.77
0.03,1.63,0.86,-0.45,0.62,-0.23,-0.75,-0.52,0.81,-0.6,-0.85,-0.6
-0.54,0.77,0.69,-0.37,-0.01,0.32,0.37,0.67,0.61,0.41,1.19,-0.47
-0.36,-0.14,-0.13,-0.32,-0.04,0.04,-0.6,0.31,-0.23,-0.04,0.55,0.96
0.13,-0.07,-1.09,-0.47,1.32,1.08,0.73,0.67,-0.06,-0.28,-0.37,-0.05
-0.03,0.83,0.13,-0.62,0.84,-0.11,-0.58,0.23,0.41,-0.03,-0.32,-0.3
-0.36,0.81,0.46,0.01,0.6,-1.37,0.26,1.13,1.15,1.32,2.08,0.24
-0.12,0.66,-0.76,-1.19,0.22,1.83,1.28,0.57,0.49,-0.46,-0.8,-0.03
-0.18,0.6,0.48,-1.1,0.56,-0.7,-0.38,-0.89,-1.03,-0.47,0.39,0.96
-0.44,0.48,-0.22,-0.89,0.55,-0.17,0.86,1.75,-0.3,-0.77,1.26,1.01
0.22,-0.24,1.06,0.52,-0.21,0.91,-0.63,-1.87,-0.62,0.05,-0.52,0.32
0.71,-0.02,-0.64,1.4,0.46,2.77,1.58,-0.36,0.13,-2.14,-2.67,0.21
-0.04,0.83,0.85,0.84,1.7,0.94,0.21,0.49,0.82,0.96,1.11,-1.36
0.16,0.94,0.86,0.11,0.96,-0.48,-0.06,0.57,-0.95,-0.93,-0.6,0
0.25,1.15,-0.36,-1.26,-1.01,-1.94,0.21,0.34,-0.08,-0.79,-1.11,0.53
0.37,0.75,-0.51,-1.37,-0.4,-0.61,-0.12,1.26,1.05,-1.61,-0.31,0.34
-0.18,-0.34,1.97,0.91,0.96,-0.45,0.12,0.37,0.24,0.55,-0.66,-0.99
0.66,1.06,0.35,-0.88,0.6,-1.3,-0.92,0.35,-0.69,0.8,0.02,1.2
0.96,0.7,0.72,-0.67,-0.24,-0.14,-0.95,0.2,-0.68,-1,-0.92,0.19
0.45,-0.72,-0.73,-0.52,0.19,1.42,-0.31,0.91,-0.28,0.15,-0.83,-2.34
0.73,-0.24,0.06,0.83,0.8,1.02,-0.66,-0.37,0.24,0.44,-1.11,0.17
0.36,0.36,-0.43,-1.09,0.49,0.6,0.74,1.33,0.36,1.23,-0.43,-0.07
0.16,0.22,1.65,0.57,1.89,-0.15,-1.02,0.61,-0.65,0.73,0.8,1.61
0.46,0.56,-0.83,-1.11,0.34,0.11,-0.92,0.22,-0.74,0.02,-0.65,0.29
-0.15,0.51,0.4,0.07,0.72,-0.16,-0.41,-0.2,0.31,0.31,1.6,0.22
-0.06,0.21,-1.22,-1.73,0.02,-0.18,0.14,1.24,0.41,-2.17,-0.31,0.5
0.49,0.01,-0.38,-0.47,-0.9,-0.68,0.04,-1.58,-0.29,1.37,-0.96,1.47
0.85,-1.66,-0.57,-0.92,-0.35,0.96,0.91,1.67,-1.28,-0.17,0.02,0.16
0.94,-0.27,0.04,-0.46,0.83,-0.17,-0.73,0.84,-1.32,1.34,0.09,0.7
0.9,0.36,0.85,-1.44,0.67,0.77,0.35,0.47,-2.13,-0.19,-0.35,1.61
0.09,-0.08,-0.76,-1.53,0.18,-0.73,-1.45,-1,-0.62,0.26,0.16,0.48
0.66,-0.48,-0.43,0.71,0.76,0.55,-1.37,-1.07,-0.36,-0.57,0.91,0.5
0.69,0.2,-0.32,-1,-0.53,0.83,0,0.36,-0.12,1.9,0.67,0.29
1.02,0.88,-0.61,-1.43,-1.01,-0.86,0.4,0.73,-1.91,0.59,0.28,0
0.85,0.7,0.44,-1.26,0.06,-0.7,0.05,1.38,-0.43,0.14,0.09,1.28
1.19,-1.01,0.03,-1.62,-0.39,0.19,-0.99,0.62,-1.47,0.63,-1.64,-0.89
1.05,-0.78,1.8,0.73,-1.21,-2.14,-1.41,1.74,0.01,0.7,-0.6,1.34
0.25,-0.82,0.34,-0.82,0.5,-0.34,-1.17,0.36,-0.44,1.74,1.14,0
0.66,0.95,0.54,1.01,0.73,-1.78,-2.53,-0.2,1.83,1.89,-1.15,-1.48
0.94,0.32,-2.16,0.42,0.52,-0.02,-0.32,0.09,1.25,0.08,0.67,-0.42
0.08,0.35,-0.85,-0.84,-0.89,-0.77,0.84,0.88,1.05,0.37,0.19,-1.06
0.55,0.39,-1.19,0.03,0,0.2,0.32,-0.61,-1.21,-1.02,1.2,0.23
0.73,1.36,-0.22,0.59,-0.28,0.41,0.41,-1.05,-0.43,-0.02,1.33,0.25
-0.07,0.72,-1.3,-0.27,-0.24,-0.39,0.62,-0.12,-0.73,-0.33,0.99,0.03
0.97,0.19,-1.22,-0.4,-0.51,-0.46,-0.41,-0.18,0.31,-0.55,0.11,0.31
0.85,-0.54,-0.96,0.52,0.61,1.63,0.65,0.73,-0.25,-0.6,0.63,-0.57
0.23,1.38,-0.44,-0.1,0.01,-1.59,-0.27,1.23,1.68,-1,-0.89,-0.38
0.37,1.05,-1.79,-0.95,-1.06,-0.77,0.37,-0.9,-0.37,-1.24,-0.59,0.04
0.81,0.73,0.32,0.57,0.04,-0.73,-0.84,-0.13,-0.85,-1.3,1.69,0.91
0.22,0.58,-1.48,0.01,0.76,-0.19,0.73,0.71,0.15,-0.42,1.29,-0.2
0.66,0.33,-0.27,0.58,0.69,0.94,0.16,-1.18,-0.78,-1.75,0.41,0.64
1.11,-0.14,-1.58,-0.04,0.13,-0.45,-0.94,0.32,1.32,1.3,1.75,-0.8
0.61,0.83,-0.78,-1.09,-0.47,-1.91,-1.45,0.86,0.33,0.66,-0.15,0.01
0.8,0.86,0.21,-0.59,-0.45,0.14,-1.31,-0.32,-1.66,-0.93,0.85,0.99
0.61,-0.69,-2.09,0.39,-1.52,0.33,1.9,-0.17,1.26,1.34,-0.32,-0.3
1.06,0.08,-1.08,-0.3,-0.44,-1.65,-0.77,0.91,-0.88,-0.63,1.12,1.18
1.46,1.96,-0.93,-0.96,0.42,-0.44,-0.94,1.08,0.2,0.12,-0.15,0.28
0.48,0.57,-0.58,0.52,0.44,-1.1,-0.65,0.31,1.44,1.3,0.39,-0.23
0.46,-0.34,-0.39,-0.33,-2.27,-1.34,-0.41,0.45,-0.97,-1.42,-1.08,-0.58
0.45,0.27,-0.54,-0.75,-0.35,-0.07,0.71,-0.12,-0.23,1.3,2.09,0.36
1.2,0.64,-0.98,-1.11,0.51,0.81,-0.82,1.26,0.35,-0.16,-1.54,-0.04
0.73,-0.28,-1.11,0.54,1.01,-0.42,-1.03,0.36,-0.32,-0.14,0.49,-0.28
1.03,0.4,-1.96,-0.73,0.6,-0.28,-0.95,0.78,-0.64,-1.38,-0.92,-1.05
0.87,0.99,-0.45,0.51,1.12,1.76,-0.34,-0.79,0.59,1.43,0.34,-0.89
1.59,1.35,-0.23,-0.28,0.28,-1.05,-1.13,-0.16,-0.02,0.03,-1.19,-1.56
1.24,1.46,-0.61,0.89,0.8,-0.16,-1.39,-0.28,0.94,0.82,0.22,-0.27
1.02,1.47,-2.34,-0.71,0.57,1.2,1.04,-0.9,-0.44,-0.35,-0.11,-0.98
1.44,0.33,-0.78,-1,0.66,0.16,-0.79,0.67,0.52,1.4,0.04,-1.22
1.45,0.17,-1.51,0.03,-0.32,-0.15,0.38,1.77,0.61,1.15,-1.25,-1.88
0.99,0.84,-0.12,-0.31,-0.11,-0.27,-0.94,0.27,0.47,0.34,0.62,0.3
1.15,0.96,-1.76,-0.94,-0.48,-0.54,1,0.12,-1.38,-0.16,0.67,0.15
1.15,0.72,-0.72,-1.56,-0.82,-0.9,-0.14,0.82,0.16,1.84,0.06,1.62
1.04,0.7,-0.69,-0.71,-0.01,-0.96,0.11,1.59,-0.61,-0.56,-1.03,-0.51
1.43,1.63,-0.38,0.28,0.53,-0.75,-0.98,-0.67,-0.11,0.06,0.88,0.08
0.78,-0.5,-1.65,-0.68,-0.52,-0.45,0.14,0.06,-1.32,0.74,0.14,-1.41
