"V1","V2","V3","V4","V5","V6","V7","V8","V9","V10","V11","V12"
-4.37,-3.29,1.76,-1.41,1.55,-0.81,-0.26,-3.69,0.08,-1.16,-0.65,-2.18
-5.41,3.01,4.09,-1.33,2.04,-1.1,1.74,-1.12,2.33,-0.72,-0.32,-1.15
-5.64,5.03,3.16,-0.94,1.96,-0.99,1.56,-1.27,1.92,-1.16,-0.52,-0.92
-3.78,-2.54,2.86,0.01,2.96,-1.45,-0.89,-0.99,3.16,-1.5,-1.26,-0.75
-3.05,1.19,1.59,-1.32,1.25,-1.25,0.55,-2.28,1.68,-0.87,0.48,-0.49
-2.31,1.06,1.17,-1.91,0.87,-2.19,-0.01,-0.62,0.59,-1.37,-0.04,-0.21
-1.2,2.03,-0.87,-2.11,-0.3,0.03,-0.59,-0.75,-0.34,-1.48,-1.84,-0.27
-1.01,0.24,-1.67,-3.66,-1.28,0.29,0.38,1.67,0.69,0.27,-1.25,0.89
-0.89,-1.77,-1.78,-1.73,-0.98,0.33,-0.32,0.25,1.04,-0.64,-1.02,0.42
-0.88,-1.63,-1.47,-1.46,0.2,0.73,1.37,0.18,-0.35,-0.52,-1.2,0.35
-0.75,-1.27,-2.27,-2.67,-0.4,-0.51,0.42,0.26,0.12,0.05,-0.96,1.25
-0.56,-0.35,-2.61,-1.58,1.53,-0.01,-1.19,-1.93,1.6,1.76,-1.68,-2.39
-0.6,-1.26,-2.49,-1.08,1.98,-0.11,-1.47,-1.27,1.63,2.32,-1.09,-2.25
-0.5,-0.76,-1.37,-0.56,0.86,0.02,-0.91,-0.82,1.57,0.63,-1.97,-1.03
-0.47,-0.81,-1.57,-1.86,-0.65,-1.51,-0.44,0.92,2.88,0.92,-2.11,0.22
-0.37,-1.04,-0.93,-0.51,0.49,-0.6,-0.3,1.13,-0.16,-1.94,-1.3,1.41
-0.21,0.06,-0.55,-0.4,-0.42,-1.01,1,0.32,-0.58,-2.3,-1.75,1.36
-0.18,-0.53,-0.82,-0.89,-1.18,-0.55,0.84,1.14,1.57,-0.39,-1.44,1.23
-0.13,-0.83,-0.67,-0.22,-0.51,0.2,1.45,-0.2,-0.92,0.08,-0.19,0.29
-0.05,-0.37,-0.8,-0.61,0.36,-0.39,-0.52,-1.25,-2.09,-2.43,-1.13,0.58
0.04,-0.14,-0.37,-1.08,-0.41,0.36,1.73,0.21,-1.58,-3.5,-2.2,1.11
-0.02,-0.63,-0.65,-0.33,0.07,-1.03,0.51,0.71,-1.08,-1.39,-0.22,0.39
0.05,-0.26,-0.9,-0.91,-0.98,-0.57,0.9,-0.97,-1.34,-0.36,0.1,0.76
0.04,-0.57,-0.5,-0.21,0.46,0.33,1,-0.4,-0.21,-0.5,-0.73,-1.57
0.02,-1.51,-0.89,-0.4,-0.28,-1.68,-0.48,0.13,1.14,1.22,-1.27,-1.02
0.1,-1.02,-0.95,-1.15,-0.53,-0.5,1.91,0.29,0.26,1.29,1.01,0.75
0.14,-1.11,-1.45,-1.49,-0.72,0.83,2.54,-0.28,-0.96,-1.22,-0.75,0.53
0.09,-1.23,-0.5,-1.13,-1.88,-0.76,1.16,0.2,-0.08,0.64,0.99,0.86
0.02,-1.6,-1.29,-1.32,-1.53,-0.2,1.4,-0.44,-0.26,-0.22,0.17,0.27
0.1,-1.17,-1.57,-1.21,-0.43,-0.63,0.47,-0.04,-1.15,-1.06,-0.68,-0.74
0.17,-1.25,-1.16,-0.52,-0.61,-0.95,-1.16,-3.16,-2.68,-0.35,1.01,0.57
0.16,-0.69,-0.57,-1.07,-1.96,-2.1,-0.4,-1.89,-1.25,-1.94,-0.78,-0.59
0.16,-0.56,-0.63,-0.87,-1.54,-1.94,-1.11,-1.62,-0.64,-0.26,-0.93,-0.77
0.18,-0.73,-0.6,-0.6,-2.05,-2.34,-0.87,0.4,-1.3,-0.97,-0.01,-0.08
0.16,-0.93,-0.46,-0.14,-1.82,-2.26,-0.11,0.16,-0.92,-0.55,0.41,-1.74
0.24,-0.39,-0.78,-1.24,-1.65,-2.28,-2.13,-0.3,-0.06,0.99,-0.78,-1.73
0.22,-0.68,-1.16,-1.69,-1.43,-1.19,-1,-2.39,-2.33,-0.99,-0.85,-1.33
0.26,-0.86,-0.87,-1,-1.97,-1.52,-1.57,-1.68,-1.32,-0.72,-0.87,-0.73
0.19,-0.75,-0.26,-0.57,-2.2,-2.35,-2.39,-1.54,-0.3,0.58,0.16,-1.56
0.26,-0.7,-0.77,-1.54,-2.15,-1.9,-2.69,-1.69,-0.36,-0.69,-1.26,-0.79
0.25,-0.79,-0.88,-0.95,-1.35,-0.73,-1.04,-1.39,0.56,-0.67,-2.4,-0.89
0.28,-0.62,-0.65,-0.72,-1.54,-1.15,-1.38,-1.18,0.25,0.9,-1.12,-1.88
0.29,-0.4,-0.37,-0.62,-1.16,-0.4,0.9,0.63,-0.33,-0.68,-0.15,-0.63
0.28,-0.4,-0.13,-0.66,-0.78,-0.19,-0.63,-1.21,-0.69,-0.69,-1.4,-2
0.28,0.23,-0.24,-0.62,-1.02,-0.02,-0.45,-0.9,-0.37,0.57,-0.19,-1.1
0.33,0.04,-0.25,0.06,-0.86,-1.5,0.15,0.23,0.53,2.08,0.22,-0.71
0.29,0.44,0.08,0.05,0.4,0.95,1.17,0.83,1.3,0.78,-1.23,-0.48
0.33,0.23,0.41,0.44,0.43,1.56,1.45,1.7,0.5,1.16,-0.29,-0.26
0.38,0.98,0.74,1.27,0.07,0.08,-0.09,0.32,0.81,0.53,-1.36,-0.39
0.37,0.41,0.67,1.2,0.77,1.25,1.02,0.5,-0.44,0.31,-1.16,-0.78
0.41,0.68,0.21,0.5,0.05,0.54,2.07,1.15,0.17,0.31,-0.69,0
0.36,0.56,0.28,0.79,-0.39,0.31,-0.02,0.72,2.01,0.95,-1.11,-1.76
0.26,-0.23,0.2,0.31,-0.04,0.49,1.78,1.3,1.39,1.58,-0.08,-1.32
0.37,0.18,0.49,0.77,-0.58,1,0.3,0.06,-0.08,-0.86,-1.52,-0.67
0.39,-0.52,0.14,0.45,-0.75,2.16,0.79,1.68,-0.75,-1.5,-0.29,-2.22
0.41,-0.01,0.36,0.53,-1,0.6,-0.98,1.35,1.01,0.36,1.45,-2.04
0.39,-0.16,0.44,0.73,-0.38,0.86,-1.15,-1.02,-1.57,-0.64,1,-0.76
0.4,0.37,0.54,0.39,-0.87,0.63,-1.23,-0.96,0.28,1.67,1.83,-0.46
0.41,0.83,0.58,0.87,0.7,1.53,0.52,-0.15,-0.17,1.21,1.27,-0.18
0.39,1.1,1.01,0.97,0.51,0.58,0.17,0.13,0.41,0.06,-0.39,-0.04
0.35,0.95,0.97,1.02,0.62,0.43,1,0.35,1.19,0.39,-0.2,0.34
0.32,0.18,0.92,0.84,-0.05,0.44,1,0.89,1.63,0.16,-0.72,0.01
0.35,0.32,0.65,0.82,-0.48,0.49,0.72,1.42,-0.07,0.03,-0.07,0.41
0.39,0.32,0.41,0.26,0.01,1.54,0.18,0.56,0.13,0.31,0.09,-0.92
0.4,0.39,0.86,0.33,0.36,1.55,-2.02,-0.18,-1.53,-0.93,0.88,1.06
0.38,-0.1,0.69,0.47,-1.22,0.57,-0.91,-0.83,-0.01,0.31,1.27,1.35
0.38,0.15,0.35,1.09,-0.57,0.32,-0.67,0.3,-0.29,-0.66,1.47,1.17
0.43,1.01,0.76,0.52,-0.53,0.48,-0.1,0.23,0.27,0.02,-0.26,0.83
0.45,0.65,0.7,1,0.39,-0.72,-0.78,-0.15,0.7,1.75,-0.44,0.23
0.39,0.89,1.01,1.34,0.42,0.25,0.81,-0.56,-1.19,-0.78,0.16,0.16
0.34,0.52,0.77,1.02,1.03,0.32,0.07,-0.47,-0.76,1.54,-0.04,0.58
0.35,0.48,0.78,1.37,1.26,-0.03,-0.89,-1.23,-0.75,0.6,1.23,0.32
0.38,0.15,1.02,2.01,0.78,1.67,0.54,-0.03,-0.45,-0.49,2.04,0.61
0.4,0.58,1.27,1.36,-0.1,2.37,0.16,0.83,0.52,-0.57,1.63,0.05
0.36,0.78,1.23,1.45,0.99,1.08,0.6,-0.2,-0.4,1.9,1.86,0.92
0.43,1.12,0.94,0.46,0.05,1.63,-0.05,-0.16,0.16,0.24,0.69,-0.77
0.34,0.57,0.58,1.18,0.96,0.74,0.68,0.92,1.1,1.29,0.05,-0.59
0.41,1.15,0.23,0.4,0.66,0.24,0.31,-0.14,-0.56,-0.21,0.4,0.28
0.36,0.94,0.12,0.24,-0.19,-0.05,-0.04,-0.61,-0.4,-0.14,0.34,0.58
0.37,1.02,0.52,0.77,-0.03,0,0.6,-0.44,-0.79,-0.37,-0.53,-0.43
0.41,1.49,0.99,0.59,0.05,-1.04,-0.78,-0.37,-0.01,0.27,0.03,-0.62
0.42,1.1,0.97,0.78,0.61,0.32,-0.23,-0.06,0.12,-0.13,0.01,0.99
0.4,0.84,0.18,0.25,0.65,0.43,1.53,1.83,0.83,0.22,-0.11,1.11
0.38,1.08,1.36,1.4,1.57,0.25,-0.04,0.89,0,1.5,0.12,-0.01
0.39,0.95,0.83,1.36,1.22,0.28,1.13,1.6,2.03,0.77,0.38,-0.72
0.36,0.11,0.55,0.72,0.73,0.36,-0.46,-0.32,0.21,0.24,1.48,0.44
0.38,1.38,1.05,1.34,1.09,0.35,-1.59,0.42,0.27,0.05,0.19,-1.41
0.43,1.34,0.91,1.35,1.16,0.72,-1.24,0.49,0.55,0.92,0.67,0.02
0.37,0.54,0.8,1.37,1.41,1.32,0.68,1.21,-0.02,1.22,1.16,1.79
0.36,0.35,0.33,0.96,0.13,-0.94,-0.64,0.48,0.42,0.78,0.08,1.54
0.34,-0.15,0.55,1.15,0.67,0.01,-0.22,0.64,1.19,0.85,0.81,0.39
0.27,0.05,0.38,0.13,0.02,0.31,1.08,0.32,-0.25,0.01,-0.12,0.58
0.36,0.64,0.35,0.22,0.17,0.43,-0.67,-0.56,-0.02,1,0.17,0.06
0.35,0.33,0.06,0.09,-0.07,-0.49,0.77,1.33,-0.3,-0.75,0.66,0.49
0.32,0.06,-0.01,0.21,0.18,-0.25,0.23,1.07,-0.05,0.33,0.08,0.36
0.36,0.54,-0.3,0,-0.28,0.16,-0.02,0.46,0.43,0.23,0.51,-0.52
0.31,-0.3,-0.19,-0.02,-0.51,-0.6,-1.23,0.1,0.03,0.16,-0.21,0.68
0.31,0.09,0,-0.1,0.44,1.18,0.92,1.54,0.16,-0.56,-0.28,-0.68
0.29,0.45,-0.25,0.49,0.97,1.16,-0.75,-0.5,-0.51,0.7,1.01,0.43
0.34,-0.33,-0.02,0.19,0.16,0.42,-0.62,-0.52,-0.89,-0.34,-0.32,0.58
0.36,0.42,-0.13,0.42,-0.83,-0.43,0.78,0.38,-0.86,-0.16,0.92,0.71
0.22,-0.44,-0.11,0.89,0.07,-0.13,-0.34,0.31,-1.18,0.45,0.37,-0.12
0.31,-0.25,0.18,1.19,0.02,-0.34,-0.17,-0.48,-0.52,0.98,1.49,0.47
0.35,0.28,-0.16,0.45,0.14,-0.38,-1.05,-0.21,-0.84,0.91,1.07,-0.34
0.26,-0.11,-0.09,-0.45,-0.69,-0.8,-0.56,0.84,0.57,0.95,1.35,1.56
0.31,0.31,0.23,0.5,1.22,-0.53,-0.6,0.66,-0.52,0.45,0.28,1.1
0.33,0.96,0.56,0.58,0.83,-0.48,-0.52,0.74,0.33,1.22,0.03,1.91
0.31,0.12,0.55,1.24,0.7,-0.02,-0.09,0.52,-0.87,0.89,1.54,1.42
0.38,0.13,-0.02,0.07,-0.09,0.56,0.61,0.14,-0.64,-0.74,0.16,0.46
0.34,-0.04,0.38,1.16,0.87,0.66,-0.18,0.54,1.26,-0.18,0.02,0.22
0.39,0.28,0.14,0.72,0.37,0.75,0.35,0.53,-0.62,-0.17,1.07,1.16
0.35,0.43,0.31,1.12,1.65,1.81,0.03,0.83,0.93,1.09,1.32,0.79
0.35,1.1,0.54,0.05,1.5,1.53,-0.16,1.4,0.33,0.38,0.92,2.37
0.32,0.39,-0.14,1.07,0.56,0.66,1.44,1.28,-0.17,0.15,1.45,1.62
0.32,-0.13,-0.24,0.3,0.39,0.98,0.76,0.87,-0.09,0.66,0.86,0.13
0.34,0.23,-0.14,-0.53,0.42,0.24,0.61,1.27,0.61,0.28,0.56,1.22
0.26,-0.81,-0.64,-0.33,1.01,0.08,-0.08,0.65,-1.25,-1.09,-0.78,0.12
0.26,-0.86,-1.42,-0.34,-0.89,-0.61,-0.2,0.19,-0.64,-0.18,-0.02,0.25
0.29,-0.91,-0.57,0.4,0.53,-0.15,-2.67,-0.25,0.48,0.34,1.33,0.45
0.26,-1.09,-0.72,0.1,0.25,1.24,-0.41,-0.15,-1.22,-2.3,0.07,-0.47
0.23,-1.32,-0.74,0.03,-0.27,0.07,-0.39,0.02,-0.09,-0.8,0.33,-0.2
0.27,-0.65,-0.74,-0.06,-0.87,-0.12,-0.93,-0.52,-0.82,-0.67,0.77,-0.16
0.24,-0.84,-0.53,-0.23,-1.15,-0.48,-0.24,0.46,-0.72,-0.21,2.25,2.01
0.27,-0.43,-0.86,-0.82,-1.48,-0.4,0.6,0.56,0.12,0.31,0.96,1.02
0.26,-0.81,-1.06,-0.33,0.64,1.15,1.07,0.44,0.17,0.04,-0.06,0.42
0.31,-0.32,0.02,0.66,0.83,0.61,0.38,-0.32,-0.93,-0.71,0.45,-0.05
0.35,-0.56,0.02,0.63,0.57,1.86,-0.54,-0.39,-0.32,-0.71,1.42,-0.11
