"V1","V2","V3","V4","V5","V6","V7","V8","V9","V10","V11","V12"
-0.75,0.82,1.87,-0.08,0.06,0,1.02,0.63,0.41,0.47,2.24,0.8
-1.52,0.08,1.45,-0.35,-0.62,0.39,1.42,0.02,0.4,-0.54,1.27,0.24
1.45,1.2,1.1,-0.05,-0.53,0.07,0.38,0.16,-0.47,0.06,0.32,-0.12
1.45,1.2,1.1,-0.05,-0.53,0.07,0.38,0.16,-0.47,0.06,0.32,-0.12
1.45,1.2,1.1,-0.05,-0.53,0.07,0.38,0.16,-0.47,0.06,0.32,-0.12
1.45,1.2,1.1,-0.05,-0.53,0.07,0.38,0.16,-0.47,0.06,0.32,-0.12
1.45,1.2,1.1,-0.05,-0.53,0.07,0.38,0.16,-0.47,0.06,0.32,-0.12
1.45,1.2,1.1,-0.05,-0.53,0.07,0.38,0.16,-0.47,0.06,0.32,-0.12
1.45,1.2,1.1,-0.05,-0.53,0.07,0.38,0.16,-0.47,0.06,0.32,-0.12
1.45,1.2,1.1,-0.05,-0.53,0.07,0.38,0.16,-0.47,0.06,0.32,-0.12
1.45,1.2,1.1,-0.05,-0.53,0.07,0.38,0.16,-0.47,0.06,0.32,-0.12
1.45,1.2,1.1,-0.05,-0.53,0.07,0.38,0.16,-0.47,0.06,0.32,-0.12
1.45,1.2,1.1,-0.05,-0.53,0.07,0.38,0.16,-0.47,0.06,0.32,-0.12
-0.74,-0.4,-0.4,-1.2,-0.58,0.56,-0.17,-0.83,-0.35,0.51,-0.06,0.25
-1.15,-0.66,0.32,-0.61,-0.75,0.21,0.35,-0.31,-1.17,-0.26,0.15,0.43
1.45,1.2,1.1,-0.05,-0.53,0.07,0.38,0.16,-0.47,0.06,0.32,-0.12
1.45,1.2,1.1,-0.05,-0.53,0.07,0.38,0.16,-0.47,0.06,0.32,-0.12
1.45,1.2,1.1,-0.05,-0.53,0.07,0.38,0.16,-0.47,0.06,0.32,-0.12
1.45,1.2,1.1,-0.05,-0.53,0.07,0.38,0.16,-0.47,0.06,0.32,-0.12
1.45,1.2,1.1,-0.05,-0.53,0.07,0.38,0.16,-0.47,0.06,0.32,-0.12
-0.56,-0.55,-0.39,-0.44,-0.63,-0.93,0.85,1.85,0.43,-0.63,-1.57,-2.44
-2.21,-0.92,0.86,-0.52,-0.79,-0.26,0.16,-0.03,-0.62,-0.07,0.2,-0.23
1.45,1.2,1.1,-0.05,-0.53,0.07,0.38,0.16,-0.47,0.06,0.32,-0.12
1.45,1.2,1.1,-0.05,-0.53,0.07,0.38,0.16,-0.47,0.06,0.32,-0.12
1.45,1.2,1.1,-0.05,-0.53,0.07,0.38,0.16,-0.47,0.06,0.32,-0.12
-0.53,-1.53,-0.31,1.16,-1.03,-1.43,2.02,-0.44,-1.36,0.69,0,0.52
-0.53,-1.42,-0.54,0.82,-0.9,-1.81,-0.11,0.27,0.3,-0.36,-0.25,0.95
1.45,1.2,1.1,-0.05,-0.53,0.07,0.38,0.16,-0.47,0.06,0.32,-0.12
1.45,1.2,1.1,-0.05,-0.53,0.07,0.38,0.16,-0.47,0.06,0.32,-0.12
1.45,1.2,1.1,-0.05,-0.53,0.07,0.38,0.16,-0.47,0.06,0.32,-0.12
1.45,1.2,1.1,-0.05,-0.53,0.07,0.38,0.16,-0.47,0.06,0.32,-0.12
1.45,1.2,1.1,-0.05,-0.53,0.07,0.38,0.16,-0.47,0.06,0.32,-0.12
-0.78,-0.41,0.02,-1.2,-0.69,0.4,0.84,-0.72,-0.69,0.6,0.79,-0.11
-0.45,-0.18,-0.56,-0.82,0.96,0.88,-0.51,-0.9,0.03,1.04,0.23,-1.03
-0.53,0.05,-1.03,-0.97,2.01,0.46,-1.56,-0.23,1.27,-0.07,-0.06,0.63
-0.51,-0.48,-0.69,-0.94,0.42,0.98,-1.12,-1.03,1.11,0.53,-0.54,-0.23
-0.87,-0.14,-0.3,-1.1,-0.06,0.64,-0.01,-0.92,0.53,0.55,-0.54,-0.39
-2.08,-0.96,0.82,-0.57,-0.84,-0.32,0.11,-0.07,-0.67,-0.11,0.16,-0.28
1.45,1.2,1.1,-0.05,-0.53,0.07,0.38,0.16,-0.47,0.06,0.32,-0.12
1.45,1.2,1.1,-0.05,-0.53,0.07,0.38,0.16,-0.47,0.06,0.32,-0.12
1.45,1.2,1.1,-0.05,-0.53,0.07,0.38,0.16,-0.47,0.06,0.32,-0.12
-1,-0.49,1.35,0.46,-1.09,0.15,1.19,-0.98,0.51,0.38,-0.24,0.35
-0.74,-1.3,0.27,0.81,-1.88,-0.37,2.82,-1.53,0.13,2.45,-2.1,0.94
-0.6,-1.33,0.52,0.72,-2.14,-0.21,2.02,-1.22,1.12,0.63,-2.23,1.69
-0.89,-1.4,0.74,0.22,-1.55,-0.25,0.75,-0.62,0.69,-0.53,0,-0.4
1.45,1.2,1.1,-0.05,-0.53,0.07,0.38,0.16,-0.47,0.06,0.32,-0.12
1.45,1.2,1.1,-0.05,-0.53,0.07,0.38,0.16,-0.47,0.06,0.32,-0.12
1.45,1.2,1.1,-0.05,-0.53,0.07,0.38,0.16,-0.47,0.06,0.32,-0.12
-0.52,-0.9,-0.33,0.73,0.02,-0.84,0.17,-0.07,-0.37,0.56,-0.04,0.36
-0.61,-0.87,-0.09,0.73,-0.17,-0.92,0.34,0.12,0.1,0.38,-1,0.17
1.45,1.2,1.1,-0.05,-0.53,0.07,0.38,0.16,-0.47,0.06,0.32,-0.12
1.45,1.2,1.1,-0.05,-0.53,0.07,0.38,0.16,-0.47,0.06,0.32,-0.12
-0.34,0.67,-0.52,-0.84,1.78,0.96,-1.66,-1.17,1.68,1.42,-1.62,-1.85
-0.26,1.26,-1.07,0.08,2.04,-0.37,-1.98,-0.16,3.11,-0.62,-2.93,0.53
-0.24,1.21,-0.74,0.45,1.57,-1.23,-1.37,1.12,1.74,-1.95,-1.13,2.35
-0.41,0.31,-0.88,0.7,1.64,-1.68,-1.42,1.81,1.08,-2.47,-0.08,2.6
-0.47,0.05,-0.05,0.44,1.26,-1.7,-0.88,1.99,0.29,-2.31,0.49,2.2
-0.75,-0.85,0.36,-0.02,0.26,-0.09,-0.57,1.06,0.47,-0.95,0.48,-0.08
-1.19,-0.62,0.76,-0.62,-0.52,-0.58,0.46,-0.2,-0.46,-0.13,0.26,-0.21
-0.93,-0.73,0.29,-0.26,-0.18,0.04,-0.54,0.06,0.03,-1,-0.16,-0.86
-0.96,-0.94,-0.13,-0.64,-0.08,0.29,-0.47,0.57,0.32,-0.53,0.84,0.1
-0.85,-0.26,-0.96,-1.55,0.97,1.76,0.23,-1.3,-0.78,0.91,0.49,-0.05
-0.72,-0.28,-0.91,-1.08,1.11,1.19,-0.76,-1.44,-0.3,0.57,0.06,-0.81
-0.71,-0.66,-0.93,-1.12,0.93,1.33,-1.25,-1.19,1,1.07,-0.25,-0.05
-0.6,-0.27,-0.57,-0.87,0.97,0.93,-0.84,-0.46,0.77,0.5,-0.51,-1.03
-0.64,0.96,0.13,-0.76,1.09,0.77,-1.01,-0.47,0.78,0.35,-0.32,-0.98
-0.61,-0.78,-0.57,-0.73,0.68,0.92,-0.92,-0.48,0.89,0.13,0.34,0.15
-0.49,-0.54,-0.65,-0.68,1.28,1.23,-1.16,-0.46,0.84,-0.48,-0.39,-0.08
-0.53,-0.86,-1,-0.9,1.42,1.16,-1.34,-0.52,1.1,0.55,0.39,-0.67
-0.48,-0.31,-0.86,-0.88,1.46,1.13,-1.31,-0.84,0.82,0.49,-0.25,-0.29
-0.48,-0.67,-1,-0.9,1.03,0.95,-0.97,-0.46,0.78,0.33,0.28,-0.22
-0.46,-0.12,-0.86,-0.68,1.26,1.12,-0.91,-0.49,0.65,0.18,-0.18,-0.32
-0.46,-0.36,-0.71,-0.69,1.16,1.03,-1.09,-0.8,0.62,0.54,0.56,-0.16
-0.57,-0.76,-0.84,-0.78,0.82,1.16,-0.66,-0.57,0.39,-0.14,0.39,0.11
1.45,1.2,1.1,-0.05,-0.53,0.07,0.38,0.16,-0.47,0.06,0.32,-0.12
1.45,1.2,1.1,-0.05,-0.53,0.07,0.38,0.16,-0.47,0.06,0.32,-0.12
-0.26,0.03,-1.21,0.56,1.44,-0.71,-1.57,0.54,1.72,-0.56,-1.78,0.99
-0.08,1.06,-1.26,0.46,1.41,0.05,-1.85,-0.32,2.65,0.04,-3.06,0.06
-0.1,0.98,-1.48,0,1.67,0.44,-1.91,-0.74,2.51,0.81,-2.67,-1.67
-0.41,0.33,-2.24,-2.21,1.53,2.1,-0.43,-2.23,-0.43,1.01,0.8,-0.22
-0.53,-0.34,-1.11,-1.35,1.15,1.74,-0.34,-2.06,-0.68,2.46,1.61,-1.96
-0.74,-0.59,-0.3,-0.82,0.1,0.99,0.15,-0.7,0.18,0.65,0.25,0.1
-0.61,-0.84,-0.33,-0.77,0.16,0.33,-1.11,-0.25,1.27,-0.08,0.19,0.58
-0.81,-0.78,0.15,-0.71,-0.38,0.25,-0.3,-0.5,0.25,-0.04,0.19,0.14
-0.48,-0.86,-0.15,1.19,-0.35,-1.35,1.59,0.06,-2.23,1.98,0.62,-3.96
-0.36,-1.16,-0.05,2.38,-2.31,-0.44,2.36,-2.3,-0.85,3.47,-1.94,-2.09
-0.32,-0.68,0.42,2.21,-2.86,0.83,1.95,-2.61,1.8,0.46,-1.77,1.81
-0.27,-0.79,0.22,2.47,-2.68,-0.46,2.91,-1.58,-0.84,2.18,-1.81,-0.68
-0.62,-1.38,0.17,0.59,-1.28,-1.41,1.65,-1.46,-0.69,1.78,-0.37,0.06
-0.53,-0.87,-0.61,0.6,-0.36,-0.53,1.3,-0.07,-0.92,-0.06,-1,0.08
0.05,-0.75,-1.8,2.44,-0.48,-0.95,0.37,0.98,-0.22,-0.04,-0.82,-0.44
-0.11,-0.61,-1.7,2.37,0.98,-1.89,-0.97,1.77,0,-1.28,0.54,0.54
-0.53,-1.01,-0.17,0.24,0.31,-1.61,-0.2,1.38,-1.37,-0.35,1.7,0.16
-0.24,-1.43,-1.79,1.24,-0.34,-0.82,1.09,-0.21,0.09,1.14,-0.09,0.67
-0.16,-0.82,-1.36,2.59,-0.23,-2.12,0.17,2.24,-0.61,-1.88,1.72,0.56
-0.3,-0.27,-0.74,1.41,1.28,-1.89,-0.66,1.43,-0.02,-0.95,0.48,0.57
-0.71,-1.18,-0.1,0.21,0.48,-1.32,-0.27,1.71,-0.93,-1.5,1.07,0.4
-0.18,-0.85,-1.28,1.68,-0.27,-0.7,1.14,-0.26,-0.38,0.33,-0.38,0.68
-0.24,-0.97,-1.47,2.51,-0.12,-2.13,0.1,2.39,-1.11,-1.95,1.81,0.33
-0.42,-1,-0.87,0.58,0.69,-1.81,-0.37,1.81,-0.07,-1.28,0.02,-0.05
-0.69,-1.18,0.14,0.22,0.58,-1.09,-0.17,1.82,-0.74,-1,0.89,0.08
-0.19,-1.42,-2.22,1.7,-0.31,-1.19,0.4,0.28,0.49,0.64,-0.25,-0.85
-0.26,-0.89,-1.75,1.97,0.47,-2.3,-0.72,2.26,-0.48,-2.41,1.27,1.75
-0.41,-0.55,-1.06,0.38,1.65,-1.59,-1.22,1.62,0.27,-1.46,0.49,1.04
-0.73,-1.02,0.02,0.09,0.52,-0.64,-0.85,1.3,-0.5,-0.6,1.46,-0.37
-0.09,-1.14,-2,2.31,-0.14,-1.06,0.61,1.1,-0.22,-0.53,-0.81,-0.96
-0.19,-0.77,-1.53,2.33,1,-2.26,-1.36,2.37,0.32,-2.28,0.4,1.73
-0.53,-1.17,-0.55,0.21,0.95,-1.3,-0.54,1.73,-0.91,-1.51,1.45,1.03
-0.78,-1.2,0.12,-0.18,0.26,-1.23,-0.79,1.36,-0.9,-1.18,0.88,0.33
-0.45,0.06,-1.08,-1.91,0.51,1.76,1.41,-0.17,-1.77,-1.58,0.65,2.93
-0.47,0.29,-0.35,-1.78,-0.23,0.69,1.93,1.33,-1.5,-2.85,-0.78,2.81
-0.5,-0.08,-1.73,-2.63,0.5,2.27,1.96,-0.63,-3.04,-0.9,3.27,2.85
-0.28,0.76,-1.28,-1,1.97,1.6,-1.18,-1.67,0.29,2.22,-0.08,-2.58
-0.37,0.79,-0.38,-0.79,1.43,0.93,-1.16,-1.06,0.83,1.69,-0.87,-2.44
-0.74,-0.78,-0.02,-0.73,0.09,0.87,-0.61,-0.87,1.02,1.21,-0.47,-0.41
-0.1,1.76,-0.92,-0.05,1.73,-0.34,-1.57,-0.06,2.33,-0.3,-2.58,0.23
-0.06,1.57,-1.09,0.19,1.37,0.19,-1.74,-0.24,2.28,0.15,-2.68,-0.51
-0.29,0.25,-1.13,-2.26,0.37,1.49,-0.22,0.18,1.22,0.5,-0.7,-1.06
-0.61,-0.83,-0.12,-0.71,0.51,0.69,-1.43,-0.94,0.61,-0.56,-0.43,-0.16
-2.11,-1.09,1.11,0.05,0.1,0.35,-0.37,-1.15,-1.08,0.65,0.89,-0.48
-1.01,-1.81,0.51,-0.57,-0.43,1.14,-0.32,1,-1.78,0.8,-1.37,-1.29
-0.46,-1.64,0.48,0.88,-2.37,2.94,-1.27,-1.74,2.7,-1.1,-0.48,0.67
-0.61,-1.13,0.51,0.16,-1.32,1.46,0.18,-1.2,1.94,-0.82,-0.79,0.95
-2.05,-0.96,0.81,-0.57,-0.84,-0.32,0.11,-0.07,-0.68,-0.12,0.15,-0.28
1.45,1.2,1.1,-0.05,-0.53,0.07,0.38,0.16,-0.47,0.06,0.32,-0.12
1.45,1.2,1.1,-0.05,-0.53,0.07,0.38,0.16,-0.47,0.06,0.32,-0.12
1.45,1.2,1.1,-0.05,-0.53,0.07,0.38,0.16,-0.47,0.06,0.32,-0.12
