"V1","V2","V3","V4","V5","V6","V7","V8","V9","V10","V11","V12"
-7.47,-4.52,1.79,3.34,0.37,2.07,-0.02,2.31,1.25,-0.83,-0.28,0.28
-2.53,-1.7,2.45,2.08,0.8,-1.56,-0.05,1.71,0.39,0.15,-0.08,1.34
-1.36,-1.23,1.42,1.89,0.67,-2.3,-0.75,-0.55,-0.7,1.04,-0.3,-0.46
-1.14,-1.48,0.42,1.66,2,-1.34,-0.39,0.88,0.85,1,1,0.41
-1.77,-1.15,1.48,0.78,2,0.16,1.69,1.53,0.38,0.95,0.11,-0.16
-0.95,-0.72,1.59,1.88,0.47,-1.43,0.41,0.44,0.07,0.24,0.39,0.54
-1.18,-1.14,1.42,0.62,0.17,-0.5,1.1,0.26,-0.19,-0.13,-1.16,-1.53
-0.86,-0.62,0.22,0.8,1.52,-0.25,-0.66,0.37,-0.31,-0.78,-1.31,-0.81
-1.71,-2.06,1.16,1.77,0.17,-0.1,1.04,0.82,1.53,1.99,-0.51,0.94
-1.22,-1.43,1.68,2.22,1.89,0.92,2.4,1.27,-1.16,0.28,-1.61,-1.45
-0.81,-1.13,0.47,0.23,0.93,1.1,-0.44,-0.5,-1.27,-0.61,0.59,0.88
-1.17,-0.64,1.79,0.73,0.25,0.09,1.25,2.22,-0.43,0.69,0.39,0.33
-0.94,-0.94,1.02,0.88,0.52,-0.17,-1.43,-0.38,-0.42,2.68,0.49,-0.5
-1.37,-0.39,2.1,0.44,0.77,-0.73,0.71,0.91,0.26,0.62,0.51,-0.66
-0.69,-0.41,1.84,3.24,2.22,-0.58,1.68,0.02,-0.89,0.8,-1.78,0.91
-1.25,-0.62,1.69,-0.01,-0.02,-0.3,-0.33,-0.42,0.12,0.95,-0.79,0.79
-0.88,-0.9,-0.27,1.05,1.67,-0.27,2.12,0.77,-2.65,-0.14,0.26,-0.16
-1.27,-1.44,-0.79,-1.11,0.87,0.71,-0.19,-0.89,-1.07,0.15,-0.96,-0.64
-1.13,-2.46,-0.2,0.56,0.74,1.17,-0.09,-1,0.03,1.02,0.18,-0.53
-0.68,-0.52,1.37,0.91,0.53,0.32,1.45,-0.4,-2.64,-0.81,-0.57,-0.22
-0.88,-0.78,1.23,0.31,0.97,-0.81,-0.61,-0.86,-1.26,0.18,0.31,0.1
-0.7,0.59,2.01,0.55,0.68,-0.74,0,0.4,1.23,0.81,-0.48,-1.05
-0.28,0.07,0.92,1.25,0.22,-0.57,1.71,0.83,1.02,1.81,-0.55,-0.86
-0.55,-0.44,0.26,1.78,3.18,1.07,-0.26,0.64,-0.55,-0.06,1.68,0.4
-0.85,0.02,2.01,0.28,-0.28,-0.55,0.34,-0.73,-1.02,1.54,-0.66,-2.62
-0.75,-0.99,1.08,-1.25,-0.16,-0.06,0.4,0.21,-0.34,1.52,-0.57,-0.74
-0.52,-1.73,-1.83,-1.55,-1.47,-0.61,-0.93,-0.61,-1.18,0.44,1.5,0.26
0.08,0.74,0.23,0.46,0.93,-0.76,1.47,0.21,-0.72,0.62,0.6,-0.94
-0.77,0.41,1.59,-0.85,1.75,1.33,0.07,0.71,-0.83,-0.57,0.67,-0.06
-0.83,-0.68,0.32,0.24,-0.88,-0.73,0.65,0.65,0.08,1.52,-0.51,-1.48
-0.45,-0.33,-0.08,1.11,2.27,0.27,-1.49,-1.73,-1.98,-0.41,0.8,1.91
-0.73,-0.28,-0.93,-1.51,0.24,0.71,0.16,-0.91,0.89,1.37,1.74,1.28
-0.67,-0.37,0.01,0.23,1.51,0.62,2.08,0.17,-1.04,-2.25,-1.73,-1.22
-0.56,-0.58,0.3,-0.38,-0.83,2.45,2.13,1.04,1.11,-1.64,-0.73,0.88
0.02,-0.95,-0.61,1.41,0.25,1,0.22,-1.29,1.64,0.31,0.59,0.55
0.17,0,-1.03,-0.24,1.13,1.63,1.09,-0.4,0.27,0.5,0.93,1.2
-0.37,-0.51,0.18,0.51,0.5,0.45,0.05,-0.57,0.24,1.48,1.61,0.83
-0.26,-0.28,-1.05,-0.07,0.08,-0.16,1.46,-0.2,0.6,1.51,-1.02,-0.93
0.03,0.51,-0.34,-0.17,0.72,0.58,0.77,1.92,1.56,0.73,0.61,-0.5
-0.15,-0.03,0.5,-1.58,-0.09,0.69,-0.88,-0.64,-0.4,-0.2,0.4,-0.35
-0.02,-0.68,-0.69,0.49,0.01,-0.03,0.7,-0.89,0.89,1.86,0.79,0.14
-0.03,-0.92,-0.06,1.93,-0.31,0.01,0.54,-1.23,1.12,1.29,-0.59,0.87
0.49,1.17,0.76,1.44,1.13,-0.61,-0.1,-0.08,-0.81,-0.11,-0.54,-1.52
0.12,0.28,-0.28,-0.95,0.17,-0.81,-0.88,-0.3,1.15,0.63,-1.51,0.16
0.15,-0.15,-0.45,-0.68,-0.49,-1.08,-0.77,0.26,-0.09,1.02,0.52,0.25
0.23,-0.18,-0.12,0.18,0.12,-0.95,-2.24,-0.03,0.58,1.44,0.43,-0.8
-0.08,-0.48,-1.71,-1.01,-0.56,-0.01,0.73,2.05,0.66,0.06,1.12,0.95
0,-0.76,-0.85,-1.38,-0.65,-0.19,-1.36,-1.35,-2.1,-1.32,-1.65,-0.37
0.22,0.25,0.41,-0.37,-1.04,-0.77,-1.28,0.44,0.82,-0.65,-0.34,-0.01
-0.37,-0.5,-0.69,-0.12,0.36,0.01,0.18,1.03,-0.31,0.24,-0.76,-1.74
0.25,-0.19,0.13,-0.07,-0.25,1.94,0.68,1.22,0.58,-0.93,-1.33,-1.92
0.23,-0.58,-1.1,-0.54,-0.02,1.14,0.61,1.01,1.54,0.25,-0.72,-0.86
-0.08,-0.88,-1.04,-0.16,-0.46,-1.46,-0.41,0.28,-0.6,-0.46,-1.07,-0.05
0.68,1.22,0.13,-0.11,0.11,-0.42,-2.4,-0.98,-0.76,-0.56,0.95,0.34
0.17,0.3,-0.2,-0.12,-1.23,0.62,1.64,-0.78,-0.79,-1.08,-0.25,-0.3
0,0.59,0.13,-0.16,0.34,0.77,0.51,1.37,0.73,-0.3,0.24,1.52
0.45,-0.31,-0.5,0.16,-1.44,0.24,1.7,0.72,1.27,1.18,0.03,1.77
0.05,0.27,0.14,-1.08,-0.41,-0.17,-0.65,1.5,1.3,-1.45,-0.12,1.25
0.16,-0.05,-0.44,-0.92,-0.08,0.45,-0.59,-0.57,0.59,-0.39,0.37,2.1
-0.11,0.04,-0.3,-0.87,0.44,0.88,0.02,0.22,2,1.21,0.4,1.43
0.91,-0.17,-1.02,0.27,-0.68,-2.09,0.85,0.87,-1.02,-0.73,-0.68,-0.62
0.44,0.1,0.36,-0.73,-0.44,0.54,-1.26,-1.44,-1.5,-0.14,0.6,1.23
-0.14,-0.37,-0.27,0.48,1.05,1.83,0.52,-1.53,0.37,-1.88,-2.12,0.16
0.71,-0.38,-1.01,-0.99,-2.21,0.21,0.8,-1.46,0.18,0.28,-0.79,0.97
0.08,0.31,-0.59,-0.73,-1.66,-0.14,0.94,-0.1,0.33,0.11,0.89,1.36
-0.55,-0.92,-1.66,-0.73,0.31,-0.15,-0.89,-1.96,-0.54,-0.66,-0.88,1.29
0.55,-0.05,-0.61,-1.19,-1.29,-2.66,-1.86,-0.66,-0.98,-1.14,-1.39,0.09
-0.11,-0.29,-0.42,-1.04,-0.14,0.91,-0.56,-1.4,-0.7,0.33,0.19,2.01
0.71,0.95,-0.02,0.26,-1.09,-1.87,-0.51,-2.26,-1.75,0.2,0.64,0.99
0.44,-0.07,-0.76,0.36,1.67,0.92,-0.32,0.21,-1.16,-2.19,1.01,-0.17
-0.09,0.15,-0.18,-0.6,-0.03,1.69,0.42,0.04,1.26,0.29,-1,-1.13
0.13,-1.04,-1.52,-0.72,-0.34,1.84,1.23,0.71,1.43,-0.82,-0.24,-1.07
0.63,0.34,0.4,1.25,-0.46,-0.72,-0.88,-0.9,0.57,0.16,2.24,0.97
-0.01,-1.72,-2.01,-1.29,-1.38,1.97,-0.6,-0.74,0.09,-0.97,0.64,-0.51
0.72,0.67,0.22,0.8,0.15,0.97,-0.62,-1,-0.15,-1.79,0.05,1.09
0.5,-0.22,-0.44,0.18,-1.99,-1.69,-0.52,-1.79,-0.57,-0.29,1.43,2.08
0.09,0.39,-0.71,0.2,-0.06,0.36,-0.93,-1.54,0.74,-0.14,0.43,-0.04
0.31,-0.73,-1.81,-0.73,-0.68,1.03,0.24,0.56,0.73,-0.43,-0.21,-1.85
0.17,0.92,-0.33,-0.14,0.13,0.14,-0.1,0.71,1.48,-0.11,0.08,0.25
0.91,0.29,-1.06,0.15,-0.44,-0.26,-1.3,-0.48,0.7,0.18,2.37,-0.23
0.48,0.03,-0.51,0.61,0.32,1,-0.01,-1.87,-1.21,0.22,1.56,0.8
0.4,-0.41,-0.75,-0.87,-1.65,-1.4,-1.17,1.11,1.2,-0.33,0.12,-0.31
0.42,0.4,-0.31,0.52,0.86,1.12,-0.53,1.14,0.84,0.07,0.14,1.23
0.39,0.34,0.12,0.79,0.96,1.73,2.08,0.1,0.71,1.2,0.6,-0.42
0.63,0.07,-1.41,-0.11,-0.89,-0.48,0.93,0.32,1.81,0.92,1.13,0.57
0.65,0.76,0.58,0,0.26,0.08,-0.17,0.07,-0.54,-2,-1.83,-1.36
0.02,-0.26,-2.54,-0.37,0.39,0.07,-0.05,0.66,1.38,-0.6,0.71,1.43
1.07,0.86,-0.82,-1.89,-1.41,-0.1,0.92,-0.07,-0.53,0.52,1.4,1.94
0.32,-1.09,-2.29,-0.78,0.26,1.21,-0.06,0.56,-0.27,-0.22,0.07,0.65
0.27,1.07,0.95,0.76,1.22,-0.53,-1.47,-1.26,-1.17,-1.48,-0.93,-0.1
-0.02,-0.52,-0.63,-0.51,0.85,0.39,-0.69,-0.72,-1.43,-0.71,-0.49,-1.54
0.99,0.64,-0.01,-0.44,0.36,0.01,-0.41,1.01,-0.54,0.08,-0.41,-1.45
0.37,0.94,1,0.04,0.43,0.42,-0.64,0.71,-0.3,0.57,1.65,0.78
0.87,0.67,-0.5,-0.76,-0.16,-0.34,-0.21,-1.36,-1.21,0.77,0.09,-0.15
0.51,1.28,-0.5,-0.71,0.27,-1.44,-0.47,1.42,-0.31,0.62,2.98,0.94
0.26,0.37,0.1,-1.2,-1.28,-1.57,-1.11,-0.11,0.19,1.1,-0.63,-0.54
0.29,1.3,1.17,0.01,0.62,-0.92,-0.82,0.82,-0.78,-1.18,-0.87,-0.6
0.59,1.34,0.7,-1.09,-0.06,-1.2,-1.23,-0.14,0.03,-0.85,-1.85,-2.44
0.29,-0.65,-0.67,-0.09,-0.39,-0.75,-0.85,1.05,0.39,0.74,1.32,-0.05
0.72,1.64,0.31,0.03,-0.29,-1.36,0.6,-0.14,-0.82,-0.07,0.02,0.27
-0.15,-1,-0.44,-0.25,0.32,-0.38,-1.57,-0.28,-0.21,-0.15,-0.86,-0.15
0.09,0.22,0.26,0.02,0.14,-0.52,1.05,0.61,-0.66,0.31,0.07,0.11
0.62,1.37,0.21,-0.66,0.36,-0.8,-0.68,-0.83,0.89,0.81,0.32,0.39
0.77,1.47,0.54,-1.22,-1.42,-1.24,0.93,0.16,-0.86,-1.34,-1.67,-0.85
0.37,0.57,-0.75,-1.31,-1.14,-1.67,-0.02,1.03,1.28,1.28,-0.39,-0.06
0.58,0.61,0.6,0.73,-0.14,0.7,-1.07,-0.88,0.34,-0.26,0.33,-0.82
0.58,0.9,-1.11,-0.92,-0.47,-1.34,0.85,0.54,-0.16,-0.21,1.15,0.43
1.29,1.4,-0.39,-0.32,-0.48,-0.77,0.24,0.68,0.9,-0.3,0.2,0.23
0.7,1.4,0.83,0.63,0.85,0.97,-0.16,-0.95,-0.7,-0.65,0.2,-0.19
0.72,1,0.11,-0.29,-0.96,-0.04,1.3,1.14,-0.69,-1.11,0.1,-1.24
0.69,0.22,0.1,-1.98,-2.46,-0.49,-2.02,-1.56,-1.67,-1.89,-1.04,-0.31
0.67,0.64,-1.38,-0.99,-1.03,0.51,0.73,0.6,1.05,0.16,-1.32,0.4
0.1,-0.18,-0.17,0.77,-0.47,0.01,-1.42,-1.88,-0.6,-1.67,-2.1,-0.81
1.34,1.33,-0.97,-0.1,-1.17,-0.37,-0.51,-0.65,-1.23,-0.06,-0.99,-0.02
0.75,0.9,0.63,-1.32,-0.27,0.57,-0.74,1.1,2.04,-0.02,0.59,-0.4
0.57,0.88,0.19,-0.22,-0.95,0.01,1.15,0.59,0.6,-1.25,-1.15,-1.05
1.12,0.74,0.55,0.67,-0.06,0.51,-1.05,1.24,-0.59,-1.76,-0.97,-0.67
1.17,0.82,-1.16,-0.07,-1.32,-2.02,0.15,0.63,1.21,2.52,1.62,0.53
0.77,1.53,1.2,0.08,0.18,0.72,-0.45,-0.87,-0.28,-0.35,-0.7,0.84
0.81,0.94,0.33,0.13,-0.13,0.81,-0.49,-1.17,-0.28,-0.47,0.91,-0.83
0.64,0.94,1.73,1.8,0.54,0.78,-0.51,0.34,0.35,0.31,1.53,0.21
0.87,2.05,-0.34,-0.88,-0.1,0.57,-0.61,-2.09,-0.54,0.12,0.98,2.01
1.38,2.6,0.59,0.17,0.47,0.53,0.29,-0.21,-0.06,-1.84,-0.76,-0.56
1,0.2,-0.01,-0.8,-1.54,0.91,0.27,0.78,0.5,-0.24,0.73,-1.43
0.93,1.15,-0.33,-0.53,-1.8,-0.35,-0.74,-0.45,2.01,-0.12,-0.05,-0.16
1.04,1.21,-1.68,-1.15,-1.22,0.87,1.06,0.69,-0.34,-0.98,-0.19,0.14
1.51,1.86,-0.37,-1.17,-1.84,0.34,0.14,0.49,0.5,-0.82,-0.28,-1.44
