"V1","V2","V3","V4","V5","V6","V7","V8","V9","V10","V11","V12"
-5.57,6.28,-1.28,-2.35,-1,-1.82,1.63,0.23,0.62,-0.7,2.45,0.93
-4.77,2.21,0.61,-1.01,-2.06,-0.94,-0.17,-0.43,1.92,2.76,2.13,2.26
-2.84,0.28,-1.55,-0.62,-0.48,2.27,2.61,1.53,0.92,1.02,0.59,1.28
-3.17,-0.79,2.26,0.95,0.31,-1.74,0.33,-1.5,-2.87,0,2.35,2.88
-2.76,-1.49,2.05,-0.27,0.39,-0.51,0.51,-0.6,-1.75,2.39,3.15,1.92
-2.46,-1.71,2.41,-1.09,0.96,1.24,1.31,1.57,2.45,2.42,1.58,1.24
-2.46,-0.4,4.06,-0.3,-0.3,-0.42,1.4,0.82,1.7,2.75,3.02,2.14
-2.17,-1.25,1.62,-1.46,-0.83,0.8,3.58,2.17,0.81,0.81,0.73,-1.37
-1.45,-0.47,1.05,0.01,0.99,0.01,-0.62,0,-0.78,0.04,0.26,0.16
-1.14,-1.29,0.31,1.99,2.28,0.23,0.75,2,1.69,2.05,1.43,-0.01
-1.01,-0.08,-0.88,0.52,0.59,-0.78,0.14,0.93,1.95,0.7,0.19,1.54
-1.23,-0.18,1.45,0.49,1.92,1.88,2.29,-0.49,-0.99,0.07,0.18,-0.03
-0.59,-0.53,1.03,1.8,2.4,1.7,1.13,2,1.12,1.26,-0.4,-1.14
-1.15,-0.27,2.55,2.51,-0.29,-0.39,0.14,0.56,3.05,2.67,0.36,0.33
-0.34,0.49,1.01,-0.54,0.67,0.95,0.91,1.39,-1.19,-0.25,0.26,-0.3
-0.37,-0.49,0.53,-0.1,0.51,0.72,0.43,2.89,0.31,1.27,0.29,-1.06
-0.34,0.5,0.43,1.28,1.29,-0.41,-0.01,1.87,0.75,-0.46,-0.43,-0.54
0.29,1.34,-0.68,1.01,0.17,-0.84,-0.42,-0.16,0.82,1.1,-0.19,-0.4
-0.36,-0.21,-0.4,0.48,1.13,0.14,-1.57,-1.26,-0.42,0.95,0.19,-0.02
-0.39,0.79,-0.73,0.79,2.57,0.29,0.77,-0.86,-0.08,0.03,-1.17,0.31
0.36,0.62,-0.27,1.47,0.91,0.77,-0.81,1.57,-0.53,0.34,-0.71,0.27
-0.62,-0.17,1.96,2.28,0.51,1.11,0.52,-0.26,-0.06,-0.38,-0.6,0.32
0.22,0.92,-0.17,-0.51,1.07,0.71,-0.57,-0.9,-0.33,-0.4,-2.21,0.6
-0.36,-0.71,0.95,1.12,0.12,0.98,0.68,0.43,-0.15,-1.19,-3.18,-2.29
0.08,1.02,0.51,-0.32,-1.36,0.25,0.73,-0.66,0.19,-0.41,-0.91,-0.96
0.62,0.55,-0.6,-0.53,1.62,0.04,-1.11,0.57,0.89,0.56,-1.51,-1.02
-0.15,0.8,0.8,1.79,1.59,-0.65,0.58,-0.42,-0.67,0.24,0.24,0.68
0.28,0.74,1.75,1.35,1.34,0.83,0.26,-0.27,-0.79,-0.62,-1.14,1.36
0.09,-0.52,-0.3,-0.16,-0.22,0.97,2.29,2.25,-0.04,1.18,-0.29,-1.57
0.28,0.91,-0.07,-0.15,0.38,0.62,0.68,-0.64,0.86,1.2,-0.9,0.62
0.88,1.75,-0.86,1.21,0.09,0.21,0.44,-0.07,0.33,-0.55,-0.4,-0.41
0.06,-0.4,-0.45,0.65,0.48,-1.31,-0.78,-0.17,0.35,0.03,-0.72,0.01
0.4,0.34,0.71,0.98,1.41,2.08,0.35,-0.02,-1.23,-0.23,-0.35,-0.32
0.27,0.81,0.73,0.87,0.72,1.15,1.01,1.08,-0.02,0.01,-1.56,-1.34
-0.04,1.27,0.16,0.52,0.94,-0.61,1.28,-0.51,-0.14,-1.04,-1.3,0.46
0.79,0.98,-0.26,-0.31,-1.28,0.52,1.28,0.51,0.52,0.58,-0.32,-0.26
0.13,0.04,0.22,1.34,0.6,-0.11,0.06,-0.71,0.06,-0.36,-0.24,-0.01
0.41,0.63,-0.15,0.94,0.47,-0.61,-0.38,1.06,1.07,0.75,1.24,-0.07
0.02,-0.76,-0.04,-0.74,0.01,0.53,0.52,0.7,-0.69,-0.16,-1.3,-0.72
0.22,0.18,-0.73,-0.69,-1.22,0.51,0.33,-0.69,0.15,0.08,-0.36,-0.94
0.03,-0.8,0.01,-0.02,-1.06,0.89,0.42,0.84,0.85,0.07,1.26,0.38
-0.22,-0.05,0.54,-0.27,0.46,-1.09,-1.31,-0.7,-0.43,-0.62,0.22,-1.6
0.64,0.97,-0.58,-1.03,-1.59,0.85,0.28,-0.27,-0.27,-0.23,0.42,0.21
0.18,0.08,-0.19,1.27,0.11,0.31,0.46,1.04,2.69,1.26,0.35,-0.74
0.36,-0.08,0.63,0.36,-1.25,-2.09,-0.31,0.9,0.2,-0.68,-1.16,-0.1
0.58,0.08,0.15,-0.68,-2.56,-0.56,0.14,0.78,1.06,-0.72,-0.68,0.33
-0.11,-0.18,0.92,-0.37,-0.83,-1.2,0.11,-0.64,-0.7,-0.66,-0.57,-1.75
0.35,0.47,-0.57,-0.12,0.07,0.44,-1.54,-0.04,0,-0.1,-0.17,-0.92
0.28,-1.16,-0.25,-0.32,-0.84,1.47,-0.34,0.92,-0.01,-0.68,0.14,-1.24
0.43,0.82,-1.57,-1.16,0.83,1.06,0.04,-0.72,0.24,-0.55,-0.67,0.24
0.87,-0.64,-0.96,-1.25,-1.13,-0.18,-1.27,-1.94,-1.97,-0.1,-0.37,-0.64
-0.03,-2.23,-0.08,0.59,0.12,-0.31,-0.41,-0.23,1.75,1.37,0.68,0.63
0.45,-0.58,-1.03,-0.15,-1.09,0.37,-0.78,-2.07,-1.24,-1.72,-0.71,-1.34
-0.13,-0.58,0.94,-0.99,-2.16,-1.22,0.58,-0.32,-0.7,0.01,0.13,0.17
0.27,0.82,0.07,-0.18,0.49,-1.29,-0.57,-1,-0.3,-0.75,-0.4,1.08
0.29,-0.51,0.1,1.85,0.51,1.04,-1.49,-2.69,-0.97,-0.11,-0.02,-0.38
0.11,0.86,0.34,0.18,-0.63,-0.63,-0.52,-1.26,-0.47,0.67,0.45,0
0.75,1.23,-1.13,-0.34,-1.84,-0.74,0.49,-0.41,0.6,0.32,0.07,-1.05
0.08,-1.06,0.41,1.27,-0.7,-0.68,-1.46,0.44,-0.49,-1.04,-1.93,-0.65
0.33,1.83,0.46,-0.16,1.18,0.23,0.84,-0.02,-0.21,-0.68,-0.19,0.51
0.83,1.04,0.59,0.85,-0.64,0.86,-1.04,-2.53,-0.85,0.17,0.44,0.93
0.28,-1.25,0.68,-0.12,-0.3,-0.9,1.54,1.11,0.2,0.46,-0.18,0.01
0.5,0.35,-0.33,0.79,0.77,1.33,-0.15,0.54,-0.14,-0.37,-0.22,1.27
-0.07,-1.59,-0.24,0.25,0.67,0.32,0.99,-0.86,-0.48,-0.19,0.87,-1.1
0.25,0.61,-1.77,-1.34,-0.29,-0.54,0.74,0.32,0.5,-1.34,-1.57,-1.49
-0.05,-0.72,1.39,1.16,0.19,-0.91,-1.78,-1.17,-1.81,-1.03,1.11,0.25
0.19,-0.7,0.28,1.25,0.86,-1.22,-1.43,1.17,1.48,0.93,0.16,1.35
0.49,0.69,1.36,0.89,-0.59,-0.11,-1.16,1.16,0.01,0.67,1.35,0.72
0.14,-0.27,-1.04,-0.46,-0.46,-1.99,-0.51,-0.3,-0.75,-0.05,-1.62,-1.02
0.54,0.13,-0.23,0.31,0.12,-0.13,-1.99,-1.26,0.7,-1.08,-0.08,0.34
0.37,-1.15,-1.51,0.21,1.24,1.64,0.23,0.85,-0.54,-2.3,-0.45,-0.84
0.28,-0.13,1.3,1.13,-0.15,-0.89,-1.48,0.26,1.28,-0.21,-0.36,0.9
0.61,0.09,-1.91,0.97,-0.36,-0.1,-0.29,-0.72,-1.04,-0.8,0.51,0.02
0.05,-0.38,1.46,0.41,0.18,-0.68,0.04,-0.75,-0.71,-1.45,-0.58,1.3
0.38,1.56,1.19,-0.54,-0.61,-0.47,-1.29,0.02,-1.4,-0.97,0.05,0.25
0.26,-0.18,-0.22,0.08,0.27,-1.08,-0.88,0.08,-1.2,-0.86,0.43,-1.29
0.19,-0.33,0.45,-1.96,-0.38,-0.13,0.53,0.31,1.48,1.08,-0.32,1.99
0.59,0.83,-0.23,0.47,0.3,0.72,0.46,-0.03,-0.07,-0.14,-0.61,0.09
-0.33,-1.02,0.56,-0.41,-1.31,-0.88,-0.25,-0.15,-0.24,-0.63,-1.09,-0.24
0.51,0.59,-0.01,-1.84,-1.15,-0.07,0.28,0.4,-0.46,-1.67,-0.9,-0.44
0.35,0,-0.63,-1.26,-0.85,2.08,1.81,0.64,-0.87,-0.85,-0.01,-1.66
0.54,0.15,-0.14,0.41,1.62,0.25,-1.96,-0.68,0.19,0.76,-0.1,0.79
0.7,0.07,-1.14,0.18,0,2.64,-0.13,-0.71,0.26,0.48,0.32,-0.55
0.18,-0.3,0.66,0.71,-0.12,-1.19,-0.59,0.14,0.52,0.85,-0.44,-1.17
0.76,0.09,-0.71,0.28,0.05,1.44,0.21,1.31,0.35,-0.41,-0.11,0.03
-0.01,-0.75,-0.49,0.07,0.23,0.92,1.55,0.87,-0.87,0.65,0.28,-0.04
0.23,-0.65,-0.55,-0.58,1.57,0.44,-0.76,-1.27,-1.71,-1.79,-0.23,0.97
0.24,-1.02,-0.05,0.82,-0.09,0.35,-0.87,-0.27,-0.17,-0.24,2.12,1.81
0.18,-0.42,-1.46,0.2,0.72,-1.37,-0.82,0.1,0.2,0.32,0.23,0.59
0.59,0.31,-0.94,-0.54,-1.85,0.26,-0.68,0.19,0.21,0.39,0.33,-1.95
-0.09,-1.97,-1.56,-0.79,1.09,-0.4,-0.2,-1.45,-1.3,-1.87,-1.27,-1.15
0.43,-0.35,-0.46,-0.23,1.52,-0.53,-0.81,1.13,1.79,1.47,-0.1,0.99
0.81,0.73,0.89,-0.12,0.48,0.39,-0.61,0.59,0.09,1.29,0.91,1.82
0.35,0.27,-0.03,0.41,-0.22,-1.2,-0.75,-0.31,0.22,-0.02,0.47,0.72
0.18,-1.98,1.03,1.78,0.34,1.16,0.54,0.09,-1.36,-0.45,1.13,-0.47
0.17,-0.36,0.09,1.04,0.47,-0.56,-0.27,-0.16,0.25,-0.36,0.55,0.09
0.62,1.33,0.8,0.46,0.54,-0.65,-1.03,-0.13,0.42,0.36,-0.25,-0.18
0.32,-0.44,-0.93,-1.01,-1.29,-1.05,0.08,0.09,-1.61,-0.47,0.59,-1.92
0.45,-0.89,-1.3,-1.67,-1.28,-1.87,-1.91,0.73,-0.79,-0.96,-0.65,-0.02
0.67,0.02,-1.29,-0.94,-0.56,0.85,0.41,1.11,0.16,0.67,0.15,-1.06
0,-0.54,-0.19,-0.7,-1.07,-1.13,-0.36,-2.02,-2.78,-0.45,-0.03,-0.62
0.92,-0.59,-1.89,-0.95,-0.08,0.9,0.44,-1,-0.05,-0.04,0.07,1.18
0.23,-0.46,-0.45,-0.75,-0.26,-0.1,-0.59,-1.84,-0.76,1.67,0.48,-0.23
0.29,-0.28,-1.72,-0.84,-0.24,-1.45,-1.67,-0.91,-0.32,-1.73,-0.52,0.14
0.95,0.2,-1.05,-0.48,-0.22,1.07,0.39,-0.26,0.16,-0.53,-0.53,0.87
-0.27,-1.84,0.1,-0.48,0.01,0.04,0.12,0.68,-0.08,0.75,0.83,-0.42
0.79,-0.34,-1.23,-2.41,-0.33,1.51,1.7,0.52,-0.2,-0.17,0.48,-0.58
0.44,-0.12,-0.2,-0.85,-1.27,-0.32,0.93,0.65,-0.27,0.64,1.58,-0.58
0.71,0.67,-0.37,-0.94,0.2,-1.36,0.75,-0.1,-1.24,-1.06,0.52,-0.02
0.87,0.87,-0.62,-0.81,-0.01,1.11,-0.93,-1.37,-0.23,-0.8,-0.12,-0.65
0.05,-0.19,-0.21,-0.94,-0.58,-1.21,0.1,-0.11,0.01,-0.64,0.4,-0.48
0.94,-0.26,-0.74,-2.9,-2.98,-1.01,-1.65,-1.73,-0.47,-0.54,-1.95,-0.54
0.11,-0.86,-0.05,-0.16,-0.37,1.05,1.46,0.57,1.3,-0.82,-0.7,-0.77
0.3,0.49,-0.2,-0.39,0.04,0.21,-0.73,-0.48,0.38,0.27,-0.45,2.1
0.6,0.41,-1.48,-0.5,-0.76,0.12,-0.41,-0.09,0.42,0.35,1.23,1.18
0.16,-0.33,-0.38,-0.08,0.51,-0.74,-0.55,-1.18,-0.31,-1.2,-0.26,0.39
0.29,0.07,-0.89,-1.41,0.78,0.6,0.1,0.35,0.7,1.2,1.32,0.53
0.09,0.47,0.08,-0.01,0.41,0.91,0.2,0.01,-0.27,-2.02,-1.22,0.09
0.52,0.98,-0.33,-0.39,0,0.92,0.85,0.7,1.14,0.15,0.54,1.29
0.26,-0.07,0.26,0.25,-0.39,-0.86,-0.92,-1.23,-0.4,-0.23,0.24,-0.18
0.46,0.68,0.22,-0.66,-0.1,-1,-0.51,0.62,1.36,-0.71,-0.93,-0.06
0.56,-0.93,0.76,0.73,-0.87,0.14,0.09,0.86,1.19,2.23,1.42,-2.14
0.07,-0.49,0.15,-0.14,0.39,-0.12,-0.55,-0.28,0.03,-0.31,-0.78,0.62
0.47,0.1,-0.18,-1.53,-1.11,-1.25,0.75,-0.22,0.4,-0.71,-1.15,-0.31
0.12,-0.98,-0.05,-0.33,-1.48,-0.69,-1.04,-0.61,-0.62,-0.2,1,0.48
0.17,0.39,-0.07,0.87,0.53,-1.73,0.3,0.03,-0.43,-0.01,-0.38,0.07
1,-0.06,-0.84,1.76,1.1,0.67,0.05,-0.12,-0.06,-0.73,0.71,0.26
