"V1","V2","V3","V4","V5","V6","V7","V8","V9","V10","V11","V12"
-6.19,-5.82,-1.54,1.72,-1.12,1.02,-1.05,-0.75,-0.17,0.3,-0.1,-0.87
-0.98,-0.05,1.09,2,0.51,0.03,-0.31,-0.48,-0.62,-0.59,-0.52,-1.13
-0.42,0.66,0.71,0.67,0.58,-0.25,2.25,2.31,0.75,0.07,-0.22,0.65
0.1,-0.81,1.04,1.03,-0.08,-0.18,-0.69,-0.53,-1.52,-0.3,0.16,-0.36
-1.35,-1.03,-0.29,0.43,0.34,-0.25,-0.19,-0.4,-0.78,-0.4,0.61,0.44
-1.23,-0.12,0.1,0.23,1.44,0.68,0.28,-1.01,-0.77,0.27,-0.69,-0.64
-0.43,-0.24,1.1,1.6,0.71,0.48,0.95,-0.69,0.74,0.28,-0.34,0.78
-0.92,-1.36,-0.65,0.65,1.22,0.76,0.78,-1.64,-1.6,1.15,0.87,1.41
-0.13,-1.47,-0.71,-0.02,-1.47,0.03,0.16,-0.56,0.81,-1.42,-0.9,1.31
-0.31,-0.91,0.03,1.52,0.9,-0.72,1.06,0.81,-0.81,0.64,-0.09,-0.43
-0.31,0.59,1.07,0.94,-0.35,-1.15,0.9,0.85,-0.69,0.13,1.59,-0.82
-0.69,0.37,-0.7,-0.83,1.55,0.24,-0.32,0.17,1.13,-1.08,-1.22,0.93
-0.67,-0.16,1.31,1.28,-0.94,-0.8,0.29,-0.69,-0.71,-0.1,-0.47,-1.09
-1.1,-0.55,0.84,2.24,1.4,-0.33,0.15,-1.24,-0.37,0.95,0.57,1.08
-0.33,-0.74,-0.56,0.84,-0.26,-2.06,-1.97,-1.59,0.51,1.2,0.26,-0.26
-1.04,-0.87,-0.27,-1.44,0.16,0.94,-0.6,-0.44,-0.16,0.45,1.39,-0.03
-0.5,-1.15,-0.23,0.2,-1.23,-2.31,-0.29,1.57,-1.28,0.82,2.6,-0.32
-0.42,0.56,0.46,-0.15,0.9,-0.25,0.54,0.8,-0.43,1.74,2.75,1.27
-0.6,-0.17,0.24,-0.61,0.05,2.12,1.12,0.17,1.52,0.22,-0.69,-0.07
0.8,-0.19,0.93,1.22,-0.57,-0.45,-1.32,0.87,-1.25,-0.77,1.23,0.97
-0.45,-1.01,1.73,0.39,-0.01,-0.36,-1.01,0,0.67,-0.73,-0.48,0.95
-0.46,0.18,-0.06,0.72,2.74,1.16,0.32,0.35,0.23,0.03,1.46,-0.21
-0.73,0.57,0.09,0.05,0.35,-0.49,2.16,1.43,-1.29,0.07,2.34,-0.89
-1.88,-0.61,0.87,0.03,0.78,-0.44,0.16,1.67,0.12,-1.49,-0.3,-0.95
-1.03,-0.06,0.87,0.19,-0.84,-1.87,0.22,1.39,0.24,-0.8,-0.22,0.92
-0.42,-0.65,1.08,1.93,1.39,0.74,-0.99,0.39,-0.17,-1.25,1.1,-0.09
-0.82,-0.58,-0.07,0.36,-0.36,-0.05,-0.13,-1.88,-2.13,-1.12,-0.76,-0.22
0.03,0.53,1.01,1.25,0.86,-1.05,-1.4,0.8,0.02,0.25,1.44,-0.47
0.18,0.38,1.36,0.17,0.11,2.26,-0.34,-0.52,1.06,-0.74,-1.76,-1.28
-0.62,-0.23,1.78,1.52,0.6,0.19,-0.18,1.42,0.07,-1.07,0.84,-0.14
-0.74,0.24,0.49,0.01,1,1.33,1.1,0.06,0.4,-0.68,0.4,2.36
-0.57,-0.1,1.36,1.12,0.08,0.88,-0.55,0.2,-0.56,-1.24,0.66,0.45
-0.11,0.85,0.45,0.32,0.33,0.68,-0.46,-0.96,-1.33,-1.27,-0.39,0.91
-0.68,0.81,0.43,0.16,0.71,-0.51,0.8,1.06,0.69,-0.79,0.23,0.94
-0.27,0.26,0.64,1.12,1.66,1.01,1.21,1.16,-1.01,-1.61,0.38,-0.3
-1.03,0.13,0.32,0.46,1.41,0.22,0.07,-0.45,0.4,-0.32,0.78,0.56
-0.28,0.32,0.68,0.05,1.21,1.68,-0.48,-0.46,-1.76,-2.06,-0.11,0.56
0.21,0.38,0.3,-0.61,-0.13,0.79,0.45,0.17,-0.21,-0.66,-0.36,-0.69
-0.23,0.17,0.96,0.83,0.28,-0.22,-0.1,1.66,0.76,-2.1,-1.41,-1.88
-0.44,-1.07,0.84,0.41,0.56,1.1,-0.12,0.7,0.9,-1.94,-2.19,-1.17
-0.21,1.01,0.93,-0.27,0.36,-0.22,-0.41,-0.48,0.19,0.07,-2.44,-0.77
-0.46,0.67,0.85,0.11,0.27,-0.3,0.38,0.24,0.02,-0.01,0.12,-1.11
-0.27,-0.47,1.06,0.05,-0.03,-1.38,-0.58,1.81,1.14,-0.83,1.37,2.32
-0.37,0.13,1.2,0.09,0.9,0.47,-0.78,-0.38,-0.46,0.71,1.88,1.16
-0.52,0.64,0.47,0.2,1.46,0.45,-1.03,-0.48,-0.01,-1.52,-0.58,1.99
-0.86,-0.42,-0.95,-0.34,1.06,1.22,1.92,1.9,1.27,0.95,1.68,-0.04
-0.99,0.08,0.27,0.1,1.16,0.67,0.04,-0.93,-1.4,-1.2,0.01,-1.44
-1.84,-2.65,-0.29,-0.89,0.79,-0.32,-2.25,0.17,-0.41,-0.35,1.53,0.93
-0.78,-0.49,-0.41,0.8,1.69,0.15,0.08,0.36,0.9,-0.67,-0.92,-0.75
-0.71,-1.69,0.3,-0.78,0.4,1.18,0,0.56,1.76,-0.75,-1.44,-0.3
0.5,-0.97,0.81,0.52,-1.32,-0.36,0.26,-1.51,-0.76,1.45,1.72,0.31
-0.27,0.71,0.81,0.21,0.61,-1.69,-1.48,1.12,-0.28,-1.11,1.19,0.62
-0.02,-0.04,0.12,-0.46,0.84,0,-1.29,1.22,1.99,-0.22,-0.03,0.88
-0.79,-0.1,0.49,-0.44,1.24,0.25,0.21,-0.19,-1.19,0.46,0.03,0.81
-0.25,0.29,0.71,-1.28,-0.94,-1.16,-1.87,0.51,-0.72,0.82,-0.15,-1.52
-0.72,0.3,0.02,-0.27,1.88,-0.34,-0.4,0.84,-0.82,-1.16,-0.58,-0.44
-0.59,-0.43,1.18,-0.53,0.65,0.07,-0.67,1.07,0.41,-0.81,-0.6,0.06
-0.08,-0.14,1.86,0.02,-0.09,-0.67,-1.4,1.15,1.84,1.18,-0.14,1.18
-0.45,0.76,1.52,-0.03,1.28,0.62,-0.08,1.52,-0.2,0.16,-0.39,0.06
-0.62,0.64,0.82,0.69,0.98,-0.43,1.98,0.87,-0.95,1.25,-0.36,-1.05
-0.82,-1.35,0.98,0.85,0.57,-0.69,-1.38,-0.16,0.41,0.73,0.52,0.36
0.07,-0.35,0.54,-0.67,-0.24,0.77,-0.5,0.77,-0.3,-0.25,-1.43,-0.54
-0.42,-1.15,0.02,-0.15,-1.97,-1.13,-1.03,-0.6,-2.01,-1.75,0.1,0.35
-0.08,-1.36,-0.82,0.32,0.3,0.45,0.49,0.31,-0.63,0.41,0.99,-0.35
-0.49,1.14,1.65,-0.16,1.41,0.37,-1.79,-0.58,0.78,-0.16,-1.81,-0.45
-0.06,-0.31,0.55,0.67,0.55,0.09,-1.25,-0.63,-2.28,-0.99,0.11,-0.03
-0.96,-1.22,0.59,0.17,-0.45,0,-1.49,-0.69,1.75,-0.33,-1.04,-0.12
-0.48,0.39,1.66,-0.69,-0.1,-0.21,-2.08,0.79,0.97,-1.75,-0.47,-0.01
0.17,-1.33,0.6,1.83,0.18,0.24,1.7,0.95,-2.02,-0.4,-2.03,-2.47
-0.73,0.57,0.94,-0.08,1.81,0.57,-0.63,0.56,1.3,1.14,1.08,0.52
-0.11,0.44,0.02,1.28,1.61,-0.72,0.56,1.17,0,0.06,1.2,-1.55
0.36,-1.25,-0.52,0.26,-0.93,-1.57,-0.31,1.28,-1,-0.44,0.22,-0.27
-0.57,-1.36,0.42,-0.2,0.17,1.64,0.93,0.35,0.56,-0.67,0.04,1.65
-0.07,-0.82,-0.26,0.45,-0.59,-0.54,-0.41,-1.5,-0.78,0.08,-0.45,0.46
0.55,-1.3,-0.68,1.11,-1.04,-0.12,-0.52,-1.77,-0.93,1.34,1.26,2.03
0.57,0.37,1.05,1.01,-1.3,-1.95,-1.05,-1.08,-0.57,-0.28,-0.6,-1.22
0.79,1.17,-0.47,0.38,-0.14,-0.18,-0.13,-1.51,0.39,-0.42,-0.7,-1.25
0.16,-0.11,-0.73,-0.73,-2,-0.63,-0.15,-2.11,-0.02,1.27,-0.97,0.54
0.32,-0.87,-0.97,-0.39,-2.94,-0.79,0.5,-0.01,-0.41,0.1,1.25,-1.05
-0.21,1.09,-0.25,-1.21,1.25,1.68,0.67,1.11,1.54,-0.45,0.63,1.33
1.11,0.01,-0.28,2.13,-0.41,-1.26,1.48,-1.51,-1.42,1.16,-0.28,-0.41
-0.71,0.66,1.13,1.37,0.74,1.07,0.42,-0.82,3.58,0.29,-2.36,1.18
0.06,-0.59,-0.25,1.34,0.45,0.16,-0.06,-1.44,0.04,0.16,-1.97,1.04
-0.18,-0.43,0.5,0.7,-0.05,0.19,0.31,1.23,0.61,-0.12,-0.29,-0.89
0.47,-0.08,0.9,0.32,-1.72,-0.33,-0.05,0.41,0.47,-0.33,0.07,-0.64
0.08,-0.5,1.2,0.86,-1.02,-0.97,-0.05,-0.04,0.23,-1.71,-1.48,0.41
1,0.32,-0.23,1.15,-1.14,-1.32,2.08,-0.49,-1.84,2.47,-0.22,-2.17
0.34,-0.09,0.92,1.11,-0.74,-0.34,-0.29,-0.55,-0.45,-0.65,-1.45,-0.34
-0.23,0.21,0.01,0.21,-0.18,-0.25,0.05,-0.96,0.03,-1.16,-0.09,0.5
0.4,0.9,0.4,0.01,-0.88,-2.3,0.2,0.17,0.87,1.04,-0.47,-0.87
0.12,1.37,0.72,0.87,-0.4,-2.69,0.01,-0.3,1.08,2.22,0.96,1.73
-0.22,-0.97,-0.12,0.08,-1.03,0.27,-0.03,-0.87,0.61,0.61,-1.09,-0.57
0.43,0.59,-1.31,-0.74,0.04,-0.28,1.93,0.45,0.04,0.79,-0.08,-0.41
-0.14,0.25,-0.9,0.12,-0.2,-2.21,-0.31,-0.13,1.02,-0.22,0.72,0.75
0.05,0.38,0.44,1.06,-0.1,-1.22,0.61,-0.12,1.91,1.91,-0.8,1.25
0.6,0.79,-1.26,-0.29,-1.46,-1.35,0.6,-1,0.39,1.09,-0.51,-0.08
0.95,-0.1,-0.55,-0.5,-1.04,-0.17,0.66,0.47,-1.72,-1.72,-0.25,-1.7
1.05,0.1,-0.4,-0.16,-0.77,0.48,-0.81,-1.46,-0.37,0.28,-0.99,0.98
0.81,-0.3,-0.91,0.31,0.16,-0.15,-0.39,-0.64,-0.37,-1.01,-0.87,0.13
0.33,0.62,-1.67,-1,-0.51,-0.33,1.64,-0.31,-0.14,1.02,-0.11,-1.35
0.53,-0.72,-0.01,-0.04,-1.83,-0.86,-2.53,-1.39,-0.6,0.01,0.23,-0.04
0.4,0.45,-0.71,-1.54,-0.76,-0.81,-0.45,-0.22,-0.13,1.14,1.14,1.86
0.56,-0.72,-1.94,-1.31,-0.05,2.08,2.05,0.67,0.85,0.86,-0.29,-0.39
0.77,-0.43,-0.9,-1.49,-1.49,0.25,-1.03,-0.55,0.93,-0.03,-0.41,-0.25
0.64,-1.14,-1.31,-0.75,-1.77,-0.26,-1.01,0.06,0.6,0.84,1.19,0.08
1.28,0.48,-0.98,-0.55,-0.79,-0.9,0.13,-1.11,-1.28,2.13,0.23,0.33
0.21,-0.72,-2.54,-2.19,-1.05,-0.94,-1.14,-0.98,-1.04,-0.72,0.77,0.99
1.36,1.88,-0.24,-0.9,-0.65,-0.23,0.1,0.78,0.1,-0.8,-0.25,-0.73
1.5,1.43,-0.2,-0.32,0.91,0.74,-1.02,-0.55,-0.11,1.46,-0.24,0.39
1.29,1.47,-0.2,-0.85,-1.54,-0.26,2.03,1.28,0.98,0.77,0.09,0.28
0.88,1.31,-1.26,-1.59,-0.86,0.42,0.28,-0.49,0.21,-0.52,0.46,0.98
0.73,1.42,-1.42,-1.3,-0.51,0,1.4,-1.13,-0.17,-0.02,-0.34,0.81
0.84,1.37,-0.44,-1.25,-0.22,0.93,0.83,0.27,-1.02,0.12,0.22,-1.42
1.36,0.89,-1.74,-1.87,0.39,0.23,1.71,2.04,1.56,0.89,0.02,0.46
1.07,0.76,-1.06,-0.55,-0.44,0.42,0.55,1.26,0.69,-0.5,-0.71,-1.25
1.64,1.04,-1.36,-1.54,-0.12,1.38,1.05,1.1,0.78,0.52,-0.13,-0.56
1.36,1.44,-1.72,-2.31,-1.3,0.4,-0.07,-0.4,0.71,1.88,0.02,-1.95
1.33,1.43,-1.2,-1.31,-0.57,-0.7,-0.03,-0.69,-1.02,2.01,0.23,-0.18
1.56,1.09,-2.03,-1.36,-0.52,0.71,-0.52,-1.2,-0.11,0.23,0.16,-0.25
2.25,2.1,-1.54,-1.21,0.13,0.76,-0.22,-0.75,1.19,1.23,1.19,-0.44
1.55,0.59,-0.86,-1.11,-1.76,0.55,0.75,0.91,0.64,-0.07,-0.41,-0.6
1.59,1.53,-0.92,-1.2,0.37,1.68,1.03,1.49,-0.2,0.08,-0.45,-1.34
1.65,0,-1.96,-2.22,0.7,2.25,-0.86,-0.33,-0.43,-0.4,0.25,-0.39
1.75,0.88,-1.02,-0.87,-0.66,0.9,-0.37,-1.07,-0.01,1.31,-0.22,-0.71
1.71,0.86,-1.96,-1.12,-1.01,0.41,-0.23,-1.17,1.09,0.87,1.77,2.45
1.69,0.57,-2.05,-2.03,-0.28,1.87,0.67,-2.09,0.18,1.21,-1.18,0.97
1.49,0.35,-1.99,-1.78,0.08,1.85,1.67,0.43,0.6,-0.34,-0.04,-0.64
