"V1","V2","V3","V4","V5","V6","V7","V8","V9","V10","V11","V12"
-0.19,-0.73,-0.53,0.67,0.48,1.31,1.38,-1,-1.47,0.03,-0.06,-0.44
-0.19,1.77,0.43,0.09,1.67,-0.84,-2.3,0.91,-1.11,-0.77,0.58,1.69
-1.8,0.37,-0.42,-0.54,1.5,-0.5,-1.26,1.62,-0.15,-1.7,0.31,1.07
-0.41,2.15,1.25,0.04,1.37,-0.88,-1.62,1.22,0.19,-1.66,0.09,2.33
-0.26,-0.02,-0.12,-0.07,-0.27,-0.6,-0.11,-0.31,-0.01,0.86,-0.2,-0.99
0.13,-0.55,-0.03,-0.68,-1.13,-0.17,1.11,0.56,0.9,0.96,-1.53,-1.65
0.22,0.77,-0.95,-0.98,0.19,-0.75,-0.32,0.92,-0.74,-0.2,1.16,0.83
-0.78,0.11,1.08,1.28,-0.33,-0.12,0.52,-0.21,0.67,0.16,-0.17,0.93
-0.61,-0.27,2.7,2.61,-1.41,1.44,0.9,-1.74,2.37,0.51,-0.58,-0.78
-1.48,-2,0.09,0.72,-1.16,1.88,0.87,-1.45,0.89,-1.52,-1.49,0.24
0.58,-1.1,1.04,0.64,-0.42,1.59,-0.13,-1.26,1.94,0.89,-1.6,-0.14
1.5,-0.17,1.11,0.1,-0.27,2.02,0.52,-1.31,0.44,1.66,-0.82,-0.59
-0.52,-1.79,-0.57,-0.29,-2.01,0.79,1.14,-1.13,1.21,0.18,-1.51,-0.93
1.11,-1.36,-0.36,-0.78,-1.28,-0.33,0.08,-0.66,-1.03,1.54,-0.66,-0.99
3.03,0.9,0.42,0.36,0.46,0.43,0.19,-0.19,-0.92,1.12,0.94,-1.32
0.41,0.06,-0.3,1.35,1.23,-0.59,0.32,-0.29,0.3,0.93,-0.72,-0.22
0.11,0.04,-0.97,0.19,0.61,-0.59,1.64,0.06,-0.95,-0.75,-0.17,1.11
-0.14,0.25,-0.58,0.18,0.37,-1.08,0.08,0.65,-0.5,0.01,0.77,0.24
-0.25,-0.14,-2.18,-1.83,-0.3,-0.81,-0.12,-0.03,-0.73,-0.15,0.9,0.23
0.98,0.95,-0.25,-0.15,1.01,0,-0.65,0.39,0.33,0.15,0.6,-0.49
-0.64,0.2,-0.33,-1.11,-0.53,-1.17,-0.21,0.92,-0.84,-1.18,0.88,-0.37
-0.46,-0.12,-0.97,-1.77,-0.38,-0.71,-0.56,1.56,-0.23,0.11,1.61,-0.46
-0.31,0.66,0.45,-0.03,0.6,-0.31,-1.46,0.77,-0.57,-1.19,1.66,0.71
