"V1","V2","V3","V4","V5","V6","V7","V8","V9","V10","V11","V12"
-3.07,-4.27,-0.08,-1.2,0.48,-0.37,-0.02,0.29,0.24,0.19,0.52,0.48
0.91,-0.21,0.47,0.31,0.74,0.41,0.58,0.66,0.48,0.53,0.65,0.62
0.91,-0.21,0.47,0.31,0.74,0.41,0.58,0.66,0.48,0.53,0.65,0.62
-1.12,0.28,-0.05,-2.53,-0.44,1.39,0.33,0.07,0.69,-0.97,0.23,-0.46
-0.29,1.87,-1.45,-1.73,-1.78,1.54,-0.71,-1.71,-2.6,1.18,-1.49,-1.72
0.04,0.91,-1.75,-0.76,-2.46,0.27,-2.57,-2.01,-1.07,-0.85,-1.34,-1.11
0.15,0.9,-2.16,-0.58,-2.06,-2.15,-0.46,-0.55,-2.32,0.47,-0.61,-0.58
0.14,0.96,-2.67,-0.35,-2.22,-1.02,-1.09,-1.52,-1.46,-0.41,-2.94,-2.34
0.03,0.99,-2.02,0.45,-2.13,-0.33,-2.8,1.46,-0.27,1.35,-1.02,0.23
-0.43,0.7,-1.18,1.16,-1.61,-1.27,-1.16,0.59,0.39,0.86,-1.27,-0.62
-0.72,0.87,0.12,1.26,-0.6,-1.2,0.87,1.02,2.04,-0.22,-0.57,0.7
-0.95,0.39,0.72,0.62,-0.62,-1.63,-0.37,0.14,0.57,0.22,-0.59,-0.43
-0.97,-0.14,0.57,-0.53,-0.67,-1.03,0.21,0.69,1.12,-0.3,-1.16,-1.05
-1.11,-0.41,0.01,-1.02,-0.07,-1.12,-0.35,0.62,0.81,0.18,-0.21,-0.95
-1.1,-0.09,-0.38,-1.92,-0.12,-0.77,0.23,0.47,0.88,0.23,-0.33,-0.94
-1.16,-0.04,-0.17,-0.93,0.2,-0.85,-0.58,0.49,0.34,-0.64,-0.92,-1.7
-1.23,-0.57,-0.52,-1.61,0.04,-0.6,0.78,0.07,0.4,-0.81,-0.04,-0.3
-1.55,-0.51,-0.75,-2.06,0.29,0.41,0.22,-0.24,0.11,0.74,0.29,0.08
0.91,-0.21,0.47,0.31,0.74,0.41,0.58,0.66,0.48,0.53,0.65,0.62
0.91,-0.21,0.47,0.31,0.74,0.41,0.58,0.66,0.48,0.53,0.65,0.62
-1.94,-3.43,-1.14,0.21,0.07,0.6,-1.06,0.86,-0.29,0.89,0.18,0.84
0.91,-0.21,0.47,0.31,0.74,0.41,0.58,0.66,0.48,0.53,0.65,0.62
0.91,-0.21,0.47,0.31,0.74,0.41,0.58,0.66,0.48,0.53,0.65,0.62
0.91,-0.21,0.47,0.31,0.74,0.41,0.58,0.66,0.48,0.53,0.65,0.62
0.91,-0.21,0.47,0.31,0.74,0.41,0.58,0.66,0.48,0.53,0.65,0.62
0.91,-0.21,0.47,0.31,0.74,0.41,0.58,0.66,0.48,0.53,0.65,0.62
0.91,-0.21,0.47,0.31,0.74,0.41,0.58,0.66,0.48,0.53,0.65,0.62
0.91,-0.21,0.47,0.31,0.74,0.41,0.58,0.66,0.48,0.53,0.65,0.62
0.91,-0.21,0.47,0.31,0.74,0.41,0.58,0.66,0.48,0.53,0.65,0.62
0.91,-0.21,0.47,0.31,0.74,0.41,0.58,0.66,0.48,0.53,0.65,0.62
0.91,-0.21,0.47,0.31,0.74,0.41,0.58,0.66,0.48,0.53,0.65,0.62
0.91,-0.21,0.47,0.31,0.74,0.41,0.58,0.66,0.48,0.53,0.65,0.62
0.91,-0.21,0.47,0.31,0.74,0.41,0.58,0.66,0.48,0.53,0.65,0.62
0.91,-0.21,0.47,0.31,0.74,0.41,0.58,0.66,0.48,0.53,0.65,0.62
0.91,-0.21,0.47,0.31,0.74,0.41,0.58,0.66,0.48,0.53,0.65,0.62
0.91,-0.21,0.47,0.31,0.74,0.41,0.58,0.66,0.48,0.53,0.65,0.62
0.91,-0.21,0.47,0.31,0.74,0.41,0.58,0.66,0.48,0.53,0.65,0.62
0.91,-0.21,0.47,0.31,0.74,0.41,0.58,0.66,0.48,0.53,0.65,0.62
0.91,-0.21,0.47,0.31,0.74,0.41,0.58,0.66,0.48,0.53,0.65,0.62
0.91,-0.21,0.47,0.31,0.74,0.41,0.58,0.66,0.48,0.53,0.65,0.62
0.91,-0.21,0.47,0.31,0.74,0.41,0.58,0.66,0.48,0.53,0.65,0.62
0.91,-0.21,0.47,0.31,0.74,0.41,0.58,0.66,0.48,0.53,0.65,0.62
0.91,-0.21,0.47,0.31,0.74,0.41,0.58,0.66,0.48,0.53,0.65,0.62
0.91,-0.21,0.47,0.31,0.74,0.41,0.58,0.66,0.48,0.53,0.65,0.62
0.91,-0.21,0.47,0.31,0.74,0.41,0.58,0.66,0.48,0.53,0.65,0.62
0.91,-0.21,0.47,0.31,0.74,0.41,0.58,0.66,0.48,0.53,0.65,0.62
0.91,-0.21,0.47,0.31,0.74,0.41,0.58,0.66,0.48,0.53,0.65,0.62
0.91,-0.21,0.47,0.31,0.74,0.41,0.58,0.66,0.48,0.53,0.65,0.62
0.91,-0.21,0.47,0.31,0.74,0.41,0.58,0.66,0.48,0.53,0.65,0.62
0.91,-0.21,0.47,0.31,0.74,0.41,0.58,0.66,0.48,0.53,0.65,0.62
0.91,-0.21,0.47,0.31,0.74,0.41,0.58,0.66,0.48,0.53,0.65,0.62
0.91,-0.21,0.47,0.31,0.74,0.41,0.58,0.66,0.48,0.53,0.65,0.62
0.91,-0.21,0.47,0.31,0.74,0.41,0.58,0.66,0.48,0.53,0.65,0.62
0.91,-0.21,0.47,0.31,0.74,0.41,0.58,0.66,0.48,0.53,0.65,0.62
0.91,-0.21,0.47,0.31,0.74,0.41,0.58,0.66,0.48,0.53,0.65,0.62
0.91,-0.21,0.47,0.31,0.74,0.41,0.58,0.66,0.48,0.53,0.65,0.62
0.91,-0.21,0.47,0.31,0.74,0.41,0.58,0.66,0.48,0.53,0.65,0.62
0.91,-0.21,0.47,0.31,0.74,0.41,0.58,0.66,0.48,0.53,0.65,0.62
0.91,-0.21,0.47,0.31,0.74,0.41,0.58,0.66,0.48,0.53,0.65,0.62
0.91,-0.21,0.47,0.31,0.74,0.41,0.58,0.66,0.48,0.53,0.65,0.62
0.91,-0.21,0.47,0.31,0.74,0.41,0.58,0.66,0.48,0.53,0.65,0.62
0.91,-0.21,0.47,0.31,0.74,0.41,0.58,0.66,0.48,0.53,0.65,0.62
0.91,-0.21,0.47,0.31,0.74,0.41,0.58,0.66,0.48,0.53,0.65,0.62
0.91,-0.21,0.47,0.31,0.74,0.41,0.58,0.66,0.48,0.53,0.65,0.62
0.91,-0.21,0.47,0.31,0.74,0.41,0.58,0.66,0.48,0.53,0.65,0.62
0.91,-0.21,0.47,0.31,0.74,0.41,0.58,0.66,0.48,0.53,0.65,0.62
0.91,-0.21,0.47,0.31,0.74,0.41,0.58,0.66,0.48,0.53,0.65,0.62
0.91,-0.21,0.47,0.31,0.74,0.41,0.58,0.66,0.48,0.53,0.65,0.62
0.91,-0.21,0.47,0.31,0.74,0.41,0.58,0.66,0.48,0.53,0.65,0.62
0.91,-0.21,0.47,0.31,0.74,0.41,0.58,0.66,0.48,0.53,0.65,0.62
0.91,-0.21,0.47,0.31,0.74,0.41,0.58,0.66,0.48,0.53,0.65,0.62
-1.8,-2.11,0.04,2.55,1.43,0.77,0.32,0.63,2.18,0.81,0.03,-0.36
-0.72,0.49,-0.5,0.11,-0.4,3.24,0.15,-2.24,0.32,1.25,-0.8,-0.22
-0.41,0.84,-1.29,1.49,-1.47,0.71,-0.57,-0.47,-0.27,-1.35,-1.62,-2.02
-0.23,0.77,-1.62,1.82,-1.81,0.79,-0.96,-1.15,0.25,-0.57,-3.29,-1.31
-0.17,-0.06,-3.74,0.35,-2.2,0.02,-0.54,-0.72,0.02,-0.87,-2.83,-0.48
-0.21,0.55,-3.04,0.88,-1.68,0.61,-1.88,-2.22,-0.57,0.53,-2.04,-0.48
-0.51,1.02,-1.87,-0.15,-0.81,0.23,-0.64,-1.65,-0.65,0.07,-0.75,-1.91
-0.93,0.28,-0.39,-0.71,-0.67,-1.44,-0.47,-1.04,-0.16,0.21,-0.49,-1.78
-1.16,-0.17,-0.33,-0.78,0.11,-2.33,-2.14,-0.49,0.43,0.88,-0.03,-1.64
-1.32,-1.15,0.13,-0.32,0.01,0.55,0.74,0.33,0.35,0.29,0.13,-0.32
-1.33,-0.65,0.83,-0.14,0.22,0.36,-0.15,0.14,0.1,-0.81,-1.36,-1.91
-1.51,-1.06,-0.37,-1.64,0.22,-0.08,-0.39,0.43,0.02,-0.28,0.24,1
-1.96,-2.52,-1.79,-0.37,0.49,-1.09,0.62,-0.12,0.17,0.41,0.06,0.96
0.91,-0.21,0.47,0.31,0.74,0.41,0.58,0.66,0.48,0.53,0.65,0.62
-1.94,-3.47,-0.84,-0.19,0.22,0.33,-0.62,0.64,-0.01,0.57,0.37,0.67
0.91,-0.21,0.47,0.31,0.74,0.41,0.58,0.66,0.48,0.53,0.65,0.62
0.91,-0.21,0.47,0.31,0.74,0.41,0.58,0.66,0.48,0.53,0.65,0.62
-1.78,-1.22,-1.34,-0.85,0.73,-0.44,-0.32,1,-0.46,-0.44,1.19,-0.43
-0.6,1.29,-0.38,-2.7,-1.54,1.44,0.98,-2.13,-3.8,-0.67,0.84,-0.26
-0.25,0.77,-1.41,-1.5,-2.3,0.03,-1.34,-1.35,-2.09,1.09,-0.99,-0.98
-0.17,0.39,-2.05,1.52,-1.68,-1.05,-3.01,-2.62,-1.47,0.44,-2.19,-1.94
-0.15,0.43,-1.9,1.6,-1.32,-0.17,-3.05,-2.12,-1.64,-1.15,-0.25,-0.55
-0.25,1.36,-1.06,1.01,-1.33,-0.91,-0.96,-1.26,-0.85,-1.5,-2.09,-1.85
-0.56,2,0.01,-0.11,-1.45,0.23,-2.57,-2,-2.28,-1.59,-1.41,-1.68
-0.84,1.6,1.44,-0.56,-1.01,-0.88,0.4,-1.39,-1.33,-0.52,0.14,0.08
-1.03,0.58,1.74,1.44,0.12,-0.48,-2.02,-0.51,0.28,-0.85,1.19,1.21
-1.13,-0.51,1.11,1.08,0.11,0.92,0.55,0.41,-0.11,-1.22,-0.25,-0.67
-1.2,-0.28,1.56,1.56,0.39,1.7,-0.41,0.53,1.5,-0.28,0.01,0.69
-1.21,-0.58,2.37,2.53,0.47,1.75,-0.12,-0.13,1.82,0.93,0.09,1.28
-1.13,0.09,1.61,2.57,0.19,1.97,1.75,-0.51,0.83,-2.04,-0.48,1.45
-1.02,0.33,1.12,0,-0.04,0.23,-0.62,-0.91,-1.15,-2.24,0.4,1.33
-0.79,2.16,1.08,-2,-1.49,-0.97,-0.53,-2.03,-2.42,-2.12,0.26,0.03
-0.69,1.64,0.51,-1.29,-1.33,-1.06,0.35,-1.76,-1.24,-1.85,-1.21,-0.88
-0.58,1.47,-0.67,-0.94,-1.69,-2.89,-0.73,-0.79,-2.02,-4.79,-1.74,-0.3
-0.58,1.72,-0.82,0.35,-1.74,-3.13,-2.47,-0.71,-1.54,-2.08,-2.13,-3.4
-0.67,1.45,-0.71,-1.54,-1.85,-2.95,-2.07,-2.29,-1.52,-1.44,-2.65,-2.71
-0.85,1.36,0.43,-1.73,-1.46,-3.15,-1,-1.1,-1.07,-0.39,-0.9,-1.12
-0.98,0.86,0.83,-0.57,-0.27,-0.88,0.86,-0.12,-1.34,-2.34,-0.37,0.08
-1.16,-0.19,0.13,-0.26,0.38,-0.91,-1.42,-0.95,-0.45,-0.14,0.23,0.61
-1.29,-0.52,-0.31,-1.76,0.28,-0.24,-0.65,-0.5,-0.76,-2.63,0.12,1.33
-1.92,-2.96,-0.53,-1.4,0.14,1.13,-1.53,0.11,0.95,-1.81,1.27,-0.46
0.91,-0.21,0.47,0.31,0.74,0.41,0.58,0.66,0.48,0.53,0.65,0.62
0.91,-0.21,0.47,0.31,0.74,0.41,0.58,0.66,0.48,0.53,0.65,0.62
0.91,-0.21,0.47,0.31,0.74,0.41,0.58,0.66,0.48,0.53,0.65,0.62
0.91,-0.21,0.47,0.31,0.74,0.41,0.58,0.66,0.48,0.53,0.65,0.62
0.91,-0.21,0.47,0.31,0.74,0.41,0.58,0.66,0.48,0.53,0.65,0.62
0.91,-0.21,0.47,0.31,0.74,0.41,0.58,0.66,0.48,0.53,0.65,0.62
-1.1,0.46,1.15,0.56,0.14,-1.36,-2.27,-1.06,-1.41,-2.26,-0.25,-0.62
-0.67,2.07,0.15,-3.64,-1.57,-0.37,0.99,-2.13,-3.19,-0.75,-0.87,-1.84
-0.47,1.63,-1.75,-1.94,-1.7,-0.17,0.05,-2.17,-0.67,-0.05,-0.81,-0.91
-0.45,1.34,-2.5,0.59,-1.79,-1.38,-1.96,-1.99,-1.52,-2.79,-2.62,-1.88
-0.52,1.01,-1.6,-0.19,-1.73,-2.32,-1.35,-1.58,-1.36,-1.7,-2.48,-2.09
-0.71,1.33,-0.96,-1.47,-1.06,-1.09,-0.4,-1.76,-0.95,0.21,-0.83,-1.92
-0.89,1.64,0.78,-1.42,-1.05,-0.78,1.96,-1.31,-1.45,-0.33,0.13,-1.48
-1.04,0.37,0.35,0,-0.24,-2,0.15,0.13,-0.54,-0.58,0.55,-0.12
-1.21,-0.88,-0.17,-0.05,0.25,-0.28,1.11,0.88,1.2,1.07,1.01,0.29
