"V1","V2","V3","V4","V5","V6","V7","V8","V9","V10","V11","V12"
-1.44,1.05,0.99,-0.99,-0.74,-0.3,-0.19,-0.22,0.41,0.79,2.22,-3.31
-0.64,0.98,-1.65,-0.83,-0.78,-0.82,-1.52,0.09,-0.02,1.6,-0.34,-2.49
-0.48,0.85,-2.15,-0.8,-1.07,-0.37,-1.73,2.53,0.3,3.04,-0.91,-1.04
-0.64,0.73,-2.21,-1.13,-1.21,-0.58,-2.51,1.59,-0.39,3.24,-0.82,-1.4
-0.76,0.9,-2.17,-1.27,-1.18,0.27,-1.69,0.6,-0.7,-0.11,0.74,0.94
-0.83,1.32,-1.95,-1.01,-1.27,-0.02,-1.11,2.05,-0.48,0.82,1.11,1.17
-0.69,1,-1.36,-1.3,-1.58,-0.1,-1.21,0.1,1.05,0.75,1.22,1.08
-0.62,1.3,-1.66,-1.32,-1.42,-0.23,-0.72,1.66,-1.31,0.07,2.63,1.51
-0.81,1.43,-1.49,-1.17,-1.66,-0.88,-0.85,1.86,-0.76,0.99,1.74,0.55
-0.85,1.59,-1.71,-1.22,-1.68,-0.42,-1.34,2.78,-1.6,1.48,1.32,-0.08
-0.94,1.85,-1.07,-1.2,-1.38,-0.57,-0.64,1.38,-1.29,0.89,1.41,1.85
-1,1.65,-0.75,-0.8,-1.36,-1.32,-0.47,2.1,0.47,0.25,2.3,1.15
-1,1.5,-1.31,-1.52,-1.7,-0.85,-0.64,1.82,-1.3,0.73,2.23,1.03
-0.94,1.87,-0.67,-1.39,-1.26,0,-0.58,1.44,-0.36,2.67,2.46,0.23
-0.93,1.78,-1.13,-1.62,-1.35,-0.05,-1.29,1.9,-0.44,2.06,1.5,1.23
-0.96,1.52,-1.44,-1.42,-1.66,-0.31,-0.89,1.19,-1.35,1.67,2.67,2.45
-0.97,1.55,-1.1,-1.35,-1.35,-0.94,-0.29,1.18,-0.95,2.77,1.82,0.74
-1.02,1.34,-1.31,-1.4,-1.53,-1.87,-0.53,0.27,-2.52,1.36,1.62,1.13
-1.06,1.61,-0.86,-1.36,-1.24,-1.06,-0.76,1,-1.58,1.37,2.3,1.1
-1.14,1.76,-0.31,-1.64,-1.27,-1.54,-1.12,1.41,-0.79,1.41,0.8,1.84
-1.2,1.68,-0.23,-1.74,-1.45,-1.21,-1.42,0.92,-0.96,1.76,0.13,-0.22
-1.2,1.67,-0.46,-1.98,-1.47,-1.67,-1.07,0.43,-1.61,-0.96,0.06,1.27
-1.26,1.82,-0.14,-1.85,-1.23,-1.47,-1.18,0.75,-1,1.87,1.29,0.31
-1.31,1.61,-0.46,-2,-1.56,-1.98,-1.03,0.72,-1.9,0.36,1.19,0.25
-1.31,1.95,0.11,-1.65,-1.53,-1.69,-0.96,2.29,-0.86,-0.54,1.92,0.38
-1.38,1.74,0.42,-1.3,-1.2,-1.47,-0.4,2.23,0.04,0.19,0.86,0.65
-1.43,1.65,-0.01,-1.62,-1.52,-1.82,-0.89,0.64,-0.85,0.74,0.43,-0.65
-1.45,1.75,0.07,-1.58,-1.46,-2.05,-0.88,1.21,-1.54,0.21,-0.13,-0.51
-1.48,1.03,-0.23,-1.76,-1.39,-2.81,-1.23,0.18,-1.6,-2.42,-1.51,-1.2
-1.39,1.16,0.53,-1.26,-1.32,-1.57,0.02,1.87,-0.41,-0.56,-0.11,0.17
-1.42,1.6,0.62,-1.35,-1.31,-2.5,-0.58,1.02,-0.39,0.16,0.56,1.52
-1.48,1.3,0.49,-1.38,-1.34,-2.65,-0.53,-0.5,-2.32,-2.64,-1.23,1.77
-1.57,1.3,1.37,-1.43,-1.11,-2.13,-0.99,-1.52,-1.34,-3.25,-0.9,1.25
-1.63,1.04,1.16,-1.35,-1.45,-2.05,-0.28,0.02,-0.14,-1.47,1.08,2.14
-1.78,0.27,1.52,-0.88,-1.27,-2.44,-0.86,-1.29,0.06,-0.44,0.45,1.69
-1.78,-0.42,0.49,-0.69,-1.19,-2.07,-0.53,-1.88,-0.73,-1.63,-0.76,0.82
-1.87,-0.03,1.38,-0.44,-1.11,-2.79,-1.06,-1.6,-0.73,-2.8,-3.51,-2.06
-1.8,-0.11,0.84,0.34,-0.22,-1.31,-0.3,-0.74,0.83,-1.27,-2.14,-1.81
-1.94,-0.88,-0.12,0.11,0.14,-0.97,-0.63,-1.88,0.04,-0.38,-0.71,-2.61
-2.44,-1.24,-0.11,0.28,0.26,0.27,0.14,-2.53,0.17,0.31,-0.41,-1.58
0.8,-0.74,0.54,0.77,0.78,0.61,0.73,-0.34,0.66,-0.21,-0.39,-0.06
0.8,-0.74,0.54,0.77,0.78,0.61,0.73,-0.34,0.66,-0.21,-0.39,-0.06
0.8,-0.74,0.54,0.77,0.78,0.61,0.73,-0.34,0.66,-0.21,-0.39,-0.06
0.8,-0.74,0.54,0.77,0.78,0.61,0.73,-0.34,0.66,-0.21,-0.39,-0.06
0.8,-0.74,0.54,0.77,0.78,0.61,0.73,-0.34,0.66,-0.21,-0.39,-0.06
0.8,-0.74,0.54,0.77,0.78,0.61,0.73,-0.34,0.66,-0.21,-0.39,-0.06
0.8,-0.74,0.54,0.77,0.78,0.61,0.73,-0.34,0.66,-0.21,-0.39,-0.06
0.8,-0.74,0.54,0.77,0.78,0.61,0.73,-0.34,0.66,-0.21,-0.39,-0.06
0.8,-0.74,0.54,0.77,0.78,0.61,0.73,-0.34,0.66,-0.21,-0.39,-0.06
0.8,-0.74,0.54,0.77,0.78,0.61,0.73,-0.34,0.66,-0.21,-0.39,-0.06
0.8,-0.74,0.54,0.77,0.78,0.61,0.73,-0.34,0.66,-0.21,-0.39,-0.06
0.8,-0.74,0.54,0.77,0.78,0.61,0.73,-0.34,0.66,-0.21,-0.39,-0.06
0.8,-0.74,0.54,0.77,0.78,0.61,0.73,-0.34,0.66,-0.21,-0.39,-0.06
0.8,-0.74,0.54,0.77,0.78,0.61,0.73,-0.34,0.66,-0.21,-0.39,-0.06
0.8,-0.74,0.54,0.77,0.78,0.61,0.73,-0.34,0.66,-0.21,-0.39,-0.06
0.8,-0.74,0.54,0.77,0.78,0.61,0.73,-0.34,0.66,-0.21,-0.39,-0.06
0.8,-0.74,0.54,0.77,0.78,0.61,0.73,-0.34,0.66,-0.21,-0.39,-0.06
0.8,-0.74,0.54,0.77,0.78,0.61,0.73,-0.34,0.66,-0.21,-0.39,-0.06
0.8,-0.74,0.54,0.77,0.78,0.61,0.73,-0.34,0.66,-0.21,-0.39,-0.06
0.8,-0.74,0.54,0.77,0.78,0.61,0.73,-0.34,0.66,-0.21,-0.39,-0.06
0.8,-0.74,0.54,0.77,0.78,0.61,0.73,-0.34,0.66,-0.21,-0.39,-0.06
0.8,-0.74,0.54,0.77,0.78,0.61,0.73,-0.34,0.66,-0.21,-0.39,-0.06
0.8,-0.74,0.54,0.77,0.78,0.61,0.73,-0.34,0.66,-0.21,-0.39,-0.06
0.8,-0.74,0.54,0.77,0.78,0.61,0.73,-0.34,0.66,-0.21,-0.39,-0.06
0.8,-0.74,0.54,0.77,0.78,0.61,0.73,-0.34,0.66,-0.21,-0.39,-0.06
0.8,-0.74,0.54,0.77,0.78,0.61,0.73,-0.34,0.66,-0.21,-0.39,-0.06
0.8,-0.74,0.54,0.77,0.78,0.61,0.73,-0.34,0.66,-0.21,-0.39,-0.06
0.8,-0.74,0.54,0.77,0.78,0.61,0.73,-0.34,0.66,-0.21,-0.39,-0.06
0.8,-0.74,0.54,0.77,0.78,0.61,0.73,-0.34,0.66,-0.21,-0.39,-0.06
0.8,-0.74,0.54,0.77,0.78,0.61,0.73,-0.34,0.66,-0.21,-0.39,-0.06
0.8,-0.74,0.54,0.77,0.78,0.61,0.73,-0.34,0.66,-0.21,-0.39,-0.06
0.8,-0.74,0.54,0.77,0.78,0.61,0.73,-0.34,0.66,-0.21,-0.39,-0.06
0.8,-0.74,0.54,0.77,0.78,0.61,0.73,-0.34,0.66,-0.21,-0.39,-0.06
0.8,-0.74,0.54,0.77,0.78,0.61,0.73,-0.34,0.66,-0.21,-0.39,-0.06
0.8,-0.74,0.54,0.77,0.78,0.61,0.73,-0.34,0.66,-0.21,-0.39,-0.06
0.8,-0.74,0.54,0.77,0.78,0.61,0.73,-0.34,0.66,-0.21,-0.39,-0.06
0.8,-0.74,0.54,0.77,0.78,0.61,0.73,-0.34,0.66,-0.21,-0.39,-0.06
0.8,-0.74,0.54,0.77,0.78,0.61,0.73,-0.34,0.66,-0.21,-0.39,-0.06
0.8,-0.74,0.54,0.77,0.78,0.61,0.73,-0.34,0.66,-0.21,-0.39,-0.06
0.8,-0.74,0.54,0.77,0.78,0.61,0.73,-0.34,0.66,-0.21,-0.39,-0.06
0.8,-0.74,0.54,0.77,0.78,0.61,0.73,-0.34,0.66,-0.21,-0.39,-0.06
0.8,-0.74,0.54,0.77,0.78,0.61,0.73,-0.34,0.66,-0.21,-0.39,-0.06
0.8,-0.74,0.54,0.77,0.78,0.61,0.73,-0.34,0.66,-0.21,-0.39,-0.06
0.8,-0.74,0.54,0.77,0.78,0.61,0.73,-0.34,0.66,-0.21,-0.39,-0.06
0.8,-0.74,0.54,0.77,0.78,0.61,0.73,-0.34,0.66,-0.21,-0.39,-0.06
0.8,-0.74,0.54,0.77,0.78,0.61,0.73,-0.34,0.66,-0.21,-0.39,-0.06
0.8,-0.74,0.54,0.77,0.78,0.61,0.73,-0.34,0.66,-0.21,-0.39,-0.06
0.8,-0.74,0.54,0.77,0.78,0.61,0.73,-0.34,0.66,-0.21,-0.39,-0.06
0.8,-0.74,0.54,0.77,0.78,0.61,0.73,-0.34,0.66,-0.21,-0.39,-0.06
0.8,-0.74,0.54,0.77,0.78,0.61,0.73,-0.34,0.66,-0.21,-0.39,-0.06
0.8,-0.74,0.54,0.77,0.78,0.61,0.73,-0.34,0.66,-0.21,-0.39,-0.06
0.8,-0.74,0.54,0.77,0.78,0.61,0.73,-0.34,0.66,-0.21,-0.39,-0.06
0.8,-0.74,0.54,0.77,0.78,0.61,0.73,-0.34,0.66,-0.21,-0.39,-0.06
0.8,-0.74,0.54,0.77,0.78,0.61,0.73,-0.34,0.66,-0.21,-0.39,-0.06
0.8,-0.74,0.54,0.77,0.78,0.61,0.73,-0.34,0.66,-0.21,-0.39,-0.06
0.8,-0.74,0.54,0.77,0.78,0.61,0.73,-0.34,0.66,-0.21,-0.39,-0.06
0.8,-0.74,0.54,0.77,0.78,0.61,0.73,-0.34,0.66,-0.21,-0.39,-0.06
0.8,-0.74,0.54,0.77,0.78,0.61,0.73,-0.34,0.66,-0.21,-0.39,-0.06
0.8,-0.74,0.54,0.77,0.78,0.61,0.73,-0.34,0.66,-0.21,-0.39,-0.06
0.8,-0.74,0.54,0.77,0.78,0.61,0.73,-0.34,0.66,-0.21,-0.39,-0.06
0.8,-0.74,0.54,0.77,0.78,0.61,0.73,-0.34,0.66,-0.21,-0.39,-0.06
0.8,-0.74,0.54,0.77,0.78,0.61,0.73,-0.34,0.66,-0.21,-0.39,-0.06
0.8,-0.74,0.54,0.77,0.78,0.61,0.73,-0.34,0.66,-0.21,-0.39,-0.06
0.8,-0.74,0.54,0.77,0.78,0.61,0.73,-0.34,0.66,-0.21,-0.39,-0.06
0.8,-0.74,0.54,0.77,0.78,0.61,0.73,-0.34,0.66,-0.21,-0.39,-0.06
0.8,-0.74,0.54,0.77,0.78,0.61,0.73,-0.34,0.66,-0.21,-0.39,-0.06
0.8,-0.74,0.54,0.77,0.78,0.61,0.73,-0.34,0.66,-0.21,-0.39,-0.06
0.8,-0.74,0.54,0.77,0.78,0.61,0.73,-0.34,0.66,-0.21,-0.39,-0.06
0.8,-0.74,0.54,0.77,0.78,0.61,0.73,-0.34,0.66,-0.21,-0.39,-0.06
0.8,-0.74,0.54,0.77,0.78,0.61,0.73,-0.34,0.66,-0.21,-0.39,-0.06
0.8,-0.74,0.54,0.77,0.78,0.61,0.73,-0.34,0.66,-0.21,-0.39,-0.06
0.8,-0.74,0.54,0.77,0.78,0.61,0.73,-0.34,0.66,-0.21,-0.39,-0.06
0.8,-0.74,0.54,0.77,0.78,0.61,0.73,-0.34,0.66,-0.21,-0.39,-0.06
0.8,-0.74,0.54,0.77,0.78,0.61,0.73,-0.34,0.66,-0.21,-0.39,-0.06
0.8,-0.74,0.54,0.77,0.78,0.61,0.73,-0.34,0.66,-0.21,-0.39,-0.06
-2.1,-0.34,0.56,0.74,0.69,-0.33,-0.51,-1.76,-0.06,-0.95,-1.38,-1.67
-1.24,0.93,-0.99,-0.62,0.26,-1.25,-1.65,-3.87,-1.87,0.57,0.57,-4.96
-0.84,1.13,-2.67,-0.31,-0.36,-0.18,-2.92,-1.78,-2.08,1.68,2.25,-0.94
-0.7,0.86,-2.42,-0.73,-0.62,-0.06,-2.53,-0.23,-1.74,0.56,0.61,1.84
-0.53,0.76,-2.37,-1.25,-0.81,1.07,-2.3,-0.12,-1.58,-1.48,-0.13,0.38
-0.55,0.71,-2.49,-0.84,-1.26,1.5,-2.33,0.73,-1,2.04,-1.39,0.49
-0.56,1.05,-2.44,-0.89,-1.3,0.69,-3.09,2.15,-0.41,-0.69,-1.6,1.41
-0.68,0.98,-2.14,-0.89,-1.07,0.97,-2.34,0.54,-2.54,0.09,0.22,-0.47
-0.83,0.61,-1.95,-1,-1.28,-0.21,-0.95,0.53,-2.64,1.09,1.04,-0.72
-0.88,0.9,-1.91,-1.13,-1.22,-0.15,-0.27,0.96,-3.19,1.1,2.48,0.42
-0.95,0.86,-2.18,-1.27,-1.17,-0.83,-0.66,0.95,-2.34,-1.16,1.3,0.08
-0.96,0.61,-1.62,-1.54,-1.05,1.28,-0.6,0.43,-1.55,-2.11,0.56,-2.89
