"V1","V2","V3","V4","V5","V6","V7","V8","V9","V10","V11","V12"
-4.86,-5,0.69,4.22,-1.89,0.09,-0.46,0.34,-1.09,0.49,0.52,1.41
-1.77,-0.56,0.76,2.02,0.79,-1.32,1.8,0.62,-0.47,0.19,0.75,0.89
-0.98,-0.85,1.81,0.09,0.06,0.15,-0.15,1.63,2.28,0.56,-0.1,1.85
-1.32,-1.96,-0.07,1.12,0.54,0.36,0.11,-1,-0.2,-1.75,-0.64,0.59
-1,-0.99,1.18,1.55,0.58,-0.12,1.37,1.12,1.35,1.42,-0.37,-0.72
-0.59,-1.66,0.26,1.56,0.23,-0.12,-0.45,-1.75,-1.73,0.54,2.12,1.85
-1.09,-1.76,0.88,2.34,1,1.13,0.75,3.23,0.92,-0.59,-0.67,-1.51
-0.82,-0.62,0.54,0.87,-0.18,-0.46,0.06,1.46,0.71,0.61,-0.17,-0.26
-1.07,-0.3,0.65,0.15,0.9,0.57,-0.02,0.38,0.21,0.08,1.41,0.77
-0.92,-0.78,1.21,0.81,-0.16,-0.59,-0.26,0.38,-0.21,0.01,1.24,0.27
-0.74,0.18,0.89,0.06,1.61,0.47,0.76,0.29,0.28,-0.24,-0.35,0.02
-1.29,-0.15,0.83,-0.33,0.81,-0.15,1.68,1.07,0.82,0.36,0.22,1.22
-1.03,-0.05,0.27,0.25,2.05,1.32,1.92,0.51,-0.49,0.69,-0.5,-0.19
-0.58,0.32,1.34,0.87,1.01,-1.14,-1.37,-0.08,-0.68,1.36,1.27,0.63
-0.55,-1.43,0.67,0.1,-0.19,-1.31,-0.51,0.06,-0.08,1.59,0.45,0.2
-0.83,-0.71,1.17,1.66,1.3,0.59,-0.77,-0.66,-0.2,-2.26,-0.39,0.63
-0.6,-1.94,0.43,1.87,-0.54,-0.31,1.26,-0.22,-1.21,0.78,-0.28,-0.72
-0.73,-1.21,1.49,1.77,0.33,-0.69,-1.34,-0.29,-0.87,-2.33,-1.74,0.34
-0.78,-0.05,1.21,0.81,0.32,-0.59,-0.61,-0.81,-0.27,-0.86,-1.56,0.11
-0.52,-0.91,0.51,0.45,0.24,0.13,0.08,0.5,-1.33,0.43,1.77,0.41
-0.95,-1.06,1.33,1.12,-0.17,0.11,0.16,0.57,0,0.58,-0.32,1.1
-0.74,0.26,-0.08,-0.02,0.58,-1.45,0.93,0.51,-0.92,-1.74,-1.6,-0.58
-0.28,-1.47,0.58,1.33,-1.39,0.04,-1.07,0.5,0.02,0.16,-0.4,-0.85
-0.92,-0.36,0.93,0.81,2.09,1.94,1.97,0.75,-1.24,-2.33,-1.55,1.06
-1.32,0.26,1.32,0.64,0.78,-3.13,0.11,-1.22,-1.03,0.47,-0.15,-1.36
-0.64,-0.92,0.6,-0.56,-1.05,0.36,-0.09,0.69,1.09,1.06,0.35,-0.83
-0.39,0.21,1.82,1.41,1.86,-0.29,-0.89,-1.23,-1.11,1.03,1.63,0.64
-0.74,-0.39,0.6,1.07,0.78,1.01,0.38,0.76,1.49,0.43,-0.43,0.56
-0.46,0.16,0.9,0.57,0.94,0.47,1.57,0.72,-0.18,-0.48,0.7,0.51
-0.57,-0.21,0.62,1.64,0.11,-1.44,-0.97,-0.48,1.04,0.52,0.8,0.59
-0.31,-0.91,0.73,0.36,0.28,-0.01,-0.2,0.12,-1.51,-1.11,0.97,0.37
-1.21,-0.23,0.85,0.16,1.39,1.89,-0.69,-0.97,0.83,-0.54,1.54,-0.59
-0.56,-0.7,0.82,1.33,0.11,-0.26,0.77,1.82,0.3,0.16,0.44,1.06
-1.01,0.44,1.84,-0.07,0.61,0.72,0.13,1.22,-0.18,-1.68,-1.13,-0.38
-0.03,-1.55,0.02,1.36,-0.52,1.48,0.82,-1.13,-2.34,0.02,-0.11,-0.46
-0.72,-0.4,0.9,0.34,0.29,0.79,0.39,-0.51,-1.36,-1.86,-1.06,0.19
-1.1,-0.57,0.29,0.46,-0.29,-0.06,-0.09,0.66,2.99,1.66,2,2.16
-0.73,-0.23,1.54,1.32,-0.01,-0.62,0.87,0.47,-1.44,-1.65,0.31,-0.45
-0.43,-0.25,0.59,-0.04,0.9,0.99,1.23,0.57,-0.46,1.45,0.7,-1.01
-0.73,-0.99,0.46,-0.47,-0.74,0.72,1.07,0.9,-0.73,-0.2,-0.06,1.45
-0.84,-0.32,-0.98,-0.34,2.23,2.23,2.8,2.31,1.78,1.09,0.21,-1.41
-1.02,0.01,0.13,-0.62,0.79,0.03,0.01,0.19,0.19,0.28,0.44,-0.14
-0.69,-2.19,-0.19,0.44,-1.06,0.52,-2.03,-1.81,-1.96,0.74,0.59,0.32
-0.45,-1.77,-0.5,-0.13,-0.65,0.81,-0.3,-1.48,-1.22,-1.3,-0.34,0.82
-0.29,-0.03,0.76,0.61,0.89,1.11,1.03,0.23,-2.25,-0.52,-0.62,0.32
-0.42,-0.43,-0.69,0.41,0.97,-0.53,-0.61,-0.1,-1.22,-1.42,1.81,1.13
-0.64,0.02,1.27,-0.48,-0.63,0.31,-0.8,-0.37,0.82,0.9,0.12,-0.58
-0.89,-0.39,1.67,-0.01,0.3,2.05,0.02,-0.75,-0.83,-1.83,-0.3,1.86
-0.24,0.05,-0.06,-0.19,0.16,-1.88,-0.84,-0.59,-0.42,0.75,0.21,-1.56
-0.34,-1.24,0.45,0.44,-0.51,-0.84,-1.27,0.21,-0.44,-0.75,1.12,0.66
-0.92,0.08,-0.8,-0.32,2.04,-0.33,0.37,-0.52,-0.19,0.74,0.87,0.72
-0.02,0.23,0.08,-1.14,-0.86,-1.06,-0.29,-1.24,-1.32,0.62,1.42,0.57
-0.61,-1.13,-0.37,-1.41,0.27,2.35,0.64,0.13,0.31,0.58,-0.51,0.14
-0.02,-0.92,-0.04,-0.35,-1.06,-0.49,0.3,1.07,-0.88,-0.16,0.86,0.59
-0.77,-0.27,-0.09,-0.18,0.39,-0.71,-0.75,-0.35,-0.25,-0.08,-1.02,-0.74
-0.32,0.1,0.89,1.11,1.09,-0.12,-0.3,-1.6,-0.74,0.03,-0.99,-0.52
-0.46,-0.7,0.09,-0.39,-1.36,-0.33,0.53,-0.53,-0.12,0.76,-0.16,0.45
-0.43,-1.46,0.44,0.68,0.1,-0.02,-1.37,-1.49,-0.5,-0.26,0.74,0.69
-0.51,-0.19,1.3,0.44,-0.2,-0.82,-1.43,-0.82,-0.88,-0.58,-0.1,-0.18
-0.25,0.04,0.01,0.69,1.27,0.33,-0.27,-0.79,-1.31,-0.47,0.8,0.77
-0.58,0.9,0.37,-0.74,0.61,0.49,0.72,0.03,-0.48,0.53,0.75,0.54
-0.6,-0.68,0.26,0.61,-0.07,-0.3,-0.01,-0.68,0.2,0.93,1.53,1.76
-0.09,0.44,0.41,0.02,0.34,0.69,-0.93,-0.93,-0.55,-1.77,-0.36,0.29
0.17,-0.46,0.16,0.99,-0.04,0.66,0.95,-0.07,-1.28,0.34,0.85,-0.78
-0.64,0.66,0.61,0.05,0.33,-0.46,-0.03,-1.53,-0.93,-1.02,1.43,2.41
0.23,0.07,0.07,0.69,0.74,0.67,0.46,-1.32,-0.3,0.42,0.28,-2.13
0.04,0.61,1.19,-0.76,-0.94,-0.7,-0.22,-0.23,-0.4,-0.09,0.36,-0.09
0.04,0.62,0.1,-0.83,0.25,-0.14,-0.86,-0.67,-0.58,-0.99,-0.05,-0.82
-0.13,0.35,-0.15,-0.51,0.5,0.6,0.21,0.44,0.94,0.19,-0.52,0.12
0.03,0.78,0.37,-1.05,-0.51,-0.09,-0.78,0.46,0.13,-0.46,-0.86,-0.17
-0.12,-1.18,-0.52,-0.35,-2.92,-1.57,-0.49,0.77,-0.24,-0.54,-0.98,-1.61
-0.17,0.36,0.45,0.35,0.5,-1.39,-0.64,-0.69,1.09,2.09,2.03,0.08
0.6,0.11,0.46,-0.56,0.76,0.9,-0.81,0.1,-0.58,-1.13,-0.69,-0.19
0.39,0.24,0.31,-0.06,-0.24,0.57,1.37,0.76,-0.49,-1.17,-2.1,-1.52
-0.15,0.35,0.05,-0.73,-0.78,-0.24,0.87,1.9,0.7,0.38,-0.15,-0.94
-0.17,0.51,0.41,-0.45,0.78,-1.28,-0.08,1.96,0.3,-1.49,0.45,0.2
0.63,0.12,-0.24,0.8,-0.13,1.16,1.95,-0.27,0.36,-0.26,-2.56,-1.25
0.22,0.04,0.32,-0.37,0.6,1.37,-0.15,-0.22,-0.8,-1.06,-0.87,0.79
-0.17,-0.9,-0.67,-0.24,0.07,-0.69,0.86,0.24,-0.64,0.78,0.26,-0.73
0.1,-0.01,0.61,0.44,-0.98,-1.3,0.43,1.33,0.48,0.3,0.01,-1.14
-0.03,0.28,-0.47,-1.27,0.78,1.52,1.03,1.37,0.12,-0.32,0.38,-1.28
0.16,0.67,-1.49,-1.02,1.69,0.64,0.88,-0.56,-1.96,-0.31,1.56,1.83
-0.07,-0.02,1.06,1.03,1.26,1.84,-0.1,-0.49,-0.55,-1.38,-2.69,-0.9
0.55,0.61,-0.48,-0.81,-0.18,-0.8,0.85,1.23,0.43,0.49,-2.28,-2.11
0.26,-0.24,0.33,0.32,-1.08,0.12,-1.26,-0.18,-0.09,-0.35,-1.1,-1.25
0.37,0.45,-1.18,-1.58,-0.63,-0.45,0.49,0.57,1.44,2.29,-0.02,-0.1
0.35,0.48,-0.37,0.51,2.52,0.59,-0.16,-1.94,-0.9,-1.23,-0.18,-0.07
0.58,0.29,-0.84,-1.23,-1.13,-0.96,-1.26,-1.22,-0.52,1.92,0.15,0.35
0.5,0.53,-0.84,-0.53,0.54,1.31,0.65,0.66,0.71,1.44,1.37,0.99
0.93,0.9,0.69,-0.66,-1,-0.8,-2.49,-0.91,-0.02,-0.76,-1.26,-0.63
0.73,1.78,0.6,-0.89,-0.06,-0.02,1.54,1.45,0.61,0.5,-0.02,1.14
0.38,1.48,-0.26,-0.73,0.67,-0.92,-0.1,-0.11,-0.37,0.34,-0.83,-1.31
0.47,-0.47,-1.13,-0.94,-1.29,-1.2,-1.93,-0.74,-0.22,1.27,-0.02,-1.98
0.61,0.39,0.42,-1.42,-0.53,0.49,-0.11,1.46,1.89,2.02,-0.62,-0.47
0.39,1.05,-0.74,-1.24,0.57,1.04,0.71,-0.08,0.11,-0.5,0.65,0.66
0.56,2.37,-0.43,-1.22,-0.16,-1.6,0.89,0.03,0.3,-0.33,-0.93,-0.18
1.4,1.38,-0.06,-1.17,-0.32,0.61,0.36,1.93,0.34,-0.63,-1.49,-1.08
0.74,0.7,-0.26,-0.88,-1.73,-0.06,-1.55,-1.33,0.03,-0.06,1.23,0.19
0.98,1.59,0.15,-0.1,-0.34,-1.41,0.83,0.35,0.14,0.18,-0.43,0.25
0.59,0.76,-1.17,-1.44,-1.04,-0.46,-0.13,-0.33,0.88,1.5,1.4,0.46
0.98,0.49,-1,-0.39,0.21,0.4,-1.03,-0.96,0.41,-0.14,0.92,0.78
0.72,0.5,-1.07,-0.9,-0.74,-1.28,-1.35,-1.16,0.35,-0.07,-0.92,-2.15
0.52,-0.04,-1.09,-1.63,-1.29,-1.51,-0.12,1.36,0.99,-0.79,-0.79,0.17
0.94,0.04,-0.97,-1.45,-0.9,-0.39,-0.37,0.23,0.41,0.17,-0.31,-0.23
0.57,0.52,-0.66,-0.11,-0.21,-1.93,-1.46,0.1,1.19,0.32,-0.75,-1.16
0.9,1.12,-1.52,-0.18,0.51,0.39,2.09,0.3,-0.94,-1.4,-1.17,0.01
0.45,0.44,-0.15,-0.89,-0.04,0.85,1.06,0.89,0.19,0.33,-0.26,0.45
0.68,1.08,-1.22,-1.93,-0.6,-1.28,-0.67,0.32,0.98,0.13,1.15,1.21
0.92,1.09,-1.56,-1.57,0.09,-0.29,0.29,-0.74,-1.4,-0.94,-0.62,0.4
0.62,1.64,0.42,0.51,0.75,-0.2,-0.62,-0.94,0.33,0.58,0.62,-1.74
1.15,0.66,-1.65,-1.62,0.27,2.57,0.38,1.43,1.25,-0.21,0.64,1.03
0.95,1.46,-1.98,-1.62,-0.72,-0.78,0.75,2.05,2.31,1.14,2.16,1.3
1.49,1.15,-0.65,-0.8,-1.08,-0.04,-0.29,-0.57,-0.45,1.21,0.24,0.52
1.43,1.58,-0.1,0.05,-0.27,0.48,-0.74,-1.1,0.63,0.4,-0.79,0.11
1.2,0.19,-2.22,-1.55,-0.79,-0.31,-0.97,-0.67,1.51,2.56,1.39,0.93
1.5,1.05,-0.88,0.61,-0.33,-0.51,-1.24,-1.34,0.66,-0.18,-0.02,0.15
1.47,1.31,-1.16,0.37,1,1.79,1.01,0.48,0.05,-0.13,-1.33,-1.44
1.69,1.67,-1.41,-0.36,-0.2,-0.83,-0.13,-0.18,1.48,0.09,-0.27,0.31
1.77,1.76,-1.21,-1,-0.98,0.55,0.72,0.49,1.08,1.07,-0.01,-1.79
2.01,0.87,-1.9,-0.03,0.22,1.2,0.54,-0.15,0.5,-0.16,-0.81,-1.56
1.51,-0.66,-2.3,-1.2,-2.07,0.73,-0.3,-0.37,1.75,0.29,-0.04,1.02
1.77,0.71,-1.75,-0.55,-1.92,0.43,-0.93,-0.71,0.77,-1.37,-0.94,0.51
2.03,0.08,-2.24,0.48,-1.15,-0.99,-2.12,-2.2,1.54,0.04,-0.5,-0.16
2.01,0.34,-2.52,-0.61,-2.02,0.28,0.73,-0.28,0.66,0.09,-0.51,-0.98
2.21,1.4,-1.4,-0.96,-2.89,-1.54,-0.09,0.03,1.6,-0.02,0.18,0.85
1.96,0.42,0.3,1.04,-0.17,0.33,-3.03,-1.86,-0.26,-1.22,-1.27,-0.78
2.52,1.03,-2.94,0.05,-1.62,-0.42,0.31,-0.23,1.46,0.01,-0.46,-1.9
