"V1","V2","V3","V4","V5","V6","V7","V8","V9","V10","V11","V12"
-2.32,-2.31,-1.58,-0.93,1.01,-0.93,1.25,1.39,0.88,1.9,0.14,1.15
-0.73,-0.56,0.33,0.21,1.04,0.73,0.67,-0.06,0.1,-0.92,0.4,0.03
-1.14,-0.83,-0.96,-0.48,0.04,-0.53,-1.42,-1.07,-0.26,1.36,1.87,-0.32
-0.65,-0.41,0.02,0.17,0.49,-0.05,-0.3,0.02,0.29,0.46,1.41,1.35
-1.19,-0.71,0.3,1.01,0.53,1.57,-0.01,0.45,0.45,0.8,1.11,1.38
-0.62,-0.56,-0.31,0.29,0.3,-0.55,-0.76,0.15,0.19,-0.24,0.41,1.29
-0.69,-0.68,0.46,0.94,1.06,0.11,0.61,0.59,0.49,-0.27,-1.06,0.24
-0.75,-0.51,-0.41,-0.15,0.36,0.97,0.34,0.1,0.26,0.62,0.25,-0.36
-0.58,-0.24,0.8,0.61,0.52,-0.33,-0.07,0.19,0.2,-0.67,-0.35,0.23
-1.13,-1.35,-1.27,-1.35,0.77,-0.24,1.37,0.57,1.47,0.96,0.95,-0.39
-0.53,-0.47,0.36,0.77,1.06,0.33,-0.66,-0.69,-0.25,-0.16,0.49,-0.14
-0.76,-0.59,-0.09,0.05,0.8,0.57,0.39,0.01,0.39,0.87,1.11,0.99
-0.56,-0.23,0.54,0.84,0.4,-0.21,-0.64,-0.45,-0.1,0.22,-0.16,0.19
-0.57,-0.45,-0.28,0.04,0.42,1,0.49,0.24,0.53,0.91,0.81,-0.39
-0.56,-0.66,-0.35,0.12,0.3,-0.96,-1.12,-0.93,-0.36,0.27,0.88,1.03
-0.52,-0.4,0.52,1.46,0.96,-0.74,-1.61,-0.69,-0.41,-0.2,0.42,0.54
-0.72,-0.45,-0.44,-0.09,0.16,-0.33,-0.51,0.08,-0.04,0.04,1.26,0.83
-0.49,-0.26,0.46,0.83,0.48,-0.86,-1.16,-0.71,-0.55,-0.22,0.11,-0.12
-0.66,-0.62,-0.31,-0.1,0.55,-0.42,-0.75,-0.67,0.1,-0.75,-0.16,1.19
-0.53,-0.38,0.75,1.4,0.67,-0.21,-1.03,-0.87,-0.63,-1.23,-1.69,-1.06
-0.55,-0.49,0.94,1.18,1.26,0.96,0.12,-0.2,-0.38,-0.73,0.34,0.17
-0.52,-0.62,-0.15,1.06,1.02,-0.39,-1.99,-0.9,-0.35,0.09,1.28,1.74
-0.53,-0.35,0.84,1.14,1.15,0.93,-0.48,-0.35,-0.38,-0.37,-0.55,0.17
-0.63,-0.57,-0.21,0.74,0.73,0.07,-0.78,-0.41,-0.82,-1.19,-0.22,0.39
-0.52,-0.31,1.17,1.53,1.07,-0.29,-0.82,-0.37,-0.68,-1.13,-0.25,1.44
-0.65,-0.3,0.32,0.66,0.68,1.04,0.6,0.66,0.04,-1.13,-0.82,0.4
-0.59,-0.49,0.56,0.82,0.7,-0.67,-0.62,-0.56,-0.66,-0.66,-0.95,-0.55
-0.57,-0.5,0.12,1.45,1.4,1.05,-0.71,-0.73,-1.31,-1.49,-0.22,0.43
-0.57,-0.45,0.17,0.94,0.67,-0.08,-0.36,0.32,-0.09,-0.66,-0.79,-0.39
-0.59,-0.41,0.31,0.38,0.64,0.05,0.06,0.33,0.68,0.23,-0.31,-1.15
-0.58,-0.24,0.21,0.81,0.77,0.9,0.46,0.13,-0.72,-1.68,-1.1,0.25
-0.52,-0.39,0.15,0.88,0.77,0.7,-0.31,-0.59,-0.89,-1.4,-0.88,0.09
-0.5,-0.19,1.02,1.35,0.57,0.33,0.46,-0.37,-0.83,-1.19,-1.65,-0.62
-0.46,0.15,1.75,1.48,0.39,0.42,0.26,0.12,-0.23,-1.06,-1.26,-0.61
-0.14,0.85,1.61,0.32,0.15,0.2,-0.65,-0.1,-0.22,-1.32,-0.47,1.26
0.16,1.16,-0.05,-0.93,-1.72,-1.66,-3.02,-0.92,0.14,-1.42,-1.02,-1.9
0.3,1.67,-1.03,-0.78,-1.69,-3.24,-0.97,-0.77,-0.69,-0.34,-1.64,-0.87
0.33,1.84,-1.65,-1.65,-2.16,-2.35,0.64,-0.02,-0.37,-0.09,-1.6,-0.78
0.42,1.69,-1.78,-0.53,-1.73,-0.13,-0.99,-1.32,-1.66,-1.25,-2.54,-0.09
0.43,1.9,-3.07,-1.22,-2.48,-0.68,-1.74,-0.85,-1.05,-0.32,-2.22,-1.73
0.29,1.66,-2.73,-1.47,-2.24,-2.08,-1.58,-1.35,-0.78,1.22,-0.77,1.02
0.23,2.02,-1.72,-0.44,-1.28,-1.34,-1.01,-0.94,-0.43,0.68,-0.27,0.77
0.13,2.11,-1.1,-1.1,-1.95,-1.41,-0.23,-0.58,-0.5,-0.9,-1.43,-1.77
0.02,1.71,-0.52,-1.21,-1.38,-1.34,0.01,-1.16,-0.78,-0.71,-1.89,-2.13
-0.02,1.91,0.08,-1.11,-1.1,-1.15,-0.22,-0.95,-1.26,-0.64,-0.49,-2.2
-0.07,1.53,0.54,-1.88,-1.39,-1.47,0.37,0.28,-0.66,0.07,-0.26,-1.87
-0.15,1.48,1.09,-2.04,-0.86,-1.1,0.04,0.31,0.11,-0.25,-0.59,0.39
-0.21,1.36,1.21,-1.8,-1.05,-0.32,-0.33,-0.7,-0.64,-0.67,-0.73,-1.84
-0.25,1.49,1.34,-2.41,-0.85,0.37,-0.37,-0.83,-0.6,-0.77,-1.57,-2.23
-0.23,1.29,1.74,-1.24,-0.87,0.19,-0.76,-0.87,-0.68,-0.53,0.17,-1.01
-0.29,0.91,1.89,-1.98,-1.43,-1.31,-1.08,-0.47,-0.28,0.16,0.66,-0.05
-0.27,0.49,1.17,-0.45,-1.17,-0.74,0.09,-0.46,-0.15,0.14,0.89,1.57
-0.05,0.78,1.09,0.09,-1.47,0.02,-0.97,-0.34,-0.83,-1.49,-0.52,-0.81
0.15,1.43,-0.95,-1.55,-2.13,-0.59,-1.16,-0.87,-1.94,-2.24,-0.92,0.8
0.18,1.48,-0.24,-0.67,-2.41,-1.93,0.57,-1.05,-1.48,-0.92,-1.84,0.48
0.25,1.79,-1.13,-0.69,-2.67,-0.49,-0.36,-1.02,-1.03,-0.73,-1.89,-1.01
0.26,1.83,-1.29,-0.4,-2.6,-0.75,-0.77,-1.81,-1.62,-0.52,-1.22,-0.04
0.23,1.73,-2.43,-0.83,-1.05,0.02,0.88,-1.38,-0.81,0.35,0.85,1.14
0.12,1.99,-1.81,-1.14,-1.71,-1.34,1.69,-1.25,-1.76,0.28,-0.08,-0.12
-0.01,1.9,0.05,-1.07,-1.64,-1.41,1.4,-0.62,-1.44,-0.82,-1.43,-2.48
-0.11,1.84,0.33,-1.24,-0.84,-0.23,1.06,-1.2,-1,-0.99,-0.87,-2.07
-0.12,1.89,0.96,-2.16,-1.21,-1.37,0.21,-1.63,-1.8,-0.51,-0.07,-1.08
-0.16,1.55,1.43,-2.15,-0.92,-0.9,0.03,-0.61,-1.44,-0.97,0.5,-1.34
-0.25,1.3,1.23,-1.63,-0.85,0,0.73,-0.97,-1.22,-0.96,-0.79,-0.26
-0.24,0.95,1.13,-2.18,-1.31,-0.67,0.4,-0.58,-1.27,-1.29,-0.96,-1.46
-0.32,1.27,2.03,-2.25,-1.01,-0.4,-0.05,-0.41,-1.04,-1.37,-0.95,-0.86
-0.3,1.14,2.16,-0.96,-0.85,0.36,0.34,-0.43,-1.2,-1.09,-1.42,-1.92
-0.37,0.98,2.81,-1.17,-0.63,0.04,-0.89,-1.7,-0.91,-0.46,0.27,-1.41
-0.36,0.67,1.58,-1.16,-1.12,-0.24,-0.15,-0.91,-0.96,0.34,0.33,-0.16
-0.36,0.25,0.38,-0.5,-0.42,0.33,-0.33,-1.05,-0.78,-0.13,-0.48,-1.3
-0.37,0.3,1.07,-0.13,-0.44,-0.53,-0.6,-0.79,-0.83,-0.5,-0.25,-0.45
-0.42,0.06,0.05,-0.65,-0.7,-0.19,-0.78,-0.92,-0.6,-0.49,-0.26,-0.77
-0.46,0.03,0.36,-0.14,-0.56,-1.04,-0.47,-0.71,-0.12,-0.36,-0.1,-0.5
-0.48,-0.15,0.47,0.3,-0.62,-2.42,-1.32,-0.67,-0.74,-1.01,-1.32,-0.95
-0.56,-0.66,-1.3,-0.39,0.31,-0.01,-0.81,0.15,0.49,0.29,1.03,0.91
-0.53,-0.56,-0.31,0.25,0.08,-0.96,-1.43,-0.52,0.23,0.47,0.18,-1.61
-0.52,-0.48,0.37,0.44,0.85,-0.79,-1.05,-0.05,0.14,-0.04,-0.51,-1.35
-0.61,-0.45,-0.43,0.03,0.31,0.1,-0.3,-0.09,-0.12,-0.61,-1.02,-1.52
-0.56,-0.51,-0.43,0.11,0.27,-0.72,-1.28,-0.3,-0.2,-0.9,-0.65,-0.45
-0.6,-0.6,-0.77,-0.34,0,-0.17,-0.22,0.05,-0.1,-0.78,-0.96,-0.76
-0.68,-0.8,-0.51,-0.35,0.39,0.3,1.09,0.46,0.25,-0.57,-0.18,0.28
-0.77,-0.76,-0.85,-0.21,0.21,0.59,0.31,-0.32,-0.68,-0.72,0.02,0.82
-1.1,-0.59,-0.09,-0.61,-0.03,-0.08,1.35,0.96,0.01,-0.79,0.52,1.12
-1.17,-1.18,-2.67,-1,0.83,0.71,-0.48,1.99,1.39,0.15,2.24,-0.2
-1.61,-0.59,-0.65,-0.96,-0.21,1.31,1.94,0.99,0.56,1.94,1.96,-0.94
1.79,-0.64,-0.26,0.53,0.63,1.24,1.18,1.53,1.52,1.37,1.03,0.76
1.79,-0.64,-0.26,0.53,0.63,1.24,1.18,1.53,1.52,1.37,1.03,0.76
1.79,-0.64,-0.26,0.53,0.63,1.24,1.18,1.53,1.52,1.37,1.03,0.76
1.79,-0.64,-0.26,0.53,0.63,1.24,1.18,1.53,1.52,1.37,1.03,0.76
1.79,-0.64,-0.26,0.53,0.63,1.24,1.18,1.53,1.52,1.37,1.03,0.76
1.79,-0.64,-0.26,0.53,0.63,1.24,1.18,1.53,1.52,1.37,1.03,0.76
1.79,-0.64,-0.26,0.53,0.63,1.24,1.18,1.53,1.52,1.37,1.03,0.76
1.79,-0.64,-0.26,0.53,0.63,1.24,1.18,1.53,1.52,1.37,1.03,0.76
1.79,-0.64,-0.26,0.53,0.63,1.24,1.18,1.53,1.52,1.37,1.03,0.76
1.79,-0.64,-0.26,0.53,0.63,1.24,1.18,1.53,1.52,1.37,1.03,0.76
1.79,-0.64,-0.26,0.53,0.63,1.24,1.18,1.53,1.52,1.37,1.03,0.76
1.79,-0.64,-0.26,0.53,0.63,1.24,1.18,1.53,1.52,1.37,1.03,0.76
1.79,-0.64,-0.26,0.53,0.63,1.24,1.18,1.53,1.52,1.37,1.03,0.76
1.79,-0.64,-0.26,0.53,0.63,1.24,1.18,1.53,1.52,1.37,1.03,0.76
1.79,-0.64,-0.26,0.53,0.63,1.24,1.18,1.53,1.52,1.37,1.03,0.76
1.79,-0.64,-0.26,0.53,0.63,1.24,1.18,1.53,1.52,1.37,1.03,0.76
1.79,-0.64,-0.26,0.53,0.63,1.24,1.18,1.53,1.52,1.37,1.03,0.76
1.79,-0.64,-0.26,0.53,0.63,1.24,1.18,1.53,1.52,1.37,1.03,0.76
1.79,-0.64,-0.26,0.53,0.63,1.24,1.18,1.53,1.52,1.37,1.03,0.76
1.79,-0.64,-0.26,0.53,0.63,1.24,1.18,1.53,1.52,1.37,1.03,0.76
1.79,-0.64,-0.26,0.53,0.63,1.24,1.18,1.53,1.52,1.37,1.03,0.76
1.79,-0.64,-0.26,0.53,0.63,1.24,1.18,1.53,1.52,1.37,1.03,0.76
1.79,-0.64,-0.26,0.53,0.63,1.24,1.18,1.53,1.52,1.37,1.03,0.76
1.79,-0.64,-0.26,0.53,0.63,1.24,1.18,1.53,1.52,1.37,1.03,0.76
1.79,-0.64,-0.26,0.53,0.63,1.24,1.18,1.53,1.52,1.37,1.03,0.76
1.79,-0.64,-0.26,0.53,0.63,1.24,1.18,1.53,1.52,1.37,1.03,0.76
-2.31,-2.55,-2.07,0.57,-0.15,1.56,0.15,1.75,1.03,1.63,0.5,1.09
-0.77,-0.69,-0.54,-0.35,0.19,-0.21,-0.32,0.38,0.95,1.11,0.71,0.38
-0.7,-0.84,-0.62,-0.05,0.28,-0.33,0.66,0.56,0.97,-0.37,-0.25,-0.22
-0.56,-0.6,-0.55,-0.05,-0.14,-1.62,-1.53,-0.65,-0.24,0.18,0.84,1.32
-0.55,-0.32,0.66,1.29,0.93,0.1,-1.47,-1.24,-0.53,-0.07,1.31,0.81
-1.34,-1.93,-0.58,-0.26,1.32,-1.07,2.13,0.73,1.44,1.31,0.45,1.17
-0.54,-0.47,0.55,1.63,1.17,-0.2,-1.42,-0.74,-0.41,-0.47,0.12,-0.31
-0.64,-0.31,-0.11,0.38,0.23,-0.61,-0.12,0.36,-0.24,-0.72,-0.91,0.31
-0.53,-0.32,0.58,1.4,0.77,-0.36,-0.87,-0.54,-0.56,-0.85,-0.93,0.09
-0.59,-0.54,-0.03,0.76,0.68,0.27,0.22,-0.3,-0.76,-0.98,-0.37,0.22
-0.54,-0.26,0.98,1.29,0.21,-1.28,-1.47,-0.95,-0.66,-1.06,-1.03,-0.63
-0.53,-0.27,0.82,1.51,0.96,-0.32,-1.08,-0.73,-0.2,0,0.03,1
-0.59,-0.61,0.45,1.72,1,-0.13,-0.75,-0.73,-0.85,-1.21,-1.5,-1.57
-0.53,-0.19,0.81,1.32,0.72,0.7,-0.53,-0.98,-0.19,0.03,-0.21,0.21
-0.59,-0.38,0.15,0.72,0.54,-0.21,-0.7,-0.63,-0.74,-0.21,0.42,0.71
-0.48,-0.11,1.78,1.38,0.63,0.64,-1.34,-1.47,-1.28,-0.89,-0.12,-0.04
