"V1","V2","V3","V4","V5","V6","V7","V8","V9","V10","V11","V12"
-5.76,-5.55,0.19,3.29,-1.18,0.24,0.37,2.48,0.57,1.72,1.94,1.84
-3.15,-0.96,0.88,0.75,0.47,-0.54,0.88,0.43,1.36,0.63,-0.15,-0.79
-2.35,-1.18,1.21,0.38,-0.05,-1.83,0.16,0.47,2.5,1.38,-0.03,1.73
-1.34,-0.3,0.93,0.66,0.97,-0.04,0.08,-0.8,-1.2,-0.17,0.07,1.45
-1.15,-2.08,1.36,1.27,-0.32,-0.16,0.21,-0.59,0.98,-0.45,-1.19,1.23
-1.29,-0.58,0.68,0.32,-0.86,0.19,1.25,-1.33,0.68,0.6,-1.29,0.6
-1.21,-0.22,1.58,-0.04,-0.96,-0.53,0.75,-0.37,-1.46,0.3,0.81,1.18
-0.88,-1.01,1.88,1.24,-0.77,-0.49,-0.45,-1.48,-0.71,-0.88,-0.28,1.81
-0.43,-0.21,1.69,1.08,-1.05,-1.09,-0.51,-0.32,-0.06,-0.67,-0.45,-0.41
-1.88,-1.01,0.29,-0.06,-1.09,-0.98,0.88,-1.37,-0.35,1.09,1.08,0.32
-1.13,-1.71,2.19,2.18,-1.19,0.14,-0.17,-0.98,-1.92,-0.31,0.11,0.29
-0.93,-0.82,1.12,1.1,0.1,0.59,0.38,-0.79,-1.96,-0.83,-1.47,0.02
-0.94,-2.06,1.25,0.91,-1.2,1.84,0.68,0.27,-1.41,-1.42,-0.42,0.47
-0.67,-0.26,1.21,0.96,-0.32,1.27,-0.31,-1.4,-0.02,-1.35,-1.03,0.67
-0.77,-0.72,1.35,0.93,-1.24,-0.05,0.33,-0.22,-0.08,-0.11,0.83,1.79
-1.37,-0.15,0.78,0.77,-0.27,-0.21,0.54,-0.02,0.99,-0.88,0.79,-0.26
-1.85,0.49,2.55,1.09,1.11,0.43,0.45,-0.38,-0.14,-0.18,0.23,1.56
-0.82,0.13,1.73,0.95,0,-0.6,0.11,-0.54,0.61,-0.3,-0.13,0.5
-1.17,-0.34,1.99,1.71,-0.37,-1.05,0.28,0.15,0.11,-0.57,0.1,1.3
-1.28,-0.1,1.38,1.14,-0.51,0.48,0.07,-1.74,-1.92,-1.03,0.41,1.43
-1.1,-0.99,1.01,1.71,0.57,1.57,0.94,-0.01,-0.97,-0.34,-1.44,-1.63
-0.88,-0.37,0.96,1.08,-1.33,-2.11,0.43,1.12,1.1,-0.29,-0.04,0.87
-0.71,1.29,2.36,0.39,0.09,0.57,0.98,-0.1,-1.49,-0.75,-0.14,0.78
-0.91,-0.36,1.67,0.75,-0.07,-0.92,-0.7,-0.12,0.14,1.2,-0.24,0.15
-0.17,0.14,1.47,-0.12,-1.01,0.24,0.63,0.73,0.72,-0.63,0.4,1.37
-0.66,-1.88,1.11,-0.24,-2.12,-0.94,-0.75,-0.94,-0.52,-0.67,-0.13,0.92
-1.11,-0.87,1.34,1.55,0.23,0.1,0.04,-1.01,-2.37,-2.04,-0.24,1.03
-0.96,-0.44,1.35,1.2,-0.05,0.29,0.94,0.41,-0.57,-0.82,0.02,0.44
-0.78,-1,1.05,0.41,0.26,0.25,0.93,1.11,0.74,0.17,-0.57,-0.91
-0.86,-2.1,1.11,-0.25,-1.84,0.37,0.07,0.23,-1.75,-0.91,-0.32,1.32
-1.02,-0.96,0.23,0.8,0.24,0.06,-0.07,-0.37,0.37,1.11,1.59,0.97
-0.15,-1.05,0.62,1.12,-1.45,0.78,-0.16,-1.69,-0.41,-1.19,-0.36,1.09
-0.2,-0.06,1.45,2.28,-0.55,0.65,-0.19,-3.16,0.37,-1.16,-2.31,0.6
-0.56,-1.4,1,1.61,-0.71,1.29,-0.97,-1.59,0.08,-2.65,-0.75,1.91
0.14,0.15,2.15,1.38,-2.17,-0.88,0.15,-0.83,-1.34,0.05,-0.5,0.06
-0.43,0.75,0.28,0.77,-0.11,-2.05,0.62,-1.07,1.26,2.03,0.41,-0.1
-0.72,1.04,0.67,0.16,0.21,-0.89,-0.66,-0.21,0.56,1.89,2.5,-0.02
-0.73,1.1,0.25,-0.74,-0.02,-0.47,1.02,-1.1,0.61,0.36,0.23,-0.16
-0.37,-0.9,1.15,2.87,-0.66,0.06,0.99,-1.86,-2.36,-0.29,-0.36,0.32
-0.22,-0.77,-0.23,0.19,-0.53,1.8,1.01,-2.58,-1.14,-0.47,-0.88,0.95
-0.59,-0.83,0.04,0.7,0.84,2.48,0.39,-1.14,-0.07,-0.38,-0.26,0.21
-0.99,-0.08,-0.27,-0.12,0.44,0.05,1.5,-1.06,-0.32,-0.84,-0.79,1.59
-0.13,-0.04,0.32,-0.03,-1.06,-0.04,0.95,-1.56,0.54,1.82,-0.79,2.46
0.32,0.48,0.16,0.69,-1.07,-1.33,1.19,-0.4,-1.64,-0.58,-1.07,-0.45
-0.24,0.05,-0.45,0.28,-0.46,-0.1,2.09,1.04,-0.58,0.03,-0.12,-0.21
0.06,-1.45,0.62,0.38,-0.55,1.89,1.51,0.77,-0.02,1.13,0.04,-0.67
0.08,0.27,0.36,0.65,-0.55,-0.85,1.94,0.18,-0.8,0.11,-1.61,0.54
-0.02,-0.41,0.34,-0.22,-2.1,0.64,2.47,0.46,-0.05,-0.44,-2.18,-0.03
0.1,0.88,-0.5,-0.65,-1.7,-0.91,1.75,-1.73,0.36,0.93,2.41,2.02
0.19,0.89,0.73,-0.15,-0.28,1.73,1.33,-0.26,-0.5,0.31,-0.55,0.04
-0.01,0.38,0.79,0.86,-0.6,-0.32,1.08,-2.06,0.2,1.15,-0.68,0.83
-0.08,0.98,1.01,2.53,0.02,-2.47,2.42,-2.01,-1.01,2.33,0.76,1.77
0.43,0.18,-0.07,0.36,-0.71,0.7,1.55,-0.29,-0.58,1.19,-1.08,-0.01
-0.11,0.49,-0.33,-0.1,-0.28,-1.26,0.54,0.27,0.33,-0.76,0.47,0.23
-0.15,-0.34,-0.95,-0.7,-0.95,-0.54,0.33,-0.03,0.28,0.49,0.6,0.68
0.77,-0.51,-0.35,-0.67,-1.28,1.75,1.7,0.39,-0.01,0.69,-0.68,-1.32
0.45,-0.08,-0.07,-0.66,-0.73,0.26,-0.98,0.77,0.3,-1.24,-1.54,-0.46
-0.16,-0.15,-1.11,-0.86,0.36,0.05,0.64,-0.24,-0.25,0.43,0.85,-0.99
0.38,0.11,0.75,-1.09,-0.8,0.4,-0.71,0.02,-0.38,-0.73,-0.81,-0.6
0.68,0.52,-0.43,-0.08,0.82,1.24,0.47,0.87,-1.42,-1.34,-0.05,0.15
0.3,0.06,0.62,-0.33,-0.81,0.47,-1.85,-0.22,0.42,0,1.73,-0.63
-0.53,0.17,-0.72,-1.64,-0.52,0.35,1.55,0.16,0.35,2.41,2.48,-0.43
0.16,0.71,-0.75,-0.33,0.86,-0.93,0.17,0.62,-0.59,-0.43,-0.13,0.93
0.14,-0.36,0.02,-0.61,-1.01,-0.64,-0.14,0.45,0.83,0.5,1.61,0.85
0.42,0.22,-0.76,-0.77,-0.91,0.76,0.12,0.49,1.08,-0.23,0.85,0.6
0,1.55,-0.66,-1.76,0.92,-0.22,0.35,-0.75,-1.55,-1.15,-0.53,-1.43
0.13,1.25,0.13,-0.78,1,0.3,1.03,1.99,1.05,0.17,-0.02,-0.87
-0.22,-0.93,-0.53,-1.52,-0.88,-0.5,-0.6,2,2.17,0.67,-0.61,-1.16
0.11,0.82,-0.68,-0.28,0.79,-0.51,0.51,-0.39,-0.31,0.47,1.11,0.26
-0.12,0.87,-0.68,-0.87,1.11,1.09,-0.4,-1.12,-0.93,-0.63,-0.69,-0.15
0.39,-1.35,-0.72,-0.59,-1.68,-0.41,-1.24,1.01,-0.86,-1.41,0.11,-0.35
0.91,-0.44,-0.24,-0.16,-0.43,0.42,-0.34,0.41,0.15,1.32,0.37,0.05
-0.26,-0.25,-0.8,-0.62,1.39,0.58,0.02,-0.54,-0.63,1.14,1.08,-0.54
0.62,-0.47,-0.88,-0.19,-0.56,-0.03,-0.46,0.62,1.56,1.43,0.28,-0.19
1.1,1.74,0.17,-0.51,0.62,-0.56,1.04,1.36,0.07,-0.1,0.9,0.22
0.22,-0.75,0.02,0.12,0.43,-0.38,-0.45,0.4,0.63,0.64,-0.29,-0.83
-0.03,0.38,-0.85,-1.49,0.6,-0.62,-0.23,0.63,0.49,1.06,2.05,-0.55
0.21,-0.87,-0.63,-0.24,1.21,1.79,0.51,0.34,0.25,0.45,-1.41,-1.15
0.22,-0.06,-0.33,-0.61,-0.42,0.84,1.78,2.74,1.51,1.03,0.07,-0.86
0.1,0.47,-0.53,0.32,1.45,0.21,-0.52,0.24,0.02,-0.02,0.27,-0.58
0.7,1.18,-0.51,-1.21,0.79,0.92,0.27,1.27,1.83,1.01,-0.27,-1.64
0.46,0.64,-1.15,-1.27,0.19,-1.52,-0.5,0.07,-0.27,0.7,0.64,-0.16
0.31,-0.2,-0.75,-1.14,1.11,1.78,-0.9,0.31,0.29,1.31,0.98,-0.59
0.96,0.02,-0.29,-1.01,-0.87,0.35,-1.2,1.5,-0.38,-0.17,0.07,-1.15
0.38,0.32,0.03,-0.3,0.33,0.54,-0.08,1.39,1.36,-1.74,-2.13,-1.22
0.74,0.69,-0.45,0.37,1.54,-0.01,-0.55,0.42,1.77,1.64,-0.47,-1.71
0.78,0.74,-0.72,-0.93,-0.09,-1.18,-1.08,0.62,1.3,-0.08,0.66,-1.82
0.24,0.12,-1.31,-0.86,0.28,1.53,1.32,0.76,1.03,0.75,1.07,0.39
0.92,1.29,-0.5,-1.18,-0.61,-0.84,-1.29,-0.53,0.94,0.83,-1.22,-1.43
0.42,-0.6,-1.08,-1.48,1.31,2.84,-0.64,0.28,-0.86,-1.24,-1.49,-1.09
0.95,0.96,-1.21,-0.68,1.03,-0.6,0.71,-0.07,0.61,1.05,-1.86,-0.49
0.48,-0.27,-1.2,-0.99,0.09,0.46,0.36,0.62,1.21,0.52,0.09,0.96
0.17,1.33,-0.74,-1.17,2.27,0.25,-1.41,-0.55,0.4,-0.16,0.51,1.23
1.27,0.89,-0.63,-0.57,0.7,1.13,-1.23,0.52,1,1.47,1.19,-0.59
0.58,1.03,-0.65,-0.53,-0.04,-0.35,-0.9,-0.51,-0.05,0.8,0.71,-0.37
0.36,1.5,-0.62,-0.86,1.97,0.04,0.08,0.49,1.19,1.23,1.32,0.14
1.73,1.52,-0.17,0.41,1.18,1.04,-0.91,0.04,0.48,0.11,-0.39,-0.77
0.63,-0.99,-0.58,-0.16,0.79,1.42,-0.76,1.25,0.26,-0.62,-1.1,-0.52
0.89,1.02,-0.33,-0.79,0.49,1.25,-0.66,-0.38,-1.78,-0.95,-0.91,-2.81
0.74,0.61,-0.68,-0.58,0.52,-0.05,-0.19,0.24,0.5,0.94,1.22,-0.15
0.6,0.04,-0.71,0.33,2.32,-0.01,-1.26,0.11,0.54,0.66,0.7,-1.18
1.09,-0.09,-0.78,-0.7,-0.32,0.08,-1.28,1.06,-0.48,-2.11,-0.38,-0.9
0.74,0.11,-0.54,0.71,1.88,0.74,-0.79,-1.5,-1.75,-0.56,0.62,0.6
0.99,0.71,-0.31,-0.23,0.04,0.02,-0.45,1.4,1.61,0.31,-0.81,-1.99
0.72,1.11,-1.06,-0.74,0.92,-1.56,-0.83,0.89,0.56,-1.38,-0.82,-0.26
0.84,0.55,-1.21,-1.54,0.71,0.59,-1.96,-0.99,0.59,0.66,1.72,0.86
0.64,1.6,-1.13,-0.74,1.17,-0.04,0.58,0.16,-0.36,-0.77,1.44,0.12
1.16,-0.16,-0.97,-1.28,-1.19,-0.34,-0.93,1.54,0.49,-1.14,-0.04,-1.05
1.44,-0.22,-0.62,-0.71,-0.15,0.03,-0.65,0.66,0.8,0.44,0.85,-0.91
1.59,-1.11,-2.42,-2.1,-0.48,-0.15,-1.79,1.12,0.73,-0.64,-0.74,-1.31
1.03,0.48,-0.46,-0.37,0.06,0.74,0.27,0.85,-0.06,0.03,0.07,-0.04
0.62,-0.09,-1.17,-1.45,0.04,-0.13,-1.3,-0.27,-0.82,-1.63,-0.97,-0.48
0.5,0.98,-1.42,-0.52,1.53,-1.43,0.04,1.12,0.09,0.08,-0.09,-1.44
0.56,0.59,-0.62,-0.11,0.16,-2.3,-1.39,-0.52,-0.75,1.64,0.18,-1.11
0.24,1.85,-1.24,0.05,3.18,-1.22,-1.19,0.58,0.34,-0.15,0.78,0.83
1.17,0.5,-0.86,1.51,1.76,0.78,-0.84,0.01,0.97,0.93,1.32,0.01
0.64,1.53,-0.9,-1.43,0.55,-1.42,-0.23,-0.14,-1.26,-0.55,2.06,1.09
0.96,0.77,-0.86,0.53,1.85,-0.36,-2.13,-0.24,0.07,-0.11,1.43,-0.07
1.41,-0.11,-0.97,0.01,-0.67,0.47,-0.12,-0.6,-2.01,-0.61,-1.07,0.16
0.48,-0.4,-1.23,0.29,-0.42,-1.74,-0.47,0.95,0.54,-0.8,-0.89,0.33
0.52,1.46,-1.6,-0.44,1.43,-1.38,-0.16,0.15,0.91,0.01,0.17,-0.62
0.7,0.73,-1.27,-0.55,0.87,-1.21,0.22,1.32,1.36,-0.33,0.37,-0.38
1.31,0.17,-0.88,-1.04,-0.33,0.03,-1.02,0.42,0.46,-0.83,-0.4,-0.48
0.98,0.52,-0.37,0.41,0.67,-0.67,-1.39,-0.14,-1.42,0.07,-0.12,-1.76
1.08,0.84,-0.24,-0.83,-0.51,-1.14,-2.85,0.62,0.3,-2,-1.48,-0.09
1.18,-0.75,-1.03,0.08,0.16,-0.95,-1.98,0.69,-0.88,-0.12,-1.17,-1.36
1,-0.15,-0.62,-0.08,-1.01,0.89,-0.78,0.15,-1.04,-1.27,-0.32,-0.43
