"V1","V2","V3","V4","V5","V6","V7","V8","V9","V10","V11","V12"
-0.85,0.9,0.22,0.42,0.11,-0.96,0.52,-0.24,-0.5,-0.05,0.32,1.88
-0.92,0.46,-0.69,-1.08,-0.44,-0.91,0.96,0.17,-1.08,0.29,1.51,0.07
-1.04,0.98,1.78,-0.86,-0.43,2.16,0.4,-1.21,0.17,0.09,0.01,0.13
0.79,-0.09,0.52,-0.05,-0.54,0.97,1.4,-1.01,-0.4,0.83,-0.34,0
-1.38,-0.62,0.89,-1.1,-0.58,1.66,0.17,-1.73,1.07,-0.26,-2.04,1.31
-0.66,-0.07,-1.32,-0.54,0.13,-1.65,-1.08,0.65,-0.81,-1.22,0.05,0.09
-0.65,-0.17,-0.72,-0.13,0.97,-0.02,0.73,1.23,-0.06,-0.19,0.79,-1.01
-0.9,0.41,1.2,-1.29,-1.1,1.57,0.37,-0.59,2.2,0.62,-0.99,0.71
-0.74,-0.11,0.91,0.1,-1.83,-0.47,1.07,-1.02,-0.53,0.35,-0.71,-0.61
-1.21,0.48,1.96,-0.9,-2.11,1.14,-0.2,-1.7,1.6,0.18,-1.07,0.92
0.26,1.55,-0.27,0.97,1.13,-0.44,0.26,1.41,-0.46,-1.22,0.69,2.05
0.98,0.07,-0.93,-0.04,1.12,-0.52,-1.46,0.9,0.19,0.43,2.27,-0.24
-0.61,-0.1,-0.86,-0.02,-0.05,-1.07,0.59,-0.27,-0.84,0,0.55,-0.42
1.18,-0.14,0.4,0.48,-0.59,0.49,0.62,-0.8,-0.04,0.84,-0.57,0.17
0.54,-0.59,0.33,1.37,0.1,-0.07,1.25,0.72,-0.79,0.8,-0.64,-1.45
-1.33,-0.31,0.94,-1.78,-0.93,1.02,-2.23,-0.75,1.87,-2.13,-2,0.13
0.62,-0.24,-1.77,0.26,1.34,-0.67,-0.9,1.43,-0.74,-1.85,1.24,1.56
1.05,-0.72,-0.93,1.07,1.41,-0.99,-1.49,1.13,-0.43,-0.68,1.3,0.79
0.25,1.51,0.06,0.9,1.13,-0.27,0.4,0.96,-0.09,-0.34,0.17,-0.68
1.14,-1.49,-0.35,0.46,0.14,0.9,0.31,-1.33,-1.02,0.81,-0.48,-0.54
-0.32,-1.91,-0.49,1.3,-0.41,-1.09,0.12,-0.32,-1.65,1.67,-0.01,-1.79
-0.7,1.52,1.85,-2.17,-0.62,1.31,-2.3,-0.13,1.95,-1.56,-0.54,-0.28
1.43,1.53,0.08,1.77,1.65,-0.63,-0.28,0.94,0.57,-0.47,0.34,0.21
1.69,0.64,-0.66,0.97,1.28,-0.7,-0.37,1.55,0.32,-0.36,0.98,0.26
-0.1,0.1,-0.7,-0.22,0.35,-0.23,0.11,0.24,0.68,0.74,0.13,-1.03
1.94,-1.92,-1.11,-0.66,-1.07,-0.38,-0.14,-0.42,-0.72,0.61,-0.26,-0.53
-0.44,-1.68,-0.36,0.75,-0.15,-0.14,1.16,0.18,-0.44,2.09,-0.7,-1.69
