"V1","V2","V3","V4","V5","V6","V7","V8","V9","V10","V11","V12"
-0.77,-0.64,0.06,1.64,0.78,0.24,0.9,1.27,1.55,0.57,0.36,0.07
-0.38,-1.09,-1.06,0.4,1.12,0.82,2.13,1.65,0.77,0.93,1.38,1.58
-0.37,-1.3,-1.47,0.28,1.14,1.32,2.14,1.58,0.5,0.02,1,0.85
-0.53,-1.14,-0.92,0.01,1,1.33,1.58,0.7,0.32,-0.44,0.9,1.21
-1.96,-2.65,-0.27,0.75,0.91,0.84,1.03,1.19,0.63,0.24,0.66,0.7
-1.37,-1.33,-0.63,0.05,1.05,1.36,0.61,0.98,1.14,-0.13,0.28,1.2
-0.8,-0.29,0.12,0.69,0.71,0.49,0.58,1.03,1.03,-0.32,0.36,2.06
-1.88,-0.22,0.25,0.61,1.41,0.59,0.8,1.27,2.34,0.37,-0.74,0.44
-0.52,-0.73,-0.58,0.66,0.32,-0.22,0.28,0.6,0.14,-0.03,1.28,1.8
-1.07,-0.61,-0.28,0.2,0.63,1.39,1.72,0.7,0.1,1.27,0.9,-0.29
-1.53,-2.12,-0.06,0.41,0.84,0.94,1.03,1.06,0.6,0.21,0.58,0.6
-2.17,-2.58,-0.12,0.87,1.01,0.97,1.13,1.27,0.74,0.34,0.72,0.77
-1.15,-1.27,-0.24,-0.19,1.23,0.38,1.7,0.42,0.82,0.29,0.48,0.87
2.61,-0.51,0.28,1.54,1.27,1.43,1.37,1.47,0.93,0.52,0.81,0.86
2.61,-0.51,0.28,1.54,1.27,1.43,1.37,1.47,0.93,0.52,0.81,0.86
-0.7,-0.79,0.63,1.04,1.02,0.01,0.79,1.23,1.65,0.61,-0.17,0.43
-0.29,-0.8,-0.21,2.1,1.06,0.59,1.33,0.85,0.9,2.6,1.56,1.84
-0.46,-1.18,-1.21,0.44,1.04,0.09,1.02,0.72,0.62,1.18,1.17,1.22
-1.32,-1.63,-0.57,0.45,1.71,1.12,0.3,1.27,0.55,0.62,0.58,0.48
2.61,-0.51,0.28,1.54,1.27,1.43,1.37,1.47,0.93,0.52,0.81,0.86
-1.03,-0.67,-0.69,0.18,0.69,1.66,1.42,0.36,0.88,1.71,-0.31,0.48
2.61,-0.51,0.28,1.54,1.27,1.43,1.37,1.47,0.93,0.52,0.81,0.86
-1.52,-1,-1.55,0.25,1.45,1.02,0.14,1.85,0.67,-0.96,1.66,0.23
2.61,-0.51,0.28,1.54,1.27,1.43,1.37,1.47,0.93,0.52,0.81,0.86
2.61,-0.51,0.28,1.54,1.27,1.43,1.37,1.47,0.93,0.52,0.81,0.86
2.61,-0.51,0.28,1.54,1.27,1.43,1.37,1.47,0.93,0.52,0.81,0.86
-2.56,-1.7,0.37,-0.66,1.61,0.64,1.24,0.73,1.19,0.38,0.19,0.96
2.61,-0.51,0.28,1.54,1.27,1.43,1.37,1.47,0.93,0.52,0.81,0.86
2.61,-0.51,0.28,1.54,1.27,1.43,1.37,1.47,0.93,0.52,0.81,0.86
2.61,-0.51,0.28,1.54,1.27,1.43,1.37,1.47,0.93,0.52,0.81,0.86
-0.69,-1.01,0.64,0.17,1.37,0.53,1.42,1.08,2.21,0.64,2.47,3.44
-0.32,-0.7,-0.09,-0.15,-0.06,0.15,1.16,0.45,0.38,0.51,1.06,1.85
0.37,0.4,-2.37,-0.45,-1.17,-0.16,-0.9,-1.15,1.11,2.24,-0.24,-1.1
0.84,0.92,-1.96,-0.59,-1.69,-1.93,-1.46,-0.36,-0.11,-0.38,-0.57,-0.4
0.85,0.66,-1.58,-0.85,-1.13,-0.19,-2.21,-1.68,-0.76,1.26,-1.23,-1.19
0.94,0.98,-1.8,-0.93,-1.79,-0.14,-1.84,-0.42,0.45,0.08,-1.09,-1.56
0.81,1.15,-0.77,-0.28,-1.73,0.18,-1.58,-1,0,-0.07,-1.68,-1.09
0.79,1.6,-0.48,-0.03,-1.19,-0.89,-0.3,-0.84,-0.42,0.22,-0.83,-0.88
0.55,1.41,-0.67,-0.4,-1.13,-0.77,-0.47,-0.58,1.07,0.84,-1.1,-1.22
0.37,1.53,-0.66,-0.72,-0.9,-0.73,-0.49,-0.74,0.42,0.05,-1.46,-0.95
0.27,1.18,0.03,-0.65,0.09,-0.49,-0.59,-0.86,0.06,-0.32,-1.33,-0.59
0.2,1.21,-0.15,-1.26,-0.04,-0.95,-0.9,-0.76,-0.06,-0.26,-1.28,-1.07
0.19,1.2,0.35,-1.33,-0.4,-0.6,-1.6,-0.68,0.02,-0.26,-1.68,-1.71
0.04,1.29,1.83,-1.34,-0.27,-0.71,-1.17,-0.56,-0.23,-0.47,-0.85,-0.63
-0.05,1.14,1.17,-1.69,-0.22,-0.77,-1.44,-0.97,-1.15,-1.9,-1.46,-1.07
0.03,0.73,0.85,-1.12,-0.52,-0.01,-0.86,-0.55,0.04,0.01,-0.94,-1.06
-0.01,0.75,1.22,-1.15,-0.77,-0.75,-0.8,-0.34,-0.5,-0.76,-1.24,-1.9
-0.04,0.57,0.9,-0.83,-1.05,-1.78,-1.55,-0.55,-1.34,-1.83,-0.86,-0.87
-0.14,0.47,1.49,-0.81,-1.15,-1.35,-0.93,-0.53,-0.95,-1.04,-1.67,-1.65
-0.2,0.7,1.96,-0.96,-1.25,-1.18,-1.11,-0.53,-0.05,-1.23,-1.05,-1.09
-0.11,0.25,1.45,-0.24,-1.29,-1.16,-0.64,0.02,0.37,-0.14,-0.4,-0.73
-0.17,0.02,0.86,-0.14,-1.34,-1.66,-0.45,-0.08,-0.77,-0.41,-0.19,-0.98
-0.15,-0.06,0.63,0.18,-0.84,-1.29,-0.32,0.4,0.25,-0.16,0.21,-0.37
-0.16,-0.12,0.39,0.31,-0.72,-1.37,-0.44,0.29,0.41,-1.07,0,-0.35
-0.21,-0.27,-0.25,0.26,-0.26,-0.91,-0.14,0.06,-0.06,-0.29,0.1,0.38
-0.19,-0.12,0.41,0.43,-0.29,-1.58,0.01,1.06,0.64,0.18,0.22,-0.09
-0.11,0.11,1.02,0.65,-0.6,-1.04,0.31,0.83,0.63,-0.21,0.09,-0.3
-0.13,0.12,0.97,0.32,-0.34,-0.65,-0.43,-0.09,-0.38,0.8,0.91,0.26
-0.09,0.35,1.87,0.35,-0.87,-1.16,-0.4,-0.02,-0.07,0.83,1.26,0.46
-0.08,0.32,1.86,0.57,-0.8,-1.22,-0.41,0.46,0.39,1.46,1.56,0.21
-0.13,-0.2,0.87,0.14,-0.97,-1.67,-1.22,0.23,0.54,1.83,1.02,-0.07
-0.2,-0.35,-0.15,0.4,-0.04,-1.18,-0.42,0.37,0.44,0.67,0.73,0.56
-0.16,-0.48,-0.05,0.44,-0.16,-0.86,0.08,0.75,0.68,0.71,0.91,0.12
-0.22,-0.76,-0.39,0.68,0.05,-0.66,0,0.55,-0.08,0.19,1.1,0.32
-0.26,-0.57,-0.05,0.7,0.73,-0.79,-0.17,0.24,0.4,0.79,1.49,0.48
-0.49,-0.62,-0.4,0.55,0.98,0.17,0.9,1.24,2.05,2.61,1.45,-0.09
-0.3,-0.55,-0.06,1.16,0.43,-0.68,-0.43,0.22,-0.01,0.22,1.38,1.2
-0.27,-0.98,-0.44,0.66,0.36,-0.09,-0.09,0.43,0.53,1.79,1.5,0.5
-0.48,-0.88,-0.25,0.99,0.8,-0.32,0.12,0.51,1.13,0.63,0.73,0.44
-0.76,-1.43,-0.8,0.4,1.19,0.68,0.45,0.86,0.13,0.45,1.13,1.11
-0.52,-0.77,-0.65,0.37,0.39,0.03,-0.42,-0.19,0.5,1.83,1.34,0.42
-0.81,-1.01,-0.18,0.43,1.12,-0.16,1.51,0.17,0.92,0.41,1.35,0.35
-0.77,-0.9,-0.03,-0.4,1.39,0.53,1.05,0.81,1.33,0.13,0.94,1.82
-0.81,-1.2,-0.56,0.42,1.1,0.66,1.07,1.22,0.92,0.15,1.43,0.94
-0.31,-0.55,-0.43,0.33,-0.37,-1.22,0.05,1.35,2.19,1.34,0.55,1.33
0.06,0.67,0.78,-1.52,-1.16,-0.75,0.27,0.33,0.65,1.53,0.49,-0.97
0.51,1.22,-0.81,-0.95,-1.65,0.12,-0.22,-0.12,0.32,-0.62,-0.32,-0.94
0.6,1.22,-1.19,-1.56,-1.84,-0.16,-1.87,-0.98,0.22,-0.3,-0.52,-0.2
0.79,1.7,-1.12,-0.86,-1.16,1.6,-1.55,-1,-1.03,-0.61,-1.34,0.26
0.72,1.75,-1.1,-0.2,-0.85,1.22,-1.61,-1.96,-0.92,-0.5,-0.89,0.58
0.58,1.78,-1.37,-0.35,-1.47,-0.75,-1.31,-2.42,-2.08,-1.11,-0.59,0.02
0.45,2,-0.05,0.23,-0.51,-0.05,-0.97,-1.9,0.99,-0.19,-2.29,-0.81
0.38,1.78,0.12,-0.77,-0.58,0.15,-0.17,-1.87,-0.34,0.58,-0.73,-0.52
0.19,1.51,0.6,-1.06,-0.26,-0.35,-0.14,-1.44,-0.4,-0.17,-1.22,0.32
0.11,1.79,0.91,-1.02,-0.01,-0.36,-0.86,-1.5,-0.69,-0.4,-1.18,-0.92
-0.01,1.78,0.65,-1.82,0.05,-0.06,-0.91,-1.66,-1.05,-0.86,-2.12,-2.17
0.06,1.35,0.58,-2.09,-0.33,-0.66,-1.4,-1.23,-0.72,-0.88,-0.77,-0.39
0.01,0.98,1.39,-1.21,-0.66,-0.44,0.24,-0.67,-1.71,-1.69,-1.16,-1.65
-0.12,1.15,1.78,-1.71,-0.29,-0.21,-1.42,-1.87,-2.31,-1,-0.51,-1.01
-0.04,0.74,1.53,-0.74,-0.64,-0.43,-0.27,-0.66,-1.02,-0.6,-0.88,-0.7
-0.09,0.13,0.61,-0.2,-0.74,-0.84,-0.85,-1.22,-1.93,-0.02,0.74,0.14
-0.11,0.26,0.83,-0.23,-0.84,-0.35,-0.23,-0.57,-1,-0.31,0.17,-0.29
-0.08,0.16,0.48,-0.38,-1.11,-0.62,0.69,0.03,-1.61,-0.51,0.5,0.36
-0.11,0.44,1.34,-0.58,-1.19,-0.36,-0.01,-1,-2.02,-1.55,-0.1,-0.61
-0.23,0.29,1.44,-0.98,-0.9,-1,-1.15,-0.87,-1.83,-1.77,0.06,0.99
-0.26,0.04,1.39,0.03,-1.2,-1.38,-0.04,-0.15,-2,-1.82,-0.63,0.13
-0.28,0,1.55,0.39,-1.25,-1.72,-0.84,-0.63,-1.06,-1.23,0.02,-0.88
-0.26,-0.18,0.84,0.51,-1.12,-1.21,-0.28,-0.36,-1.81,-1.66,-0.53,-0.32
-0.36,-0.39,1.42,0.57,-1.36,-1.37,-0.66,-0.68,-1.58,-1.88,-0.13,-0.17
-0.28,-0.34,0.08,0.44,-0.22,-1.22,-0.59,-0.37,-0.28,-1.39,-0.19,0.17
-0.37,-0.39,1.54,1.47,-0.85,-2.55,-1.06,-0.32,-0.83,-1.25,-0.49,-0.17
-0.37,-0.47,1.18,1.19,-1.09,-2,-0.67,0.2,-0.75,-2.08,-0.48,0.4
-0.37,-0.74,-0.54,0.77,0.57,-0.69,-0.56,0.01,-1.58,-1.91,0.04,0.2
-0.22,-0.27,0.68,1.98,1.45,0.57,-0.3,-0.2,-1.35,-0.66,-0.09,-0.35
-0.3,-0.31,0.51,1.82,1.52,0.64,0.34,0.53,-0.82,-1.93,-0.28,-0.12
-0.36,-0.22,0.68,1.46,1.19,0.51,0.24,0.32,-0.05,-0.35,0.36,0.43
-0.37,-0.63,0.53,0.99,1.2,0.27,0.04,-0.26,-0.76,-1.86,-0.09,0.24
-0.53,-0.54,0.19,0.58,0.86,0.59,0.79,0.59,-0.27,-0.36,0.8,1.22
-0.44,-0.58,0.27,0.43,1.24,0.35,0.84,0.39,0.33,0.37,0.94,1.24
-0.55,-0.7,0.52,0.18,1.41,0.24,0.71,-0.17,-1.05,-1.53,-0.01,0.33
-1.02,-0.7,-0.58,-0.05,0.96,1.53,1.24,0.5,1.13,1.18,-0.11,0.62
-2.55,-2.57,-0.09,0.89,1.03,0.99,1.15,1.28,0.76,0.35,0.73,0.78
-0.48,-0.8,0.09,0.41,0.93,0.7,1.4,0.29,-1.3,-0.4,0.5,0.78
-0.26,-0.5,-0.04,0.75,0.2,-1.25,-0.36,0.2,0.73,1.49,1.07,0.07
0.3,0.72,-0.9,-1.4,-0.54,0.37,-0.96,-1.19,-0.19,1.85,0.1,-0.8
0.59,0.71,-2.41,-1.45,-1.36,0.47,-1.44,-1.88,-0.76,0.37,-0.81,-1.26
0.75,0.78,-2.42,-1.15,-0.95,1.4,-1.33,-0.95,-0.17,0.61,-1.09,-1.03
0.87,0.88,-2.42,-0.97,-0.92,0.88,-0.79,-0.46,-0.41,-0.57,-1.29,-0.78
0.74,0.77,-2.52,-0.45,-0.19,1.54,-0.74,-0.83,-1.11,-0.59,-1.54,-0.31
0.61,1.14,-2.03,-0.4,-1.3,0.7,0.3,-1.2,-0.91,-0.07,-2.17,-2.21
0.43,1.14,-0.85,-0.8,-0.77,0.69,0.03,-1.44,0.66,1.27,-1.44,-2.25
0.28,1.1,-1.42,-1.11,0.08,1.09,0.86,-0.5,-0.3,-0.29,-1.71,-1.51
0.26,1.21,-0.9,-1.67,-0.11,0.59,-0.09,-1.3,-1.33,0.31,-0.54,-1.06
0.17,0.95,-0.43,-2,-0.24,0.99,-0.56,-1.3,-1.01,-0.61,-1.15,-1.01
0.12,0.88,-0.31,-2.32,-0.2,1.13,0.13,-0.76,-0.8,-1.24,-1.35,-1.11
0.05,0.38,-0.41,-1.71,-0.44,0.56,-0.25,-1.11,-1.07,0.03,-0.48,-1.61
0.06,0.27,-0.55,-1.54,-0.43,1.16,-0.34,-1.23,-1.29,0.11,-0.06,-0.4
