"V1","V2","V3","V4","V5","V6","V7","V8","V9","V10","V11","V12"
-3.25,-2.35,0.4,3.66,-1.8,-1.7,-0.48,2.49,0.43,0.84,1.64,1.02
-1.39,-2.64,0.77,1.99,0.29,0.41,2.11,0.95,-1.03,0.03,-0.25,-0.96
-1.57,-0.33,1.23,-0.29,-1.3,-0.98,1.58,2.3,1.45,0,0.15,-0.28
-1.56,-0.56,1.54,1.36,0.28,-0.8,-0.03,-0.74,1.12,1.22,-0.05,1.4
-1.48,-1.61,1.29,1.3,-0.88,-1.54,0.29,-0.21,-1.93,-1.1,-0.59,1.23
-1.46,0.18,1.68,0.1,-0.28,-1.03,0.82,0.79,0.3,1.24,2.26,3.09
-1.99,-1,1.19,0.61,0.61,-0.64,0.94,1.51,0.41,0.44,0.08,0.35
-1.59,-1.84,2.06,2.57,-0.79,-2.23,-0.44,-0.54,0.21,2.4,1.66,0.81
-1.05,0.16,1.92,0.57,0.07,-0.69,0.26,0.72,-0.16,-0.48,0.22,0.5
-1.98,-1.04,1.53,-0.22,-0.71,0.43,2.49,1.11,0.54,1.76,1.91,1.99
-0.71,-1.05,1.06,0.39,-2.25,-1.62,1.4,2.4,0.23,-0.66,-1.08,-1.29
-1.48,-1.26,1.1,0.68,-0.38,-0.36,1.11,-0.2,-0.64,-0.94,-0.25,1.59
-0.65,-1.18,1.69,1.54,-0.72,-0.88,-0.11,1.14,0.14,0.69,0.81,1.31
-0.92,-0.37,2.28,2.61,-1.3,-0.59,-0.24,-0.73,0.88,-0.85,0.59,-0.16
-0.78,-1.1,1.52,2.16,-0.04,-0.33,1.05,-0.03,-0.63,-0.87,-0.46,0.65
-0.98,-0.1,1.8,1.36,-0.85,-2.94,0.54,0.98,-0.56,-0.02,0.97,0.91
-1.71,-0.09,1.25,0.07,0.12,-2.31,-2.23,-1.02,0.24,-0.35,0.53,0.15
-1.76,-0.49,1.5,-0.29,0.09,0.28,0.97,0.27,0,-1.17,-0.93,0.08
-0.82,-0.6,1.45,1.42,-1.08,-1.24,-0.89,-1.05,1.15,2.06,0.81,-0.37
-0.77,-1.22,0.96,0.05,-1.59,-0.78,0.89,-0.57,-0.84,0.62,-0.77,-0.28
-0.77,-0.61,1.12,1.18,-0.49,-0.99,0.54,0.06,-0.67,-1.15,0.53,0.14
-0.9,-0.57,1.46,0.92,-1.34,0.25,1.48,0.45,-0.95,-0.8,-0.06,0.82
-0.42,-1.33,0.48,0.73,-1.33,-1.35,0.59,-0.7,-0.74,0.77,-0.89,-0.93
-0.37,-1.95,0.39,1.05,-1.92,-1.76,0.08,0.26,-0.37,1.9,-0.14,0.08
-0.83,-0.21,1.55,1.71,0.26,-0.66,0.8,0.38,0.61,0.02,0.09,1.76
-1.74,0.63,1.87,0.15,1.1,0.13,-0.09,-0.48,0.73,1.05,0.06,-0.59
-0.92,0.32,0.72,-0.79,-0.84,-0.28,1.12,0.5,0.74,0.33,0.51,0.98
-0.79,-1.66,0.04,0.1,-0.32,-0.39,0.37,-0.31,-2.01,-1.03,0.92,1.02
-0.74,-0.02,0.66,-0.29,-0.49,-0.91,-0.94,-0.65,1.38,2.07,2.42,1.63
-0.6,-1.58,0.04,1.48,-0.62,0.46,2.44,0.68,-0.97,-0.56,-1.35,-1.84
-0.56,-0.23,1.15,1.26,-0.86,-0.34,0.2,-1.37,-1.66,-0.68,0.07,0.65
-1.28,0.51,0.52,-1.35,0.18,-0.17,-0.58,0.15,1.33,0.97,0.56,0.37
-0.17,-2.02,0.71,1.08,-1.63,-1.58,-0.16,-0.83,-1.4,0.2,-0.16,-2.04
-0.86,0.01,0.86,-0.43,0.18,-0.03,0.7,-0.44,-0.08,0.21,-0.04,0.56
-0.44,-0.76,0.68,1.14,0.83,0.6,1.27,0.5,-1.6,-1.04,-0.85,-0.99
-1.37,-0.26,0.06,-1.32,0.26,0.49,0.91,0.98,0.78,0.68,1.97,1.16
-0.97,-0.48,0.85,0.46,0.56,0.56,-0.39,0.55,1.59,1.88,0.65,0.48
-0.41,-0.71,0.64,-0.18,-0.4,0.83,0.63,-0.52,-0.91,-0.68,-1.71,-1.6
-0.85,0.46,0.93,-0.5,-0.26,0.01,1.84,1.27,-0.88,-1.26,0.4,0.91
-0.21,-2.29,-0.04,0.8,-1.13,-1.11,-0.17,-0.18,-0.08,1.14,-0.99,-0.77
-0.32,0.02,0.88,-0.06,-1.02,-1.31,0.2,1.66,1.78,1.77,0.32,0.55
-0.84,0.47,1.88,1.03,0.07,0.04,1.17,-0.05,0.44,0.7,1.28,1.17
-0.95,0.74,0.98,-0.21,0.08,-0.41,0.59,0.28,1.16,0.15,0.19,1.01
-0.85,0.66,0.89,0.04,0.88,-0.49,-0.37,-1,0.87,0.76,1.45,1.19
-1.44,-0.59,0.23,-0.09,0.84,-1.3,-0.59,0.57,1.99,1.28,-0.21,-0.92
-0.53,-0.37,0.21,1.04,1.08,0.03,0.38,0.01,0.09,1.83,2.08,0.42
-0.29,-0.37,0.76,0.54,-0.2,0.8,0.7,0.35,0.39,-0.91,-3.14,-1.85
-0.83,0.57,0.55,-0.5,0.97,0.11,2.08,2.16,2,0.53,0.04,-1.27
-0.7,0.47,0.65,0.95,0.66,0.01,1.36,0.26,-0.33,-0.25,-0.28,-2.25
-0.01,-1.32,0.49,1.11,-0.12,1.08,0.72,0.25,-0.22,0.7,-0.29,-0.64
-0.35,0.05,0.52,-0.25,-1.05,-1.17,-0.78,-0.75,-0.59,-0.48,-0.65,-0.99
0.09,-0.16,0.39,0.48,-1.2,-0.69,-1.27,-1.87,-1.28,-1.28,-0.66,1.54
0.1,0.28,1.18,0.49,-0.45,-0.61,0.08,0.16,0.01,-0.05,-1.61,-0.61
-1.15,0.16,-0.3,-1.81,-0.31,-1.44,0.64,1.04,1.09,1.35,1.52,0.1
-0.21,-1.39,0.15,0.27,-0.79,1.21,1.63,-0.4,-0.08,-1.73,-2.03,0.11
-0.35,0.43,0.07,-0.87,0.51,-0.49,0.14,0.58,1.17,0.13,0.13,-0.99
-0.24,-0.36,-0.13,1.18,0.44,-0.92,0.56,0.21,0.54,1.56,0.24,-0.81
0.55,-0.63,0.28,0.45,-2.73,-1.22,-1.53,-0.96,-0.95,-0.24,-0.43,-1.48
-0.15,-0.37,-0.11,0.38,1.16,-0.93,-1.77,-0.38,-0.3,-0.12,-0.39,-0.34
-0.14,-0.15,-0.11,0.59,0.85,0.64,1.04,-0.13,-0.97,-1.39,-0.63,0.21
-0.22,-1.14,-0.07,0.77,0.7,0.02,1.95,-0.28,-1.31,0.2,-0.94,-1.66
-0.37,0.11,0.41,-0.1,-0.8,0.37,-0.39,-1.29,0.18,0.64,0.53,0.39
-0.58,-0.73,-0.19,-0.72,-0.2,-1.13,-0.6,2.05,0.55,0.94,1.24,-1.3
0.65,-1.43,-0.9,-0.42,-2.1,-0.75,-0.59,1.28,0.14,-0.27,-1.18,-0.67
-0.29,0.45,0.43,-0.02,0.75,0.76,-0.02,-0.43,-1.26,-0.47,0.08,-1.15
0.72,-1.24,-0.27,0.76,-1.49,-1.03,-1.46,-0.16,-0.79,-0.03,-0.76,-1.19
0.3,0.27,0.39,0.37,-1.12,0.29,-0.76,0.86,1.09,-1.24,-0.76,-1.23
-0.03,-0.71,-0.65,-0.15,-0.44,-1.11,-1.74,-0.51,-0.56,-0.04,0.12,-0.08
0.37,-0.43,-0.33,-0.76,-1.61,-0.65,-1.71,-0.23,0.86,0.89,0.68,-0.77
0.49,-0.4,-0.12,-0.61,-0.98,1.16,-0.33,0.56,-0.39,-0.1,-0.49,-1.03
0.46,0.09,-0.4,-0.12,0.25,0.32,-0.9,-0.95,1.45,0.18,-0.03,2.07
-0.48,0.85,-0.57,-2.04,1.14,-0.11,1.01,0.43,0.38,0.05,0.24,-1.14
0.39,0.52,-0.45,-1.42,-0.32,0.57,-0.75,0.12,-0.32,-0.61,-0.47,-1.2
0.35,1.13,-0.55,-0.99,0.81,0.87,0.63,0.67,0.58,0.76,0.03,-0.16
0.35,0.47,-1.18,-1.02,0,-1.19,-1.93,-1.83,-1.67,-0.24,0.6,0.23
0.46,0.15,-1.05,-1.06,-0.84,-0.46,-0.86,1.04,2.62,-0.27,-1.18,-0.3
0.42,0.78,-0.85,-0.55,-0.54,-0.32,0.77,0.08,-1.3,-0.14,0.11,-0.89
0.91,0.18,-0.21,-0.36,-0.77,1.65,-0.11,0.66,1.04,0.48,1.24,0.03
0.24,-1.23,-0.83,-0.9,-0.38,2.5,-0.3,0.03,0.72,-0.31,-1.37,-0.11
1.08,-1.29,-1.09,-1.06,-1.55,1.74,-0.83,-0.7,-0.98,-0.44,-0.5,-0.69
0.75,0.9,-0.11,-0.37,0.65,1.64,0.81,0.4,-0.39,-0.07,-0.06,-0.01
0.38,-0.17,-0.71,0.59,1.41,0.74,-1,-0.5,1.12,0.98,-0.31,-0.79
0.68,1.67,-0.3,-0.59,-0.01,0.87,0.51,-0.02,-0.36,-1.25,-0.49,-0.02
0.46,0.83,-1.34,-0.79,1.02,-0.1,0.55,0.81,0.45,0.29,0.91,1.19
0.93,1.73,-0.7,-1.37,0.36,1.05,-0.9,-0.24,0.8,0.96,1.4,0.49
0.03,0.62,-0.64,-0.56,1.69,1.05,-0.13,-0.71,0.58,-0.26,0.58,0.4
0.74,0.7,-1.16,-0.22,2.02,0.35,-0.21,0.85,0.67,-0.64,1.65,1.35
0.78,-0.95,-1.07,-1.05,-0.28,1.68,-1.07,-0.72,-1.04,-0.03,1.24,0.85
1,0.59,-0.47,0.83,1.19,1.7,-0.47,-1.7,-2.51,-0.31,1.01,0.96
1.04,1.59,-1.16,-0.5,1.46,0.73,-0.42,-0.23,-0.42,-1.52,-0.1,0.85
0.76,0.06,-0.43,0.35,1.04,2.37,-0.24,-0.9,-0.55,0.05,0.52,0.36
0.77,0.34,-0.95,-0.72,-0.24,1.09,-0.73,-1,-0.23,0.7,-0.17,-0.83
0.82,0.42,-1.06,-1.3,0.03,-0.27,-1,0.23,-0.61,-1.16,0.68,0.92
1.45,2.13,-0.47,-1.93,-0.14,0.46,-0.08,0.81,0.7,0.62,-0.21,1.3
0.7,0.71,-0.65,-1.09,0.28,0.41,-0.23,-0.24,-0.61,-0.5,-1.22,-1.41
0.9,0.67,-1.02,0.45,1.22,0.31,-1.02,-0.65,0.8,0.98,0.68,0.54
0.64,1.49,-0.54,0.12,1.27,0.15,-0.26,-1.68,0.11,-0.14,0.41,1.04
0.92,0.8,-1.12,-1.67,0.33,-0.57,-3.16,-0.57,0.09,0.05,2.38,1.68
0.14,1.05,-1.29,-0.72,2.26,-0.02,2.07,1.2,-0.02,0.22,0.41,-0.05
1.07,1.74,-0.56,-0.61,1.88,0.37,-0.11,1.06,0.45,-1.04,0.17,-0.6
0.48,-0.11,-1.58,0.42,1.9,0.37,-0.55,-0.42,-0.58,-1.57,0.21,1.39
1.06,0.47,-0.89,0.45,0.03,-0.2,-0.52,2.15,1.92,1.14,-0.52,-0.29
0.99,-0.82,-1.41,-1.08,0.01,1.62,-0.23,1.4,1.19,2,1.16,-0.82
1.11,1.4,-0.92,-1.01,0.52,0.4,-1.02,0.35,0.51,-0.34,-0.17,-0.35
1.09,0.69,-1.85,0.17,2.15,1.35,-0.38,-1.31,-0.8,-1.31,-0.32,-0.68
1.07,0.75,-0.86,-0.87,0.93,1.71,-0.6,0.29,0.37,1.33,1.57,-0.51
0.99,0.89,-0.78,-0.23,0.76,-0.04,-0.41,0.03,-0.36,-0.7,-0.09,-0.05
1.14,0.05,-1.12,0.19,0.29,1.23,0.25,0.25,-0.53,-1.64,-0.59,0.32
0.95,1.54,-0.92,0.27,2.23,0.85,-0.76,-1.4,-1.21,-0.5,0.24,1.34
0.82,0.91,-0.99,-0.73,1,0.52,-1.17,-1.62,0.86,0.8,-0.43,-0.93
1.27,0.93,-1.69,-1.1,0.58,2.14,0.19,-0.19,-0.03,-2.57,-0.88,-0.03
1.15,2.37,-1.28,-1.06,1.44,0.43,0.68,1.63,1.22,-1.02,-0.92,-0.25
0.8,-0.67,-0.83,0.21,-0.43,-0.38,-0.18,-0.95,-0.84,-0.05,-2.09,0.34
1.28,1.12,-1.08,-0.82,0.21,-0.33,-1.7,-0.54,0.92,1.65,0.89,-0.59
1.08,0.87,-1.3,-1.05,0.38,-0.88,-1.28,1.44,2.21,1,-0.77,0.55
1.08,0,-0.35,0.85,0.95,0.77,0.48,0.97,-0.34,-1.47,-0.86,0.7
0.95,1.18,-1.33,-1.44,-0.02,0.49,-0.24,0.22,0.95,0.02,-1.47,-1.3
1.55,0.45,-1.17,-0.36,0.29,0.93,-0.35,-0.52,-0.33,-0.31,-0.01,-0.47
1,1.45,-0.5,-0.66,1.04,0.36,-0.89,-0.3,-0.15,-0.46,-1.14,-0.4
1.67,-0.34,-1.73,-0.79,-1.3,0.09,0.41,-1.8,-0.27,0.69,0.05,0.03
1.35,0.49,-1.53,-1.31,0.18,0.6,0.8,0.31,0.89,0.25,-1.81,-1.37
1.51,0.81,-0.8,-0.5,0.79,0.57,-0.95,-1.34,-1.33,-0.95,-1.72,-1.18
1.42,0.1,-0.55,0.7,0.11,1.32,-0.65,-2.22,-1.65,-1.63,-0.38,-0.72
1.64,1.61,-0.66,-1.29,-0.82,-0.1,-1.01,-2.66,-1.89,-1.41,-1.19,-0.67
1.07,0.69,-0.73,-0.71,0.53,0.5,-0.23,-1.14,-1.11,-1.21,-0.92,0.41
1.61,0.92,-0.41,0.38,-0.85,0.39,0.4,-0.41,-1.25,-1.45,0.81,-0.11
1.42,1.98,-0.92,-0.65,0.27,0.64,0.29,-1.65,-1.42,-1.4,-1.55,0.58
